# Blender MTL File: 'None'
# Material Count: 1

newmtl planet
Ns 31.372549
Ka 0.665367 0.665367 0.665367
Kd 0.878400 0.776500 0.341200
Ks 0.350000 0.350000 0.350000
Ke 0.000000 0.000000 0.000000
Ni 1.000000
d 1.000000
illum 2
