<?xml version="1.0" encoding="utf-8"?>
<COLLADA xmlns="http://www.collada.org/2005/11/COLLADASchema" version="1.4.1" xmlns:xsi="http://www.w3.org/2001/XMLSchema-instance">
  <asset>
    <contributor>
      <author>Blender User</author>
      <authoring_tool>Blender 2.81.16 commit date:2019-11-20, commit time:14:27, hash:26bd5ebd42e3</authoring_tool>
    </contributor>
    <created>2020-01-23T18:25:49</created>
    <modified>2020-01-23T18:25:49</modified>
    <unit name="meter" meter="1"/>
    <up_axis>Z_UP</up_axis>
  </asset>
  <library_cameras>
    <camera id="Camera_001-camera" name="Camera.001">
      <optics>
        <technique_common>
          <perspective>
            <xfov sid="xfov">39.59775</xfov>
            <aspect_ratio>1.777778</aspect_ratio>
            <znear sid="znear">0.1</znear>
            <zfar sid="zfar">100</zfar>
          </perspective>
        </technique_common>
      </optics>
      <extra>
        <technique profile="blender">
          <shiftx sid="shiftx" type="float">0</shiftx>
          <shifty sid="shifty" type="float">0</shifty>
          <dof_distance sid="dof_distance" type="float">10</dof_distance>
        </technique>
      </extra>
    </camera>
    <camera id="Camera-camera" name="Camera">
      <optics>
        <technique_common>
          <perspective>
            <xfov sid="xfov">39.59775</xfov>
            <aspect_ratio>1.777778</aspect_ratio>
            <znear sid="znear">0.1</znear>
            <zfar sid="zfar">100</zfar>
          </perspective>
        </technique_common>
      </optics>
      <extra>
        <technique profile="blender">
          <shiftx sid="shiftx" type="float">0</shiftx>
          <shifty sid="shifty" type="float">0</shifty>
          <dof_distance sid="dof_distance" type="float">10</dof_distance>
        </technique>
      </extra>
    </camera>
  </library_cameras>
  <library_lights>
    <light id="Light_001-light" name="Light.001">
      <technique_common>
        <point>
          <color sid="color">1000 1000 1000</color>
          <constant_attenuation>1</constant_attenuation>
          <linear_attenuation>0</linear_attenuation>
          <quadratic_attenuation>0.00111109</quadratic_attenuation>
        </point>
      </technique_common>
      <extra>
        <technique profile="blender">
          <type sid="type" type="int">0</type>
          <flag sid="flag" type="int">0</flag>
          <mode sid="mode" type="int">1</mode>
          <gamma sid="blender_gamma" type="float">1</gamma>
          <red sid="red" type="float">1</red>
          <green sid="green" type="float">1</green>
          <blue sid="blue" type="float">1</blue>
          <shadow_r sid="blender_shadow_r" type="float">0</shadow_r>
          <shadow_g sid="blender_shadow_g" type="float">0</shadow_g>
          <shadow_b sid="blender_shadow_b" type="float">0</shadow_b>
          <energy sid="blender_energy" type="float">1000</energy>
          <dist sid="blender_dist" type="float">29.99998</dist>
          <spotsize sid="spotsize" type="float">75</spotsize>
          <spotblend sid="spotblend" type="float">0.15</spotblend>
          <att1 sid="att1" type="float">0</att1>
          <att2 sid="att2" type="float">1</att2>
          <falloff_type sid="falloff_type" type="int">2</falloff_type>
          <clipsta sid="clipsta" type="float">0.04999995</clipsta>
          <clipend sid="clipend" type="float">30.002</clipend>
          <bias sid="bias" type="float">1</bias>
          <soft sid="soft" type="float">3</soft>
          <bufsize sid="bufsize" type="int">2880</bufsize>
          <samp sid="samp" type="int">3</samp>
          <buffers sid="buffers" type="int">1</buffers>
          <area_shape sid="area_shape" type="int">1</area_shape>
          <area_size sid="area_size" type="float">0.1</area_size>
          <area_sizey sid="area_sizey" type="float">0.1</area_sizey>
          <area_sizez sid="area_sizez" type="float">1</area_sizez>
        </technique>
      </extra>
    </light>
    <light id="Light-light" name="Light">
      <technique_common>
        <point>
          <color sid="color">1000 1000 1000</color>
          <constant_attenuation>1</constant_attenuation>
          <linear_attenuation>0</linear_attenuation>
          <quadratic_attenuation>0.00111109</quadratic_attenuation>
        </point>
      </technique_common>
      <extra>
        <technique profile="blender">
          <type sid="type" type="int">0</type>
          <flag sid="flag" type="int">0</flag>
          <mode sid="mode" type="int">1</mode>
          <gamma sid="blender_gamma" type="float">1</gamma>
          <red sid="red" type="float">1</red>
          <green sid="green" type="float">1</green>
          <blue sid="blue" type="float">1</blue>
          <shadow_r sid="blender_shadow_r" type="float">0</shadow_r>
          <shadow_g sid="blender_shadow_g" type="float">0</shadow_g>
          <shadow_b sid="blender_shadow_b" type="float">0</shadow_b>
          <energy sid="blender_energy" type="float">1000</energy>
          <dist sid="blender_dist" type="float">29.99998</dist>
          <spotsize sid="spotsize" type="float">75</spotsize>
          <spotblend sid="spotblend" type="float">0.15</spotblend>
          <att1 sid="att1" type="float">0</att1>
          <att2 sid="att2" type="float">1</att2>
          <falloff_type sid="falloff_type" type="int">2</falloff_type>
          <clipsta sid="clipsta" type="float">0.04999995</clipsta>
          <clipend sid="clipend" type="float">30.002</clipend>
          <bias sid="bias" type="float">1</bias>
          <soft sid="soft" type="float">3</soft>
          <bufsize sid="bufsize" type="int">2880</bufsize>
          <samp sid="samp" type="int">3</samp>
          <buffers sid="buffers" type="int">1</buffers>
          <area_shape sid="area_shape" type="int">1</area_shape>
          <area_size sid="area_size" type="float">0.1</area_size>
          <area_sizey sid="area_sizey" type="float">0.1</area_sizey>
          <area_sizez sid="area_sizez" type="float">1</area_sizez>
        </technique>
      </extra>
    </light>
  </library_lights>
  <library_effects>
    <effect id="Black_001-effect">
      <profile_COMMON>
        <technique sid="common">
          <lambert>
            <emission>
              <color sid="emission">0 0 0 1</color>
            </emission>
            <diffuse>
              <color sid="diffuse">0.029928 0.029928 0.029928 1</color>
            </diffuse>
            <index_of_refraction>
              <float sid="ior">1</float>
            </index_of_refraction>
          </lambert>
        </technique>
      </profile_COMMON>
    </effect>
    <effect id="White_001-effect">
      <profile_COMMON>
        <technique sid="common">
          <lambert>
            <emission>
              <color sid="emission">0 0 0 1</color>
            </emission>
            <diffuse>
              <color sid="diffuse">0.8 0.8 0.8 1</color>
            </diffuse>
            <index_of_refraction>
              <float sid="ior">1</float>
            </index_of_refraction>
          </lambert>
        </technique>
      </profile_COMMON>
    </effect>
    <effect id="Teeth_001-effect">
      <profile_COMMON>
        <technique sid="common">
          <lambert>
            <emission>
              <color sid="emission">0 0 0 1</color>
            </emission>
            <diffuse>
              <color sid="diffuse">0.588526 0.49078 0.154508 1</color>
            </diffuse>
            <index_of_refraction>
              <float sid="ior">1</float>
            </index_of_refraction>
          </lambert>
        </technique>
      </profile_COMMON>
    </effect>
    <effect id="Bun_001-effect">
      <profile_COMMON>
        <technique sid="common">
          <lambert>
            <emission>
              <color sid="emission">0.3672381 0.2253103 0.08698934 1</color>
            </emission>
            <diffuse>
              <color sid="diffuse">0.5775806 0.3515326 0.1328684 1</color>
            </diffuse>
            <transparent opaque="A_ONE">
              <color sid="alpha">0 0 0 0.55</color>
            </transparent>
            <index_of_refraction>
              <float sid="ior">1</float>
            </index_of_refraction>
          </lambert>
        </technique>
      </profile_COMMON>
    </effect>
    <effect id="Tomato_001-effect">
      <profile_COMMON>
        <technique sid="common">
          <lambert>
            <emission>
              <color sid="emission">0 0 0 1</color>
            </emission>
            <diffuse>
              <color sid="diffuse">0.578444 0.058417 0.026444 1</color>
            </diffuse>
            <index_of_refraction>
              <float sid="ior">1</float>
            </index_of_refraction>
          </lambert>
        </technique>
      </profile_COMMON>
    </effect>
    <effect id="Cheese_001-effect">
      <profile_COMMON>
        <technique sid="common">
          <lambert>
            <emission>
              <color sid="emission">0 0 0 1</color>
            </emission>
            <diffuse>
              <color sid="diffuse">0.588526 0.543068 0.049467 1</color>
            </diffuse>
            <index_of_refraction>
              <float sid="ior">1</float>
            </index_of_refraction>
          </lambert>
        </technique>
      </profile_COMMON>
    </effect>
    <effect id="Meat_001-effect">
      <profile_COMMON>
        <technique sid="common">
          <lambert>
            <emission>
              <color sid="emission">0 0 0 1</color>
            </emission>
            <diffuse>
              <color sid="diffuse">0.14309 0.057681 0.022406 1</color>
            </diffuse>
            <index_of_refraction>
              <float sid="ior">1</float>
            </index_of_refraction>
          </lambert>
        </technique>
      </profile_COMMON>
    </effect>
  </library_effects>
  <library_images/>
  <library_materials>
    <material id="Black_001-material" name="Black.001">
      <instance_effect url="#Black_001-effect"/>
    </material>
    <material id="White_001-material" name="White.001">
      <instance_effect url="#White_001-effect"/>
    </material>
    <material id="Teeth_001-material" name="Teeth.001">
      <instance_effect url="#Teeth_001-effect"/>
    </material>
    <material id="Bun_001-material" name="Bun.001">
      <instance_effect url="#Bun_001-effect"/>
    </material>
    <material id="Tomato_001-material" name="Tomato.001">
      <instance_effect url="#Tomato_001-effect"/>
    </material>
    <material id="Cheese_001-material" name="Cheese.001">
      <instance_effect url="#Cheese_001-effect"/>
    </material>
    <material id="Meat_001-material" name="Meat.001">
      <instance_effect url="#Meat_001-effect"/>
    </material>
  </library_materials>
  <library_geometries>
    <geometry id="Cylinder-mesh" name="Cylinder">
      <mesh>
        <source id="Cylinder-mesh-positions">
          <float_array id="Cylinder-mesh-positions-array" count="1428">0.7997356 0.2598498 -0.3027774 0.8458585 0.274836 -0.2306331 0.8458585 -0.2748361 -0.2306331 0.7997356 -0.2598499 -0.3027774 0.8601906 0.2794929 -0.3786713 0.8601906 -0.2794929 -0.3786713 0.4942637 0.6802957 -0.3027774 0.5227692 0.7195301 -0.2306331 0.8553456 0.2779186 -0.1656383 0.8553456 -0.2779187 -0.1656383 0.5227691 -0.7195302 -0.2306331 0.4942636 -0.6802957 -0.3027774 0.8174498 -0.2656056 -0.5006856 0.8174498 0.2656055 -0.5006856 0.5316271 0.7317218 -0.3786713 0.5316269 -0.7317219 -0.3786713 0 0.8408918 -0.3027774 0 0.8893882 -0.2306331 0.5286327 0.7276005 -0.1656383 0.8364168 0.2717683 -0.1006435 0.8364168 -0.2717683 -0.1006435 0.5286325 -0.7276005 -0.1656383 0 -0.8893882 -0.2306331 0 -0.8408918 -0.3027774 0.5052118 0.6953643 -0.5006856 0.5052117 -0.6953644 -0.5006856 0.7187874 -0.2335482 -0.5760479 0.7187874 0.2335481 -0.5760479 0 0.9044581 -0.3786713 0 -0.9044581 -0.3786713 -0.4942636 0.6802959 -0.3027774 -0.522769 0.7195303 -0.2306331 0 0.8993636 -0.1656383 0.516934 0.7114986 -0.1006435 0.7913811 0.2571353 -0.0580368 0.7913811 -0.2571353 -0.0580368 0.5169339 -0.7114986 -0.1006435 0 -0.8993636 -0.1656383 -0.5227693 -0.71953 -0.2306331 -0.4942638 -0.6802957 -0.3027774 0 0.8595176 -0.5006856 0.4442351 0.611437 -0.5760479 0 -0.8595176 -0.5006856 0.444235 -0.6114373 -0.5760479 0.5441536 -0.1768062 -0.6420543 0.5441536 0.1768062 -0.6420543 -0.5316268 0.7317221 -0.3786713 -0.5316272 -0.7317218 -0.3786713 -0.7997355 0.25985 -0.3027774 -0.8458583 0.2748361 -0.2306331 -0.5286324 0.7276006 -0.1656383 0 0.8794606 -0.1006435 0.4891004 0.673189 -0.0580368 0.7906582 -0.2569004 -0.03011137 0.7904453 0.2568312 -0.02189105 0.4891003 -0.673189 -0.0580368 0 -0.8794606 -0.1006435 -0.5286328 -0.7276003 -0.1656383 -0.8458583 -0.2748361 -0.2306331 -0.7997355 -0.2598499 -0.3027774 -0.5052115 0.6953647 -0.5006856 0 0.7557778 -0.5760479 0.3363054 0.4628847 -0.6420543 -0.5052118 -0.6953643 -0.5006856 0 -0.7557778 -0.5760479 0.3363053 -0.4628847 -0.6420543 0 0.572157 -0.6420543 0 -0.5721568 -0.6420543 -0.3363053 -0.4628846 -0.6420543 -0.5441535 -0.1768062 -0.6420543 -0.5441535 0.1768063 -0.6420543 -0.3363052 0.4628848 -0.6420543 -0.8601906 0.279493 -0.3786713 -0.8601906 -0.279493 -0.3786713 -0.8553456 0.2779188 -0.1656383 -0.5169337 0.7114988 -0.1006435 0 0.8321073 -0.0580368 0.4886336 0.6725465 -0.02886408 0.4885478 -0.6724286 -0.02350986 0.7707613 -0.2843449 -0.03144979 0.6953744 -0.3881759 -0.03303599 0 -0.8321073 -0.0580368 -0.516934 -0.7114985 -0.1006435 -0.8553456 -0.2779188 -0.1656383 -0.8174496 0.2656056 -0.5006856 -0.4442349 0.6114373 -0.5760479 -0.8174496 -0.2656056 -0.5006856 -0.4442351 -0.6114372 -0.5760479 -0.7187874 -0.2335482 -0.5760479 -0.7187874 0.2335483 -0.5760479 -0.8364167 0.2717684 -0.1006435 -0.4891002 0.6731892 -0.0580368 0 0.8311851 -0.02416533 0.297059 0.7349129 -0.03327268 0.4027526 0.7005442 -0.03229475 0 -0.8311851 -0.02416539 -0.4891005 -0.6731889 -0.0580368 -0.8364167 -0.2717684 -0.1006435 -0.791381 0.2571355 -0.0580368 -0.4885477 0.6724288 -0.02350986 -0.4886337 -0.6725464 -0.02886408 -0.297059 -0.7349128 -0.03327268 -0.4027526 -0.7005442 -0.03229475 -0.791381 -0.2571354 -0.0580368 -0.7906579 0.2569005 -0.03011143 -0.7707612 0.284345 -0.03144979 -0.6953744 0.3881759 -0.03303599 -0.7904452 -0.2568314 -0.02189105 -0.8662317 0.2667083 0.2029572 -0.7923555 0.2427044 0.4357042 -0.4920099 0.6560944 0.4357042 -0.5376679 0.7189374 0.2029572 -0.488237 0.6509016 0.1182478 -0.7862508 0.2407209 0.1182478 -0.8662317 -0.2922778 0.2029572 -0.7923555 -0.2682739 0.4357042 -0.571865 0.1710626 0.6202891 -0.3557394 0.4685339 0.6202891 -0.00604099 0.8139951 0.4357042 -0.00604099 0.8916733 0.2029572 -0.7862508 -0.2662904 0.1182478 -0.00604099 0.8075764 0.1182478 -0.4452226 0.6127969 0.1169788 -0.7203856 0.2340676 0.1169788 -0.5376682 -0.7445066 0.2029572 -0.4920101 -0.6816639 0.4357042 -0.571865 -0.1966322 0.6202891 -0.2933235 0.08055901 0.7021036 -0.1835911 0.2315922 0.7021036 -0.00604099 0.5821577 0.6202891 0.4799281 0.6560943 0.4357042 0.5255861 0.718937 0.2029572 -0.4882374 -0.6764709 0.1182478 -0.7203856 -0.2340674 0.1169788 0.4761552 0.6509013 0.1182478 0 0.7574583 0.1169788 -0.5331426 0.7338086 0.1211469 -0.8626433 0.28029 0.1211469 -0.00604099 -0.9172429 0.2029572 -0.00604099 -0.8395647 0.4357042 -0.3557395 -0.4941033 0.6202891 -0.2933235 -0.1061285 0.7021036 -0.00604099 0.289282 0.7021036 -0.1835913 -0.2571617 0.7021036 -0.00604099 -0.3148515 0.7021036 0.1715092 -0.2571617 0.7021036 0.2812415 -0.1061284 0.7021036 0.2812415 0.08055895 0.7021036 0.1715092 0.2315922 0.7021036 0.3436574 0.4685338 0.6202891 0.7802734 0.2427042 0.4357042 0.8541496 0.2667081 0.2029572 -0.00604099 -0.833146 0.1182478 -0.4452229 -0.6127966 0.1169788 -0.8626433 -0.2802899 0.1211469 0.7741687 0.2407208 0.1182478 0.4452228 0.6127966 0.1169788 0 0.907037 0.1211469 -0.5343568 0.7354797 0.05451333 -0.8646078 0.2809283 0.05451333 0.5255858 -0.7445067 0.2029572 0.479928 -0.6816639 0.4357042 -0.00604099 -0.6077273 0.6202891 0.3436574 -0.4941034 0.6202891 0.5597829 -0.196632 0.6202891 0.5597829 0.1710625 0.6202891 0.7802734 -0.2682739 0.4357042 0.8541496 -0.2922777 0.2029572 0.4761552 -0.676471 0.1182478 0 -0.7574583 0.1169788 -0.5331431 -0.7338083 0.1211469 -0.8646078 -0.2809282 0.05451333 0.7741687 -0.2662903 0.1182478 0.7203857 0.2340674 0.1169788 0.5331429 0.7338083 0.1211469 0 0.9091025 0.05451333 -0.4852491 0.6678887 0.05868124 -0.7851499 0.2551108 0.05868124 0.4452227 -0.6127968 0.1169788 0 -0.907037 0.1211469 -0.5343571 -0.7354794 0.05451333 -0.7851499 -0.2551108 0.05868124 0.7203857 -0.2340674 0.1169788 0.8626434 0.2802898 0.1211469 0.5343571 0.7354794 0.05451333 0 0.8255555 0.0586813 -0.4875203 0.6710147 0.03410565 -0.6944769 0.385645 0.04368025 -0.7672249 0.2855991 0.04214519 -0.7886146 0.2562366 0.04070866 0.5331429 -0.7338084 0.1211469 0 -0.9091025 0.05451333 -0.4852495 -0.6678884 0.0586813 -0.7888764 -0.2563216 0.03248578 0.8626434 -0.2802898 0.1211469 0.864608 0.2809281 0.05451333 0.4852494 0.6678884 0.05868124 0 0.8293976 0.03476154 0.534357 -0.7354796 0.05451333 0 -0.8255555 0.0586813 -0.4874153 -0.6708694 0.03946155 0.864608 -0.2809281 0.05451333 0.78515 0.2551106 0.05868124 0.4874153 0.6708695 0.03946155 0.3993917 0.6993522 0.04298108 0.2979978 0.7322656 0.0439229 0.4852493 -0.6678885 0.0586813 -0.3993917 -0.6993522 0.04298108 -0.2979978 -0.7322656 0.0439229 0 -0.8293976 0.03476154 0.78515 -0.2551107 0.05868124 0.7888765 0.2563215 0.03248578 0.4875205 -0.6710146 0.03410565 0.7886148 -0.2562365 0.0407086 0.6944769 -0.3856452 0.04368025 0.767225 -0.2855991 0.04214519 0.7906582 -0.2569004 -0.03011137 0.7904453 0.2568312 -0.02189105 0.4886336 0.6725465 -0.02886408 0.4885478 -0.6724286 -0.02350986 0.7707613 -0.2843449 -0.03144979 0.6953744 -0.3881759 -0.03303599 0 0.8311851 -0.02416533 0.297059 0.7349129 -0.03327268 0.4027526 0.7005442 -0.03229475 0 -0.8311851 -0.02416539 -0.4885477 0.6724288 -0.02350986 -0.4886337 -0.6725464 -0.02886408 -0.297059 -0.7349128 -0.03327268 -0.4027526 -0.7005442 -0.03229475 -0.7906579 0.2569005 -0.03011143 -0.7707612 0.284345 -0.03144979 -0.6953744 0.3881759 -0.03303599 -0.7904452 -0.2568314 -0.02189105 -0.4875203 0.6710147 0.03410565 -0.6944769 0.385645 0.04368025 -0.7672249 0.2855991 0.04214519 -0.7886146 0.2562366 0.04070866 -0.7888764 -0.2563216 0.03248578 0 0.8293976 0.03476154 -0.4874153 -0.6708694 0.03946155 0.4874153 0.6708695 0.03946155 0.3993917 0.6993522 0.04298108 0.2979978 0.7322656 0.0439229 -0.3993917 -0.6993522 0.04298108 -0.2979978 -0.7322656 0.0439229 0 -0.8293976 0.03476154 0.7888765 0.2563215 0.03248578 0.4875205 -0.6710146 0.03410565 0.7886148 -0.2562365 0.0407086 0.6944769 -0.3856452 0.04368025 0.767225 -0.2855991 0.04214519 0.6458486 0.7867609 0.03044873 0.9972404 -0.2040217 0.03044873 0.9972404 -0.2040217 -0.01993316 0.6458486 0.7867609 -0.01993316 0.2040217 0.9972404 -0.01993316 0.2040217 0.9972404 0.03044873 0.7867609 -0.6458486 0.03044873 0.7867609 -0.6458486 -0.01993316 -0.7867609 0.6458486 0.03044873 -0.7867609 0.6458486 -0.01993316 -0.2040217 -0.9972404 0.03044873 -0.2040217 -0.9972404 -0.01993316 -0.9972404 0.2040217 -0.01993316 -0.9972404 0.2040217 0.03044873 -0.6458486 -0.7867609 0.03044873 -0.6458486 -0.7867609 -0.01993316 0.2119615 -0.4704838 0.6595674 0.1975429 -0.3539361 0.6313287 0.1733573 -0.3289048 0.7469884 0.1877759 -0.4454525 0.7752271 0.1507706 -0.4106585 0.6983543 0.6681654 -0.2180649 0.7706874 0.4466068 -0.3479048 0.8094268 0.4325824 -0.2345432 0.7819601 0.4561069 -0.2588902 0.6694622 0.4701313 -0.372252 0.696929 0.2034732 -0.4871051 0.7244569 0.1757726 -0.4612047 0.6666818 0.1745201 -0.3809208 0.7900226 0.1649188 -0.3734727 0.6454249 0.1818454 -0.3122835 0.6820989 0.1467128 -0.3546301 0.7324885 0.2107986 -0.4184679 0.6165331 0.1575666 -0.4423622 0.7537453 0.4618751 -0.3884187 0.7600446 0.4690002 -0.3216579 0.655071 0.4408386 -0.2183762 0.7188445 0.4337134 -0.2851372 0.823818 0.610454 -0.2722792 0.8145782 0.6000931 -0.1885297 0.7942865 0.6174725 -0.2065169 0.711175 0.6278334 -0.2902665 0.7314668 0.2734415 -0.4154574 0.7860406 0.2591612 -0.3000275 0.7580726 0.283115 -0.3248187 0.6435223 0.2973952 -0.4402487 0.6714902 0.260313 -0.3515446 0.8006941 0.1774157 -0.470677 0.7162653 0.2675681 -0.2835656 0.6938055 0.1828541 -0.4197225 0.6361454 0.2962435 -0.3887315 0.6288686 0.1559218 -0.3918486 0.7649396 0.2889885 -0.4567105 0.7357572 0.1613599 -0.340894 0.6848198 0.5795274 -0.318404 0.771924 0.5847579 -0.2693954 0.6948638 0.5640845 -0.1935771 0.7416794 0.5588542 -0.2425857 0.8187397 -0.2240436 -0.4704838 0.6595674 -0.209625 -0.3539361 0.6313287 -0.1854393 -0.3289048 0.7469884 -0.1998579 -0.4454525 0.7752271 -0.1628526 -0.4106585 0.6983543 -0.6802475 -0.2180649 0.7706874 -0.4586889 -0.3479048 0.8094268 -0.4446645 -0.2345432 0.7819601 -0.468189 -0.2588902 0.6694622 -0.4822134 -0.372252 0.696929 -0.2155553 -0.4871051 0.7244569 -0.1878546 -0.4612047 0.6666818 -0.1866022 -0.3809208 0.7900226 -0.1770009 -0.3734727 0.6454249 -0.1939275 -0.3122835 0.6820989 -0.1587949 -0.3546301 0.7324885 -0.2228807 -0.4184679 0.6165331 -0.1696487 -0.4423622 0.7537453 -0.4739572 -0.3884187 0.7600446 -0.4810823 -0.3216579 0.655071 -0.4529207 -0.2183762 0.7188445 -0.4457954 -0.2851372 0.823818 -0.6225361 -0.2722792 0.8145782 -0.6121752 -0.1885297 0.7942865 -0.6295546 -0.2065169 0.711175 -0.6399155 -0.2902665 0.7314668 -0.2855235 -0.4154574 0.7860406 -0.2712432 -0.3000275 0.7580726 -0.295197 -0.3248187 0.6435223 -0.3094772 -0.4402487 0.6714902 -0.272395 -0.3515446 0.8006941 -0.1894978 -0.470677 0.7162653 -0.2796502 -0.2835656 0.6938055 -0.194936 -0.4197225 0.6361454 -0.3083255 -0.3887315 0.6288686 -0.1680037 -0.3918486 0.7649396 -0.3010705 -0.4567105 0.7357572 -0.1734419 -0.340894 0.6848198 -0.5916095 -0.318404 0.771924 -0.59684 -0.2693954 0.6948638 -0.5761666 -0.1935771 0.7416794 -0.5709363 -0.2425857 0.8187397 0.5025243 -0.4711125 0.1529464 0.7087789 -0.6209635 0.3105092 0.4237435 -0.7135787 0.310509 0.2475799 -0.4711125 0.3105103 0.4237435 -0.2286462 0.310509 0.7087789 -0.3212615 0.3105092 0.581305 -0.7135787 0.5654572 0.2962697 -0.6209635 0.5654571 0.2962697 -0.3212615 0.5654571 0.581305 -0.2286462 0.5654572 0.7574685 -0.4711125 0.5654559 0.5025243 -0.4711125 0.7230198 0.4562185 -0.6136295 0.1955153 0.6237568 -0.559192 0.1955155 0.5774515 -0.7017105 0.2881286 0.7449901 -0.4711125 0.2881291 0.6237568 -0.3830329 0.1955155 0.352672 -0.4711125 0.1955162 0.3063651 -0.6136299 0.288129 0.4562185 -0.3285955 0.1955153 0.3063651 -0.328595 0.288129 0.5774515 -0.2405145 0.2881286 0.7736107 -0.5591923 0.437983 0.7736107 -0.3830325 0.437983 0.5025243 -0.7561491 0.437983 0.6700647 -0.7017119 0.437983 0.2314378 -0.5591923 0.437983 0.3349838 -0.7017119 0.437983 0.3349838 -0.2405129 0.437983 0.2314378 -0.3830325 0.437983 0.6700647 -0.2405129 0.437983 0.5025243 -0.1860758 0.437983 0.6986834 -0.6136299 0.5878372 0.427597 -0.7017105 0.5878377 0.2600584 -0.4711125 0.5878371 0.427597 -0.2405145 0.5878377 0.6986834 -0.328595 0.5878372 0.54883 -0.6136295 0.6804508 0.6523765 -0.4711125 0.68045 0.3812917 -0.3830329 0.6804508 0.54883 -0.3285955 0.6804508 0.3896968 -0.4817408 0.6829081 0.4558721 -0.5728231 0.6829081 0.4375819 -0.516531 0.6997221 0.3418114 -0.516531 0.6463269 0.3896968 -0.5513212 0.6829081 0.3561143 -0.5757198 0.6374872 0.4079868 -0.6076138 0.646327 -0.5115058 -0.4711125 0.1529464 -0.3052511 -0.6209635 0.3105092 -0.5902866 -0.7135787 0.310509 -0.76645 -0.4711125 0.3105103 -0.5902866 -0.2286462 0.310509 -0.3052511 -0.3212615 0.3105092 -0.4327251 -0.7135787 0.5654572 -0.7177604 -0.6209635 0.5654571 -0.7177604 -0.3212615 0.5654571 -0.4327251 -0.2286462 0.5654572 -0.2565615 -0.4711125 0.5654559 -0.5115058 -0.4711125 0.7230198 -0.5578116 -0.6136295 0.1955153 -0.3902732 -0.559192 0.1955155 -0.4365785 -0.7017105 0.2881286 -0.2690399 -0.4711125 0.2881291 -0.3902732 -0.3830329 0.1955155 -0.6613581 -0.4711125 0.1955162 -0.707665 -0.6136299 0.288129 -0.5578116 -0.3285955 0.1955153 -0.707665 -0.328595 0.288129 -0.4365785 -0.2405145 0.2881286 -0.2404193 -0.5591923 0.437983 -0.2404193 -0.3830325 0.437983 -0.5115058 -0.7561491 0.437983 -0.3439654 -0.7017119 0.437983 -0.7825922 -0.5591923 0.437983 -0.6790463 -0.7017119 0.437983 -0.6790463 -0.2405129 0.437983 -0.7825922 -0.3830325 0.437983 -0.3439654 -0.2405129 0.437983 -0.5115058 -0.1860758 0.437983 -0.3153467 -0.6136299 0.5878372 -0.5864331 -0.7017105 0.5878377 -0.7539716 -0.4711125 0.5878371 -0.5864331 -0.2405145 0.5878377 -0.3153467 -0.328595 0.5878372 -0.4652001 -0.6136295 0.6804508 -0.3616536 -0.4711125 0.68045 -0.6327384 -0.3830329 0.6804508 -0.4652001 -0.3285955 0.6804508 -0.6115764 -0.5971173 0.6564856 -0.6546134 -0.570656 0.6491513 -0.626751 -0.550413 0.6868355 -0.6664802 -0.5215487 0.6564856 -0.5870222 -0.5215487 0.7007859 -0.5718474 -0.5682525 0.6868355 -0.626751 -0.4926843 0.6868355 -0.4427678 -0.9201515 0.03245925 -0.433525 -0.6147895 0.1559668 -0.3440886 -0.6528312 0.1946614 -0.3463208 -0.7233651 0.2718839 -0.4379898 -0.7558575 0.3104116 -0.5274265 -0.717816 0.2717168 -0.5251941 -0.6472819 0.1944945 -0.5530589 -0.9782258 -0.008047044 -0.5357067 -0.624791 -0.515506 -0.3677972 -0.5698251 -0.4297325 -0.3719884 -0.4578856 -0.268413 -0.5440891 -0.4009115 -0.1928673 -0.7119987 -0.4558772 -0.2786403 -0.7078077 -0.5678166 -0.4399599 0.3676116 -0.9449823 0.03320646 0.3768542 -0.6396201 0.156714 0.2851854 -0.6721124 0.1952416 0.282953 -0.7426465 0.272464 0.3723894 -0.7806881 0.3111588 0.4640585 -0.7481959 0.2726311 0.4662907 -0.6776615 0.1954087 0.4858587 -1.01044 -0.006715059 0.4911125 -0.656634 -0.5141846 0.3267251 -0.5914863 -0.4287177 0.3374646 -0.4800043 -0.2673848 0.5125914 -0.4336696 -0.1915188 0.6769784 -0.4988167 -0.2769855 0.6662393 -0.6102985 -0.4383186</float_array>
          <technique_common>
            <accessor source="#Cylinder-mesh-positions-array" count="476" stride="3">
              <param name="X" type="float"/>
              <param name="Y" type="float"/>
              <param name="Z" type="float"/>
            </accessor>
          </technique_common>
        </source>
        <source id="Cylinder-mesh-normals">
          <float_array id="Cylinder-mesh-normals-array" count="2403">0.3509476 -0.9171211 -0.1890096 -0.2761946 -0.9456755 -0.171506 -0.452839 -0.5743344 -0.6819655 0.3151435 -0.6007764 -0.7346784 0.0584793 0.2344923 -0.9703575 -0.40884 0.02449208 -0.9122774 -0.6904892 0.4397832 -0.5742957 -0.1580708 0.7388669 -0.6550492 -0.3352459 0.9222785 0.1923865 -0.6930987 0.7208235 -0.005255579 -0.8182222 0.3555024 0.4518083 -0.2988026 0.6043523 0.738563 -0.0416665 -0.2314054 0.9719647 -0.5816108 -0.1940082 0.7899935 -0.5753266 -0.7105693 0.405081 0.1742366 -0.7341877 0.6562088 -0.9768357 0.1130174 -0.1817117 -0.885966 -0.1671822 -0.4325671 -0.888605 -0.4365203 -0.1408234 -0.9830346 -0.1419568 0.1161518 0.415745 0.26242 0.8707996 0.7624685 -0.5808072 0.2851401 0.7533386 -0.06535226 -0.6543776 0.3579856 0.9252694 -0.1253911 0.1078795 -0.2010687 0.9736187 -0.04104447 -0.2312895 0.9720188 0.1951327 -0.7278058 0.6574358 0.3283793 -0.7505171 0.5734904 -0.2305197 0.9494582 0.2130488 -0.3693575 0.9106957 0.1849557 -0.3266575 0.5981354 0.7317985 -0.2059873 0.5294299 0.8229661 0.2074059 0.2588976 -0.9433742 0.05632007 0.2340999 -0.9705799 -0.1806187 0.7322786 -0.6566163 -0.1212761 0.819616 -0.5599302 0.516755 -0.8431774 -0.1483783 0.3832507 -0.9055712 -0.1818236 0.341283 -0.5946369 -0.7279649 0.4193606 -0.4827853 -0.768801 -0.350949 -0.9171203 -0.1890112 0.4488631 -0.8497838 -0.2763867 0.2928363 -0.5339168 -0.7932086 -0.3151429 -0.6007762 -0.7346788 -0.0584799 0.2344934 -0.9703572 0.5751737 0.06874322 -0.8151378 0.5913964 0.5943675 -0.5449565 0.1580709 0.7388666 -0.6550495 0.335246 0.9222786 0.192386 0.8103194 0.5843581 0.04368412 0.6930613 0.3686524 0.6194849 0.298803 0.6043526 0.7385627 0.04166591 -0.2314055 0.9719647 0.7025176 -0.2930032 0.6485509 0.3824687 -0.8232914 0.4194151 -0.1742372 -0.7341871 0.6562094 0.9589503 0.09362637 -0.2676725 0.8738487 -0.2559263 -0.4133887 0.9072631 -0.4176152 -0.04971259 0.9943783 -0.05272942 0.09182333 -0.415745 0.2624194 0.8707998 -0.7624682 -0.5808075 0.2851403 -0.7533388 -0.06535166 -0.6543775 -0.3579861 0.9252693 -0.1253912 -0.0183379 -0.1074444 0.994042 0.04104501 -0.231293 0.972018 -0.1951325 -0.7278056 0.6574362 -0.3352575 -0.6748983 0.6573544 0.2700847 0.9583425 0.09291946 0.3693575 0.910695 0.1849588 0.3266575 0.5981356 0.7317982 0.1815024 0.624451 0.7596828 -0.203068 0.1455295 -0.9682896 -0.05632001 0.2340999 -0.9705799 0.1806181 0.7322786 -0.6566165 0.03570777 0.7671757 -0.6404424 -0.4696171 -0.8813241 -0.05222541 -0.3832503 -0.9055716 -0.1818225 -0.3412824 -0.5946364 -0.7279657 -0.4828681 -0.551777 -0.6799858 0.102382 -0.31509 -0.9435234 0.7002239 -0.268032 -0.661699 -0.2680345 -0.194736 -0.9435229 -0.2680345 0.194736 -0.9435229 0.1023818 0.3150899 -0.9435235 0.9049888 -0.2680319 -0.3303847 0.02474665 -0.9435214 -0.3303864 -0.8896967 -0.3150956 -0.3303854 -0.5746021 0.748783 -0.3303884 0.5345761 0.7778641 -0.3303874 0.8026087 -0.5831269 -0.1256273 -0.3065689 -0.9435217 -0.1256279 -0.9920774 0 -0.1256284 -0.306568 0.9435218 -0.1256289 0.8026087 0.5831269 -0.1256276 0.4089469 -0.6284242 0.6616989 -0.2190451 -0.5476139 0.8075508 -0.7002245 0.2680315 0.6616984 0.03853029 0.7487789 0.6616989 0.7240423 0.1947365 0.6616951 0.2680345 0.1947365 0.9435228 0.4911192 0.356821 0.7946577 0.4089468 0.628424 0.6616992 -0.1023803 0.3150898 0.9435237 -0.1875938 0.5773452 0.7946578 -0.4713 0.5831219 0.6616988 -0.1148914 -0.3183929 0.9409708 -0.6539069 -0.2639116 0.7090533 -0.4516037 -0.5370093 0.7125133 -0.5927248 -0.03043484 0.80483 -0.3345489 -0.00503087 0.9423651 0.03853094 -0.7487794 0.6616984 0.2680344 -0.1947365 0.9435228 0.4911194 -0.3568215 0.7946573 0.7240419 -0.1947367 0.6616955 0.8896967 0.3150955 0.3303858 0.7946555 0.5773478 0.1875956 0.5746024 0.7487831 0.3303878 -0.02474695 0.9435216 0.3303858 -0.3035302 0.9341716 0.1875978 -0.5345763 0.777864 0.330387 -0.9049886 0.2680318 0.3303855 -0.9822458 0 0.1875988 -0.9049888 -0.2680319 0.3303848 -0.5345765 -0.7778648 0.3303853 -0.3035309 -0.9341716 0.1875962 -0.02474611 -0.9435217 0.3303855 0.5746027 -0.7487829 0.3303875 0.7946555 -0.5773479 0.1875957 0.8896968 -0.3150957 0.3303852 0.3065686 0.9435217 0.1256287 0.3035304 0.9341716 -0.187598 0.02474701 0.9435213 -0.3303864 -0.8026091 0.5831262 0.1256282 -0.7946556 0.5773476 -0.187596 -0.8896968 0.3150952 -0.3303857 -0.8026092 -0.5831263 0.1256275 -0.7946557 -0.5773477 -0.1875956 -0.5746021 -0.7487833 -0.3303878 0.3065692 -0.9435216 0.1256285 0.3035309 -0.9341714 -0.1875973 0.5345764 -0.7778645 -0.3303863 0.9920773 0 0.125629 0.9822458 0 -0.187599 0.9049887 0.2680319 -0.3303853 0.4712995 0.5831221 -0.6616988 0.1875951 0.5773451 -0.7946578 -0.03852981 0.7487792 -0.6616987 -0.4089464 0.6284248 -0.6616986 -0.4911198 0.3568206 -0.7946574 -0.724042 0.1947364 -0.6616955 -0.7240418 -0.1947365 -0.6616957 -0.4911203 -0.3568209 -0.7946571 -0.4089468 -0.628425 -0.6616984 0.7002242 0.2680317 -0.6616986 0.6070602 0 -0.7946559 0.3313052 0 -0.9435237 -0.03853023 -0.74878 -0.6616978 0.1875953 -0.5773449 -0.7946578 0.4712997 -0.5831223 -0.6616986 0.1023819 -0.3150898 -0.9435234 0.7002238 -0.2680323 -0.6616989 -0.2680345 -0.1947361 -0.9435229 -0.2680343 0.194736 -0.943523 0.1023817 0.3150897 -0.9435234 0.904989 -0.2680316 -0.3303848 0.02474665 -0.9435213 -0.3303866 -0.8896973 -0.3150938 -0.3303856 -0.5746022 0.7487829 -0.3303884 0.5345761 0.7778643 -0.3303869 0.8026088 -0.583127 -0.1256266 -0.3065688 -0.9435217 -0.1256278 -0.9920772 0 -0.1256296 -0.306568 0.9435219 -0.1256288 0.8026087 0.5831269 -0.1256273 0.4089466 -0.6284251 0.6616984 -0.1949775 -0.5705028 0.7978161 -0.7002248 0.2680314 0.6616981 0.03853029 0.7487788 0.6616992 0.724042 0.1947364 0.6616955 0.2680346 0.1947365 0.9435228 0.4911195 0.3568205 0.7946578 0.4089464 0.6284248 0.6616986 -0.1023803 0.3150897 0.9435236 -0.1875938 0.5773448 0.7946581 -0.4713 0.5831222 0.6616985 -0.07400375 -0.3074143 0.9486939 -0.6854085 -0.2668136 0.6775144 -0.4622294 -0.5615559 0.6862937 -0.6127497 0.01255202 0.7901774 -0.3059183 0.03869158 0.9512712 0.038531 -0.7487794 0.6616985 0.4911195 -0.3568208 0.7946577 0.7240416 -0.1947366 0.6616959 0.8896968 0.3150948 0.3303859 0.7946549 0.5773485 0.1875959 0.5746026 0.7487829 0.3303879 -0.02474695 0.9435215 0.3303858 -0.30353 0.9341716 0.1875976 -0.5345765 0.7778639 0.3303872 -0.904989 0.2680312 0.3303853 -0.9049891 -0.2680314 0.3303844 -0.5345766 -0.7778644 0.3303861 -0.3035308 -0.9341718 0.1875962 -0.02474611 -0.9435215 0.3303858 0.5746028 -0.7487828 0.3303875 0.794655 -0.5773487 0.1875956 0.8896969 -0.3150951 0.3303856 0.3065683 0.9435217 0.1256288 0.3035302 0.9341715 -0.1875979 0.02474701 0.9435212 -0.3303866 -0.802609 0.5831265 0.1256279 -0.7946557 0.5773477 -0.1875956 -0.8896974 0.3150934 -0.3303859 -0.802609 -0.5831266 0.1256278 -0.5746024 -0.748783 -0.3303879 0.3065689 -0.9435217 0.1256284 0.3035308 -0.9341715 -0.1875972 0.5345764 -0.7778648 -0.3303856 0.9920773 0 0.1256292 0.9049888 0.2680316 -0.3303854 0.4712997 0.5831219 -0.661699 0.187595 0.5773451 -0.7946577 -0.03852981 0.7487792 -0.6616986 -0.4089463 0.6284251 -0.6616984 -0.4911199 0.3568202 -0.7946577 -0.7240428 0.1947357 -0.6616948 -0.7240427 -0.1947359 -0.661695 -0.4911203 -0.3568204 -0.7946572 -0.4089467 -0.6284252 -0.6616981 0.7002239 0.2680323 -0.6616988 0.331305 0 -0.9435237 -0.03853023 -0.7487798 -0.6616981 0.1875952 -0.5773448 -0.7946579 0.4712996 -0.5831218 -0.6616992 0.3509486 -0.9171205 -0.189011 -0.4488632 -0.8497837 -0.2763867 -0.292837 -0.5339166 -0.7932085 0.3151456 -0.6007747 -0.7346789 0.05847984 0.2344933 -0.9703572 -0.5751749 0.06874293 -0.8151369 -0.5913964 0.5943684 -0.5449556 -0.1580709 0.7388659 -0.6550503 -0.3352445 0.9222792 0.192386 -0.8103208 0.584356 0.0436846 -0.6930595 0.3686524 0.6194868 -0.2988026 0.6043531 0.7385624 -0.0416665 -0.2314041 0.971965 -0.7025187 -0.293004 0.6485493 -0.3824682 -0.8232914 0.4194155 0.1742371 -0.7341875 0.6562091 -0.9589498 0.09362602 -0.2676744 -0.8738486 -0.2559279 -0.4133881 -0.9072635 -0.4176142 -0.0497145 -0.9943784 -0.05272746 0.09182274 0.2229087 0.2555139 0.9407573 0.6505878 -0.7026558 0.2881154 0.6105307 -0.1143514 -0.7836939 0.1313487 0.9742279 -0.1833783 0.0183379 -0.1074444 0.994042 -0.04104501 -0.2312927 0.972018 0.1951328 -0.7278066 0.657435 0.3352575 -0.6748983 0.6573544 -0.2700847 0.9583425 0.09291946 -0.3693574 0.9106951 0.1849588 -0.3266583 0.5981339 0.7317994 -0.1815025 0.6244502 0.7596834 0.203068 0.1455296 -0.9682895 0.05631977 0.2341006 -0.9705798 -0.1806181 0.7322782 -0.6566168 -0.03570783 0.7671754 -0.6404427 0.469617 -0.8813242 -0.05222535 0.3832526 -0.9055697 -0.1818263 0.3412824 -0.5946362 -0.7279658 0.4828681 -0.551777 -0.6799858 -0.3509478 -0.917121 -0.1890097 0.2761939 -0.9456759 -0.1715058 0.4528378 -0.5743343 -0.6819664 -0.315146 -0.6007752 -0.7346784 -0.05847936 0.2344923 -0.9703575 0.4088405 0.02449303 -0.9122772 0.6904875 0.4397848 -0.5742964 0.1580711 0.7388662 -0.6550499 0.3352447 0.9222792 0.1923851 0.6930999 0.7208225 -0.005254685 0.8182207 0.3555026 0.4518105 0.2988026 0.6043525 0.7385629 0.0416665 -0.231404 0.9719651 0.5816118 -0.1940093 0.7899926 0.5753271 -0.7105698 0.4050796 -0.1742367 -0.7341876 0.6562089 0.9768354 0.1130173 -0.1817136 0.885966 -0.1671825 -0.4325671 0.8886042 -0.4365221 -0.1408227 0.983035 -0.1419545 0.1161511 -0.2229095 0.2555137 0.9407573 -0.6505882 -0.7026554 0.2881156 -0.61053 -0.1143521 -0.7836943 -0.1313492 0.9742277 -0.1833787 -0.1078794 -0.2010684 0.9736189 0.04104447 -0.2312893 0.9720189 -0.1951323 -0.7278067 0.657435 -0.3283795 -0.7505168 0.5734906 0.2305197 0.9494583 0.2130488 0.3693572 0.9106958 0.1849555 0.3266583 0.5981339 0.7317994 0.2059873 0.5294297 0.8229662 -0.2074061 0.2588983 -0.943374 -0.05631977 0.2341007 -0.9705797 0.1806187 0.7322785 -0.6566165 0.1212762 0.8196159 -0.5599304 -0.516755 -0.8431775 -0.1483783 -0.3832527 -0.9055695 -0.1818276 -0.3412826 -0.5946366 -0.7279653 -0.4193607 -0.4827845 -0.7688016 -0.2190451 -0.5476163 0.8075493 -0.114897 -0.318391 0.9409707 -0.6539078 -0.2639114 0.7090525 -0.4516058 -0.5370065 0.7125141 -0.5927217 -0.03043603 0.8048321 -0.334549 -0.005026996 0.9423649 -0.1949777 -0.5705028 0.7978159 -0.07400035 -0.3074168 0.9486933 -0.6854062 -0.2668182 0.6775149 -0.4622299 -0.5615534 0.6862955 -0.6127566 0.01255416 0.7901721 -0.3059172 0.03868579 0.9512719 -0.1875936 -0.5773491 0.7946551 -0.6070616 0 0.7946548 -0.4712996 -0.5831252 0.6616962 -0.1023792 -0.315088 0.9435243 -0.7002254 -0.2680314 0.6616976 -0.3313015 0 0.943525 -0.4712967 -0.5831235 0.6616997 -0.3313075 0 0.9435229 -0.6070568 0 0.7946584 -0.7002205 -0.2680355 0.6617011 -0.1023833 -0.3150954 0.9435214 -0.187594 -0.5773441 0.7946586 0.4865245 0.3148894 -0.8149471 0.9529266 -0.2370836 -0.1890033 0.4596687 -0.76796 0.4460293 -0.5066444 -0.7383512 0.4451394 -0.9653043 -0.1783091 -0.1907708 -0.4648299 0.3440403 -0.8158245 0.4865263 -0.7246335 -0.4880559 0.9529271 -0.2369456 0.1891742 0.4596687 0.2642883 0.847854 -0.5066444 0.2699969 0.8187878 -0.9653045 -0.2256137 0.1314751 -0.4648316 -0.7190136 -0.516673 -0.4648299 0.34404 -0.8158246 -0.9653046 -0.1783083 -0.1907699 -0.506646 -0.7383508 0.4451384 0.4596667 -0.7679603 0.4460309 0.9529267 -0.2370824 -0.1890046 0.4865238 0.3148899 -0.8149473 -0.5290771 -0.6935147 -0.4889937 -0.9659928 -0.1781492 0.1874057 -0.4441868 0.2919827 0.8470209 0.5207149 0.2385178 0.8197349 0.9494372 -0.2842817 0.1332408 0.4208908 -0.7461518 -0.5158571 0.7821747 0 0.6230593 0.943772 0 -0.3305971 0.6327922 0.4597502 0.62306 0.6327928 -0.4597508 0.6230589 0.7635276 0.5547353 -0.3305972 0.7635279 -0.5547353 -0.3305967 0.6070159 0 -0.7946897 0.2417055 0.7438917 0.6230599 0.2417053 -0.7438917 0.6230601 0.2916418 0.8975802 -0.3305978 0.4910863 0.3567948 -0.7946898 0.2916415 -0.8975808 -0.3305968 0.491086 -0.3567948 -0.7946898 0.3535581 0 -0.9354127 -0.2417053 0.7438921 0.6230594 -0.2417055 -0.7438918 0.6230597 -0.2916417 0.8975807 -0.3305964 0.1875784 0.577306 -0.7946901 0.2860354 0.2078162 -0.9354124 -0.2916416 -0.8975804 -0.3305975 0.1875783 -0.5773067 -0.7946896 0.2860346 -0.2078164 -0.9354125 0 0 -1 -0.6327928 0.4597507 0.6230591 -0.632792 -0.4597502 0.6230602 -0.7635272 0.554735 -0.3305985 -0.1875777 0.5773059 -0.7946902 0.1092556 0.3362538 -0.9354125 -0.7635276 -0.5547348 -0.3305981 -0.1875774 -0.5773062 -0.7946901 0.1092554 -0.3362535 -0.9354127 -0.1092554 0.3362537 -0.9354126 -0.1092554 -0.3362534 -0.9354127 -0.2860345 -0.207816 -0.9354127 -0.353558 0 -0.9354127 -0.2860344 0.2078162 -0.9354127 -0.7821742 0 0.6230599 -0.9437716 0 -0.3305983 -0.4910866 0.3567954 -0.7946893 -0.4910867 -0.3567948 -0.7946894 -0.6070169 0 -0.794689 -0.7711049 0.5602406 0.3025358 -0.5882437 0.4273838 -0.686522 -0.9531382 0 0.3025355 -0.5193181 0.3773068 0.7667779 -0.2945356 0.9064882 0.3025357 -0.7271093 0 -0.6865218 -0.224689 0.6915223 -0.6865216 -0.7711049 -0.5602405 0.3025357 -0.6419125 0 0.7667779 -0.2279964 0.1656494 0.9594675 -0.1983617 0.6104951 0.7667779 0.2945363 0.9064883 0.3025348 -0.5882446 -0.4273844 -0.6865209 0.2246891 0.6915221 -0.6865217 -0.294536 -0.9064883 0.3025353 -0.5193181 -0.3773066 0.7667781 -0.2818197 0 0.9594674 -0.08708673 0.2680262 0.9594675 -1.53587e-7 0 1 0.1983618 0.6104951 0.7667779 0.771105 0.5602406 0.3025355 -0.224689 -0.6915223 -0.6865215 0.5882438 0.4273843 -0.6865216 0.2945361 -0.9064881 0.3025361 -0.1983616 -0.610495 0.7667781 -0.2279962 -0.1656494 0.9594677 0.08708715 0.2680258 0.9594675 -0.08708715 -0.2680259 0.9594676 0.08708697 -0.2680261 0.9594675 0.2279968 -0.1656491 0.9594676 0.2818192 0 0.9594676 0.2279969 0.1656492 0.9594675 0.5193184 0.3773065 0.7667779 0.9531382 0 0.3025355 0.2246893 -0.6915231 -0.6865206 0.7271093 0 -0.6865218 0.7711049 -0.5602408 0.3025354 0.1983617 -0.6104952 0.7667779 0.5193179 -0.3773067 0.7667781 0.6419125 0 0.766778 0.5882438 -0.4273841 -0.6865218 -0.7941774 0.5744412 0.1982415 -0.9900197 -0.001755118 0.1409178 -0.3057601 0.9405515 0.1478979 -0.8018199 -0.5807158 0.1409052 0.3021356 0.9412012 0.1511771 -0.3021356 -0.9412012 0.1511771 0.8018193 0.5807155 0.1409094 0.3057599 -0.9405508 0.147902 0.9900195 0.001755058 0.1409201 0.7941764 -0.5744409 0.198246 0.7821751 0 0.6230589 0.943772 0 -0.3305971 0.6327922 0.4597508 0.6230596 0.6327921 -0.4597509 0.6230596 0.7635276 0.5547349 -0.3305976 0.7635275 -0.5547357 -0.3305968 0.6070157 0 -0.7946898 0.2417051 0.743892 0.6230598 0.2417054 -0.7438918 0.6230598 0.2916415 0.8975805 -0.3305974 0.4910859 0.3567948 -0.79469 0.2916417 -0.8975802 -0.3305979 0.4910862 -0.3567951 -0.7946897 0.3535583 0 -0.9354125 -0.2417048 0.743892 0.6230599 -0.2417052 -0.7438926 0.6230589 -0.2916408 0.8975802 -0.3305985 0.187578 0.5773065 -0.7946897 0.2860342 0.2078164 -0.9354126 -0.2916417 -0.8975803 -0.3305976 0.1875778 -0.5773065 -0.7946898 0.2860347 -0.207816 -0.9354126 -1.91445e-7 0 -1 -3.09764e-7 0 -1 -0.6327923 0.4597508 0.6230596 -0.6327927 -0.4597507 0.6230593 -0.7635278 0.5547355 -0.3305966 -0.1875781 0.5773066 -0.7946895 0.1092555 0.336254 -0.9354125 -0.7635274 -0.554735 -0.3305983 -0.1875788 -0.577307 -0.7946892 0.109255 -0.3362536 -0.9354128 -0.1092556 0.336254 -0.9354126 -0.1092552 -0.3362535 -0.9354128 -0.2860341 -0.2078162 -0.9354128 -0.3535578 0 -0.9354127 -0.2860343 0.2078163 -0.9354127 -0.7821739 0 0.6230604 -0.9437716 0 -0.3305985 -0.4910864 0.3567947 -0.7946897 -0.4910863 -0.3567953 -0.7946894 -0.6070163 0 -0.7946894 -0.7711048 0.5602408 0.3025358 -0.5882438 0.4273844 -0.6865215 -0.5193177 0.3773071 0.7667781 -0.2945355 0.9064881 0.3025364 -0.7271091 0 -0.686522 -0.2246886 0.6915215 -0.6865224 -0.7711051 -0.5602406 0.3025354 -0.6419124 0 0.7667781 -0.2279967 0.1656492 0.9594675 -0.1983617 0.6104952 0.7667779 0.2945356 0.9064882 0.3025358 -0.5882436 -0.4273839 -0.686522 0.2246896 0.6915225 -0.6865211 -0.2945355 -0.9064881 0.3025363 -0.5193181 -0.377307 0.7667778 -0.2818188 0 0.9594677 -0.08708709 0.2680258 0.9594677 0 0 1 -1.45479e-6 0 1 -1.71715e-7 0 1 7.27398e-7 0 1 7.27396e-7 0 1 2.48509e-7 0 1 0.1983619 0.610495 0.7667779 0.7711052 0.5602404 0.3025351 -0.2246893 -0.691522 -0.6865218 0.588244 0.4273841 -0.6865215 0.2945357 -0.9064884 0.3025351 -0.1983619 -0.6104952 0.7667779 -0.227997 -0.1656491 0.9594674 0.08708703 0.2680262 0.9594675 -0.08708697 -0.2680261 0.9594675 0.08708715 -0.2680258 0.9594675 0.227997 -0.1656494 0.9594675 0.2818197 0 0.9594674 0.2279958 0.1656493 0.9594678 0.5193179 0.3773068 0.766778 0.9531382 0 0.3025355 0.2246892 -0.6915218 -0.6865221 0.7271093 0 -0.6865218 0.7711051 -0.5602407 0.3025349 0.1983618 -0.610495 0.7667781 0.5193182 -0.3773066 0.766778 0.6419127 0 0.7667778 0.5882447 -0.4273847 -0.6865207 -0.7893429 0.573492 0.2191914 -0.7982379 0.5838671 0.1480395 -0.7979968 0.5720379 0.1896672 -0.9819211 0 0.1892911 -0.3054729 0.9401501 0.1510109 -0.7958958 -0.5782521 0.1793726 0.3012964 0.9272949 0.2221373 0.3093492 0.9338149 0.1797026 0.3040395 0.9308314 0.2027636 -0.3012962 -0.927295 0.2221367 -0.3093507 -0.9338159 0.1796941 -0.3040407 -0.9308345 0.2027469 0.7958944 0.5782513 0.1793817 0.3054731 -0.9401499 0.1510109 0.98192 0 0.1892967 0.7979971 -0.5720366 0.1896706 0.7893419 -0.5734907 0.2191984 0.7982378 -0.5838671 0.1480394 0 0 -1 0 0 -1 0 0 -1 0 0 -1 0.02369374 -0.01721447 0.9995712 0.02928715 0 0.9995712 0.00905013 -0.0278536 0.9995712 -0.8086656 0.58753 0.02946907 0.02369362 0.01721447 0.9995711 -0.9995657 0 0.02946943 -0.00905013 -0.02785366 0.9995711 -0.3088824 0.9506436 0.02946913 0.0423786 -0.03078997 -0.9986271 0.00905019 0.02785366 0.9995712 -0.8086659 -0.5875297 0.02946913 0.052383 0 -0.9986271 -0.02369362 -0.01721447 0.9995711 0.308883 0.9506435 0.02946764 0.01618754 -0.04981994 -0.998627 -0.00905013 0.02785366 0.9995711 -0.3088827 -0.9506435 0.02946907 0.04237884 0.03078985 -0.9986271 -0.02928715 0 0.9995712 0.8086657 0.5875299 0.02947056 -0.01618719 -0.04981917 -0.9986271 -0.02369362 0.01721447 0.9995711 0.3088828 -0.9506435 0.02946931 0.01618748 0.04981988 -0.998627 0.9995657 0 0.02947032 -0.04237866 -0.03078991 -0.9986271 0.8086655 -0.5875301 0.02947121 -0.01618742 0.04982 -0.9986271 -0.05238306 0 -0.9986271 -0.0423792 0.03079038 -0.998627 0.02369368 -0.01721447 0.9995711 0.02928698 0 0.9995712 0.00905013 -0.02785366 0.9995711 -0.8086656 0.5875301 0.02946978 0.02369374 0.01721447 0.9995712 -0.9995658 0 0.02946943 -0.00905019 -0.0278536 0.9995712 -0.3088825 0.9506435 0.02946925 0.04237878 -0.03078997 -0.9986271 0.00905019 0.0278536 0.9995711 -0.8086658 -0.5875298 0.02946895 0.05238306 0 -0.9986271 -0.02369374 -0.01721447 0.9995712 0.3088827 0.9506435 0.02947068 0.01618719 -0.04981917 -0.9986271 -0.00905025 0.0278536 0.9995712 -0.3088829 -0.9506435 0.02946847 0.04237937 0.03079038 -0.9986271 -0.02928698 0 0.9995711 0.8086657 0.58753 0.02947068 -0.01618754 -0.04981994 -0.998627 -0.02369374 0.01721447 0.9995712 0.3088825 -0.9506437 0.02946752 0.01618742 0.04981994 -0.9986271 0.9995657 0 0.02947032 -0.04237872 -0.03078991 -0.9986271 0.8086657 -0.5875299 0.02946907 -0.01618742 0.04981976 -0.9986271 -0.05238288 0 -0.9986271 -0.04237884 0.03078985 -0.9986271 0 0 1 0 0 1 0 0 1 0.9424807 0.3342609 0 0.4300763 0.9027926 0 0.04511737 0.01600134 0.9988536 0.9027926 -0.4300763 0 0.0451157 0.01600074 -0.9988537 0.02908307 0.06104636 0.9977112 0.02908265 0.0610485 -0.997711 -0.334261 0.9424806 0 0.06104898 -0.02908289 0.997711 0.334261 -0.9424806 0 0.06104898 -0.02908313 -0.9977111 -0.01600116 0.04511684 0.9988536 -0.01600134 0.04511737 -0.9988536 -0.9027926 0.4300763 0 0.01600116 -0.04511678 0.9988536 -0.4300764 -0.9027925 0 0.01600134 -0.04511731 -0.9988536 -0.06104898 0.02908295 0.997711 -0.06104892 0.02908301 -0.997711 -0.9424807 -0.3342609 0 -0.02908307 -0.06104636 0.9977112 -0.02908265 -0.06104862 -0.997711 -0.04511725 -0.01600134 0.9988536 -0.04511559 -0.01600074 -0.9988536 0.9424806 0.334261 0 0.4300764 0.9027925 0 0.04511654 0.01600337 0.9988536 0.04511672 0.01600193 0.9988536 0.04511719 0.01600128 0.9988536 0.04511719 0.01600128 0.9988536 0.9027925 -0.4300765 0 0.04511731 0.01600092 -0.9988536 0.04511666 0.01600325 -0.9988536 0.04511719 0.01600116 -0.9988536 0.04511713 0.0160014 -0.9988536 0.02908271 0.0610488 0.9977111 0.02908265 0.06104868 -0.997711 0.06104868 -0.02908265 0.9977111 0.06104868 -0.02908265 -0.997711 -0.01600164 0.04511725 0.9988536 -0.01600122 0.04511731 0.9988536 -0.01600098 0.04511648 0.9988536 -0.01600134 0.04511725 -0.9988536 -0.0160014 0.04511719 -0.9988536 -0.01600104 0.04511678 -0.9988536 -0.9027925 0.4300765 0 0.01600164 -0.04511725 0.9988536 0.01600122 -0.04511737 0.9988536 0.01600098 -0.04511648 0.9988536 -0.4300763 -0.9027926 0 0.01600134 -0.04511725 -0.9988536 0.01600116 -0.04511731 -0.9988536 0.01600152 -0.04511779 -0.9988536 -0.06104868 0.02908265 0.997711 -0.06104868 0.02908265 -0.997711 -0.9424806 -0.334261 0 -0.02908271 -0.0610488 0.9977111 -0.02908259 -0.06104862 -0.997711 -0.04511737 -0.01600122 0.9988536 -0.04511678 -0.01600193 0.9988536 -0.04511743 -0.01600134 0.9988536 -0.04511719 -0.01600128 0.9988536 -0.04511731 -0.01600104 -0.9988536 -0.04511749 -0.01600086 -0.9988536 -0.04511725 -0.01600116 -0.9988536 -0.04511737 -0.01600152 -0.9988536 0.8425333 0 -0.5386443 0.6816239 0.4952291 -0.5386437 0.9895142 0 -0.1444362 0.6816236 -0.4952292 -0.538644 0.2603574 0.8012973 -0.5386434 0.8005337 0.581622 -0.1444364 0.9601111 0 0.279619 0.8005336 -0.581622 -0.1444368 0.2603573 -0.8012969 -0.5386442 -0.2603575 0.8012981 -0.5386423 0.3057768 0.9410835 -0.1444385 0.7767459 0.5643385 0.2796211 0.687246 0 0.7264249 0.7767463 -0.5643391 0.2796189 0.3057767 -0.9410835 -0.1444385 -0.2603574 -0.8012974 -0.5386431 -0.6816241 0.4952293 -0.5386433 -0.3057762 0.9410834 -0.1444402 0.2966906 0.9131199 0.279619 0.5559935 0.4039528 0.7264251 0.999665 2.00523e-7 0.02588075 0.5559938 -0.4039532 0.7264247 0.2966907 -0.9131199 0.2796192 -0.3057769 -0.9410835 -0.1444385 -0.6816243 -0.4952294 -0.538643 -0.8425338 0 -0.5386436 -0.8005333 0.5816218 -0.1444392 -0.2966905 0.9131199 0.2796192 0.2123702 0.6536087 0.7264259 0.8087461 0.5875883 0.02588129 0.8087464 -0.5875877 0.02588337 0.2123704 -0.653609 0.7264256 -0.2966908 -0.9131197 0.2796194 -0.8005333 -0.5816214 -0.1444401 -0.9895138 0 -0.1444389 -0.7767463 0.5643392 0.2796188 -0.2123706 0.6536104 0.7264242 0.3089148 0.9507375 0.02588516 0.3089132 -0.9507382 0.02587705 -0.2123706 -0.6536097 0.7264249 -0.776746 -0.5643389 0.2796201 -0.9601109 0 0.2796196 -0.5559936 0.4039534 0.7264248 -0.308913 0.9507381 0.02588039 -0.3089139 -0.9507375 0.02589023 -0.5559946 -0.4039536 0.7264239 -0.6872454 0 0.7264254 -0.8087462 0.5875881 0.02588552 -0.8087461 -0.5875884 0.02587807 -0.9996651 4.01045e-7 0.02588075 0.8425334 0 -0.5386442 0.6816239 0.4952288 -0.538644 0.9895142 0 -0.1444362 0.6816242 -0.495229 -0.5386434 0.2603575 0.8012975 -0.5386431 0.8005334 0.5816214 -0.1444404 0.9601112 0 0.2796189 0.8005333 -0.581622 -0.1444382 0.2603574 -0.8012974 -0.5386433 -0.2603576 0.8012979 -0.5386424 0.3057766 0.9410836 -0.1444386 0.7767463 0.5643395 0.2796178 0.6872457 0 0.726425 0.7767462 -0.5643396 0.2796182 0.3057765 -0.9410839 -0.1444364 -0.260358 -0.8012983 -0.5386417 -0.6816247 0.4952293 -0.5386426 -0.3057765 0.9410837 -0.144438 0.2966905 0.9131197 0.2796199 0.5559931 0.4039527 0.7264254 0.9996652 0 0.02587759 0.5559926 -0.4039522 0.7264261 0.2966906 -0.9131202 0.2796182 -0.3057768 -0.9410836 -0.1444387 -0.6816243 -0.4952291 -0.5386433 -0.842534 0 -0.5386434 -0.8005332 0.581622 -0.1444382 -0.2966904 0.9131197 0.2796198 0.2123708 0.6536101 0.7264245 0.8087459 0.5875886 0.02588146 0.8087459 -0.5875886 0.02588111 0.8087458 -0.5875887 0.02588194 0.8087431 -0.5875925 0.02587729 0.2123705 -0.6536092 0.7264254 -0.2966906 -0.9131193 0.2796211 -0.8005332 -0.5816217 -0.1444396 -0.9895137 0 -0.144439 -0.7767456 0.5643393 0.2796203 -0.21237 0.6536083 0.7264264 0.308912 0.9507384 0.02588176 0.3089135 0.950738 0.02587991 0.3089129 0.950738 0.02588474 0.3089135 -0.9507378 0.02588748 -0.2123711 -0.6536109 0.7264237 -0.7767455 -0.5643389 0.2796212 -0.9601109 0 0.2796198 -0.5559945 0.4039536 0.726424 -0.3089131 0.950738 0.02588403 -0.3089127 -0.9507382 0.02588349 -0.3089135 -0.950738 0.02588224 -0.3089133 -0.950738 0.0258848 -0.5559929 -0.4039528 0.7264255 -0.6872453 0 0.7264254 -0.8087458 0.5875886 0.02588355 -0.808746 0.5875883 0.02588427 -0.808746 0.5875882 0.02588725 -0.8087459 -0.5875883 0.02588409 -0.999665 0 0.02588403</float_array>
          <technique_common>
            <accessor source="#Cylinder-mesh-normals-array" count="801" stride="3">
              <param name="X" type="float"/>
              <param name="Y" type="float"/>
              <param name="Z" type="float"/>
            </accessor>
          </technique_common>
        </source>
        <vertices id="Cylinder-mesh-vertices">
          <input semantic="POSITION" source="#Cylinder-mesh-positions"/>
        </vertices>
        <triangles material="Black_001-material" count="332">
          <input semantic="VERTEX" source="#Cylinder-mesh-vertices" offset="0"/>
          <input semantic="NORMAL" source="#Cylinder-mesh-normals" offset="1"/>
          <p>268 0 304 0 278 0 268 1 299 1 279 1 268 2 301 2 284 2 284 3 297 3 268 3 269 4 302 4 284 4 269 5 301 5 281 5 269 6 305 6 282 6 282 7 296 7 269 7 295 8 282 8 270 8 270 9 305 9 283 9 270 10 303 10 280 10 270 11 298 11 295 11 294 12 280 12 271 12 271 13 303 13 285 13 271 14 299 14 278 14 271 15 304 15 294 15 272 16 305 16 281 16 272 17 301 17 279 17 272 18 299 18 285 18 272 19 303 19 283 19 291 20 290 20 273 20 290 21 293 21 273 21 293 22 292 22 273 22 292 23 291 23 273 23 274 24 309 24 289 24 274 25 298 25 294 25 294 26 286 26 274 26 274 27 306 27 290 27 275 28 308 28 288 28 275 29 300 29 295 29 295 30 289 30 275 30 275 31 309 31 291 31 276 32 307 32 287 32 287 33 296 33 276 33 276 34 300 34 288 34 276 35 308 35 292 35 277 36 306 36 286 36 286 37 297 37 277 37 277 38 302 38 287 38 277 39 307 39 293 39 310 40 346 40 339 40 310 41 341 41 320 41 310 42 343 42 321 42 339 43 326 43 310 43 311 44 344 44 338 44 311 45 343 45 326 45 311 46 347 46 323 46 338 47 324 47 311 47 324 48 337 48 312 48 312 49 347 49 324 49 312 50 345 50 325 50 312 51 340 51 322 51 322 52 336 52 313 52 313 53 345 53 322 53 313 54 341 54 327 54 313 55 346 55 320 55 314 56 347 56 325 56 314 57 343 57 323 57 314 58 341 58 321 58 314 59 345 59 327 59 332 60 333 60 315 60 335 61 332 61 315 61 334 62 335 62 315 62 333 63 334 63 315 63 316 64 351 64 332 64 316 65 340 65 331 65 328 66 336 66 316 66 316 67 348 67 328 67 317 68 350 68 333 68 317 69 342 69 330 69 331 70 337 70 317 70 317 71 351 71 331 71 318 72 349 72 334 72 338 73 329 73 318 73 318 74 342 74 338 74 318 75 350 75 330 75 319 76 348 76 335 76 339 77 328 77 319 77 319 78 344 78 339 78 319 79 349 79 329 79 352 80 365 80 364 80 353 81 365 81 367 81 352 82 364 82 369 82 352 83 369 83 371 83 352 84 371 84 368 84 353 85 367 85 374 85 354 86 366 86 376 86 355 87 370 87 378 87 356 88 372 88 380 88 357 89 373 89 382 89 353 90 374 90 377 90 354 91 376 91 379 91 355 92 378 92 381 92 356 93 380 93 383 93 357 94 382 94 375 94 358 95 384 95 389 95 389 96 399 96 385 96 360 97 386 97 391 97 361 98 387 98 392 98 362 99 388 99 390 99 390 100 392 100 363 100 390 101 388 101 392 101 388 102 361 102 392 102 392 103 391 103 363 103 392 104 387 104 391 104 387 105 360 105 391 105 363 106 394 106 389 106 359 107 396 107 386 107 359 108 399 108 398 108 391 109 396 109 393 109 363 110 393 110 395 110 385 111 358 111 389 111 389 112 390 112 363 112 389 113 384 113 390 113 384 114 362 114 390 114 375 115 388 115 362 115 375 116 382 116 388 116 382 117 361 117 388 117 383 118 387 118 361 118 383 119 380 119 387 119 380 120 360 120 387 120 381 121 386 121 360 121 381 122 378 122 386 122 378 123 359 123 386 123 379 124 385 124 359 124 379 125 376 125 385 125 376 126 358 126 385 126 377 127 384 127 358 127 377 128 374 128 384 128 374 129 362 129 384 129 382 130 383 130 361 130 382 131 373 131 383 131 373 132 356 132 383 132 380 133 381 133 360 133 380 134 372 134 381 134 372 135 355 135 381 135 378 136 379 136 359 136 378 137 370 137 379 137 370 138 354 138 379 138 376 139 377 139 358 139 376 140 366 140 377 140 366 141 353 141 377 141 374 142 375 142 362 142 374 143 367 143 375 143 367 144 357 144 375 144 368 145 373 145 357 145 368 146 371 146 373 146 371 147 356 147 373 147 371 148 372 148 356 148 371 149 369 149 372 149 369 150 355 150 372 150 369 151 370 151 355 151 369 152 364 152 370 152 364 153 354 153 370 153 367 154 368 154 357 154 367 155 365 155 368 155 365 156 352 156 368 156 364 157 366 157 354 157 364 158 365 158 366 158 365 159 353 159 366 159 400 160 413 160 412 160 401 161 413 161 415 161 400 162 412 162 417 162 400 163 417 163 419 163 400 164 419 164 416 164 401 165 415 165 422 165 402 166 414 166 424 166 403 167 418 167 426 167 404 168 420 168 428 168 405 169 421 169 430 169 401 170 422 170 425 170 402 171 424 171 427 171 403 172 426 172 429 172 404 173 428 173 431 173 405 174 430 174 423 174 406 175 432 175 437 175 437 176 441 176 433 176 408 177 434 177 439 177 409 178 435 178 440 178 410 179 436 179 438 179 438 180 440 180 411 180 438 181 436 181 440 181 436 182 409 182 440 182 440 183 439 183 411 183 440 184 435 184 439 184 435 185 408 185 439 185 411 186 446 186 437 186 407 187 444 187 434 187 407 188 441 188 442 188 439 189 444 189 447 189 411 190 447 190 445 190 433 191 406 191 437 191 437 112 438 112 411 112 437 192 432 192 438 192 432 193 410 193 438 193 423 194 436 194 410 194 423 195 430 195 436 195 430 196 409 196 436 196 431 197 435 197 409 197 431 198 428 198 435 198 428 199 408 199 435 199 429 200 434 200 408 200 429 122 426 122 434 122 426 201 407 201 434 201 427 202 433 202 407 202 427 203 424 203 433 203 424 204 406 204 433 204 425 205 432 205 406 205 425 206 422 206 432 206 422 207 410 207 432 207 430 208 431 208 409 208 430 209 421 209 431 209 421 210 404 210 431 210 428 211 429 211 408 211 428 212 420 212 429 212 420 213 403 213 429 213 426 214 427 214 407 214 426 137 418 137 427 137 418 215 402 215 427 215 424 216 425 216 406 216 424 217 414 217 425 217 414 218 401 218 425 218 422 219 423 219 410 219 422 143 415 143 423 143 415 220 405 220 423 220 416 221 421 221 405 221 416 222 419 222 421 222 419 223 404 223 421 223 419 224 420 224 404 224 419 225 417 225 420 225 417 226 403 226 420 226 417 227 418 227 403 227 417 228 412 228 418 228 412 229 402 229 418 229 415 230 416 230 405 230 415 155 413 155 416 155 413 231 400 231 416 231 412 232 414 232 402 232 412 233 413 233 414 233 413 234 401 234 414 234 268 235 297 235 304 235 268 236 278 236 299 236 268 237 279 237 301 237 284 238 302 238 297 238 269 239 296 239 302 239 269 240 284 240 301 240 269 241 281 241 305 241 282 242 300 242 296 242 295 243 300 243 282 243 270 244 282 244 305 244 270 245 283 245 303 245 270 246 280 246 298 246 294 247 298 247 280 247 271 248 280 248 303 248 271 249 285 249 299 249 271 250 278 250 304 250 272 251 283 251 305 251 272 252 281 252 301 252 272 253 279 253 299 253 272 254 285 254 303 254 291 255 309 255 290 255 290 256 306 256 293 256 293 257 307 257 292 257 292 258 308 258 291 258 274 259 290 259 309 259 274 260 289 260 298 260 294 261 304 261 286 261 274 262 286 262 306 262 275 263 291 263 308 263 275 264 288 264 300 264 295 265 298 265 289 265 275 266 289 266 309 266 276 267 292 267 307 267 287 268 302 268 296 268 276 269 296 269 300 269 276 270 288 270 308 270 277 271 293 271 306 271 286 272 304 272 297 272 277 273 297 273 302 273 277 274 287 274 307 274 310 275 320 275 346 275 310 276 321 276 341 276 310 277 326 277 343 277 339 278 344 278 326 278 311 279 326 279 344 279 311 280 323 280 343 280 311 281 324 281 347 281 338 282 342 282 324 282 324 283 342 283 337 283 312 284 325 284 347 284 312 285 322 285 345 285 312 286 337 286 340 286 322 287 340 287 336 287 313 288 327 288 345 288 313 289 320 289 341 289 313 290 336 290 346 290 314 291 323 291 347 291 314 292 321 292 343 292 314 293 327 293 341 293 314 294 325 294 345 294 332 295 351 295 333 295 335 296 348 296 332 296 334 297 349 297 335 297 333 298 350 298 334 298 316 299 331 299 351 299 316 300 336 300 340 300 328 301 346 301 336 301 316 302 332 302 348 302 317 303 330 303 350 303 317 304 337 304 342 304 331 305 340 305 337 305 317 306 333 306 351 306 318 307 329 307 349 307 338 308 344 308 329 308 318 309 330 309 342 309 318 310 334 310 350 310 319 311 328 311 348 311 339 312 346 312 328 312 319 313 329 313 344 313 319 314 335 314 349 314 389 315 394 315 399 315 363 316 395 316 394 316 359 317 398 317 396 317 359 318 385 318 399 318 391 319 386 319 396 319 363 320 391 320 393 320 437 321 446 321 441 321 411 322 445 322 446 322 407 323 442 323 444 323 407 324 433 324 441 324 439 325 434 325 444 325 411 326 439 326 447 326</p>
        </triangles>
        <triangles material="White_001-material" count="12">
          <input semantic="VERTEX" source="#Cylinder-mesh-vertices" offset="0"/>
          <input semantic="NORMAL" source="#Cylinder-mesh-normals" offset="1"/>
          <p>397 327 399 327 394 327 393 328 396 328 397 328 398 329 399 329 397 329 397 330 394 330 395 330 396 331 398 331 397 331 393 332 397 332 395 332 442 333 441 333 443 333 447 334 443 334 445 334 447 335 444 335 443 335 444 336 442 336 443 336 443 337 446 337 445 337 443 338 441 338 446 338</p>
        </triangles>
        <triangles material="Teeth_001-material" count="24">
          <input semantic="VERTEX" source="#Cylinder-mesh-vertices" offset="0"/>
          <input semantic="NORMAL" source="#Cylinder-mesh-normals" offset="1"/>
          <p>448 339 449 339 450 339 448 340 450 340 451 340 448 341 451 341 452 341 448 342 452 342 453 342 448 343 453 343 454 343 448 344 454 344 449 344 455 345 456 345 457 345 455 346 457 346 458 346 455 347 458 347 459 347 455 348 459 348 460 348 455 349 460 349 461 349 455 350 461 350 456 350 462 351 464 351 463 351 462 352 465 352 464 352 462 353 466 353 465 353 462 354 467 354 466 354 462 355 468 355 467 355 462 356 463 356 468 356 469 357 471 357 470 357 469 358 472 358 471 358 469 359 473 359 472 359 469 360 474 360 473 360 469 361 475 361 474 361 469 362 470 362 475 362</p>
        </triangles>
        <triangles material="Bun_001-material" count="212">
          <input semantic="VERTEX" source="#Cylinder-mesh-vertices" offset="0"/>
          <input semantic="NORMAL" source="#Cylinder-mesh-normals" offset="1"/>
          <p>0 363 5 363 4 363 5 364 13 364 4 364 6 365 4 365 14 365 3 366 15 366 5 366 14 367 13 367 24 367 15 368 12 368 5 368 12 369 27 369 13 369 28 370 6 370 14 370 15 371 23 371 29 371 14 372 40 372 28 372 13 373 41 373 24 373 15 374 42 374 25 374 25 375 26 375 12 375 27 376 44 376 45 376 46 377 16 377 28 377 29 378 39 378 47 378 28 379 60 379 46 379 24 380 61 380 40 380 41 381 45 381 62 381 29 382 63 382 42 382 42 383 43 383 25 383 26 384 65 384 44 384 70 385 71 385 44 385 72 386 30 386 46 386 47 387 59 387 73 387 46 388 84 388 72 388 60 389 61 389 85 389 41 390 66 390 61 390 47 391 86 391 63 391 42 392 87 392 64 392 64 393 65 393 43 393 61 394 71 394 85 394 64 395 68 395 67 395 88 396 68 396 87 396 89 397 69 397 88 397 89 398 71 398 70 398 59 399 72 399 73 399 72 400 86 400 73 400 84 401 85 401 89 401 86 402 87 402 63 402 84 403 88 403 86 403 109 404 111 404 108 404 111 405 113 405 108 405 115 406 108 406 114 406 109 407 117 407 110 407 110 408 119 408 111 408 108 409 120 409 114 409 119 410 112 410 111 410 124 411 115 411 114 411 126 412 109 412 115 412 117 413 127 413 128 413 117 414 118 414 110 414 119 415 130 415 131 415 124 416 120 416 132 416 119 417 134 417 121 417 138 418 125 418 124 418 140 419 115 419 125 419 126 420 127 420 116 420 117 421 142 421 129 421 141 422 146 422 148 422 129 423 130 423 118 423 131 424 150 424 151 424 138 425 132 425 152 425 131 426 155 426 134 426 160 427 139 427 138 427 139 428 140 428 125 428 140 429 141 429 126 429 149 430 142 430 148 430 140 431 144 431 143 431 163 432 144 432 162 432 164 433 145 433 163 433 165 434 146 434 164 434 149 435 147 435 165 435 149 436 150 436 130 436 150 437 167 437 151 437 160 438 152 438 168 438 167 439 155 439 151 439 166 440 160 440 167 440 161 441 162 441 139 441 164 442 161 442 166 442 150 443 164 443 166 443 160 444 172 444 167 444 187 445 188 445 177 445 181 446 189 446 193 446 176 447 197 447 186 447 200 448 181 448 193 448 205 449 197 449 185 449 208 450 209 450 199 450 203 451 202 451 211 451 206 452 209 452 212 452 202 453 213 453 211 453 214 454 215 454 210 454 0 455 3 455 5 455 5 456 12 456 13 456 6 457 0 457 4 457 3 458 11 458 15 458 14 459 4 459 13 459 15 460 25 460 12 460 12 461 26 461 27 461 28 462 16 462 6 462 15 463 11 463 23 463 14 464 24 464 40 464 13 465 27 465 41 465 15 466 29 466 42 466 25 467 43 467 26 467 27 468 26 468 44 468 46 469 30 469 16 469 29 470 23 470 39 470 28 471 40 471 60 471 24 472 41 472 61 472 41 473 27 473 45 473 29 474 47 474 63 474 42 475 64 475 43 475 26 476 43 476 65 476 71 385 66 385 62 385 62 385 45 385 71 385 45 477 44 477 71 477 44 385 65 385 69 385 65 478 67 478 69 478 67 385 68 385 69 385 69 385 70 385 44 385 72 479 48 479 30 479 47 480 39 480 59 480 46 481 60 481 84 481 60 482 40 482 61 482 41 483 62 483 66 483 47 484 73 484 86 484 42 485 63 485 87 485 64 486 67 486 65 486 61 487 66 487 71 487 64 488 87 488 68 488 88 489 69 489 68 489 89 490 70 490 69 490 89 491 85 491 71 491 59 492 48 492 72 492 72 493 84 493 86 493 84 494 60 494 85 494 86 495 88 495 87 495 84 496 89 496 88 496 109 497 110 497 111 497 111 498 112 498 113 498 115 406 109 406 108 406 109 499 116 499 117 499 110 500 118 500 119 500 108 501 113 501 120 501 119 502 121 502 112 502 124 503 125 503 115 503 126 504 116 504 109 504 117 505 116 505 127 505 117 506 129 506 118 506 119 507 118 507 130 507 124 508 114 508 120 508 119 509 131 509 134 509 138 510 139 510 125 510 140 511 126 511 115 511 126 512 141 512 127 512 117 513 128 513 142 513 148 514 142 514 128 514 128 515 127 515 141 515 141 516 143 516 146 516 143 514 144 514 146 514 144 517 145 517 146 517 146 518 147 518 148 518 148 519 128 519 141 519 129 520 149 520 130 520 131 521 130 521 150 521 138 522 124 522 132 522 131 523 151 523 155 523 160 524 161 524 139 524 139 525 162 525 140 525 140 526 143 526 141 526 149 527 129 527 142 527 140 528 162 528 144 528 163 529 145 529 144 529 164 530 146 530 145 530 165 531 147 531 146 531 149 532 148 532 147 532 149 533 165 533 150 533 150 534 166 534 167 534 160 535 138 535 152 535 167 536 172 536 155 536 166 537 161 537 160 537 161 538 163 538 162 538 164 539 163 539 161 539 150 540 165 540 164 540 160 541 168 541 172 541 177 542 176 542 187 542 176 543 186 543 187 543 188 544 189 544 177 544 181 545 177 545 189 545 176 546 185 546 197 546 200 547 192 547 181 547 185 548 196 548 205 548 196 549 203 549 204 549 196 550 204 550 205 550 199 551 192 551 208 551 192 552 200 552 207 552 192 553 207 553 208 553 203 554 196 554 202 554 206 555 199 555 209 555 202 556 210 556 213 556 215 557 213 557 210 557 210 558 206 558 214 558 206 559 212 559 214 559 112 385 134 385 172 385 152 385 132 385 120 385 120 560 113 560 112 560 112 385 121 385 134 385 134 561 155 561 172 561 172 562 168 562 152 562 152 563 120 563 172 563 120 385 112 385 172 385</p>
        </triangles>
        <triangles material="Tomato_001-material" count="68">
          <input semantic="VERTEX" source="#Cylinder-mesh-vertices" offset="0"/>
          <input semantic="NORMAL" source="#Cylinder-mesh-normals" offset="1"/>
          <p>122 564 137 564 123 564 123 565 154 565 133 565 135 566 136 566 122 566 137 567 158 567 159 567 153 568 154 568 170 568 137 569 171 569 154 569 135 570 174 570 157 570 136 571 175 571 158 571 176 572 159 572 158 572 153 573 179 573 169 573 170 574 171 574 180 574 177 575 171 575 159 575 156 576 183 576 174 576 174 577 175 577 157 577 176 578 175 578 185 578 178 579 179 579 190 579 179 580 180 580 191 580 192 581 171 581 181 581 182 582 183 582 173 582 183 583 184 583 174 583 196 584 175 584 184 584 182 585 190 585 194 585 179 586 198 586 190 586 199 587 180 587 192 587 194 588 195 588 183 588 196 589 195 589 202 589 190 590 201 590 194 590 199 591 198 591 191 591 202 592 201 592 210 592 206 593 201 593 198 593 122 594 136 594 137 594 123 595 137 595 154 595 135 596 157 596 136 596 137 597 136 597 158 597 153 598 133 598 154 598 137 599 159 599 171 599 135 600 156 600 174 600 136 601 157 601 175 601 176 602 177 602 159 602 153 603 170 603 179 603 170 604 154 604 171 604 177 605 181 605 171 605 156 606 173 606 183 606 174 607 184 607 175 607 176 608 158 608 175 608 178 609 169 609 179 609 179 610 170 610 180 610 192 611 180 611 171 611 182 612 194 612 183 612 183 613 195 613 184 613 196 614 185 614 175 614 182 615 178 615 190 615 179 616 191 616 198 616 199 617 191 617 180 617 194 618 201 618 195 618 196 619 184 619 195 619 190 620 198 620 201 620 199 621 206 621 198 621 202 622 195 622 201 622 206 623 210 623 201 623 153 624 173 624 135 624 135 514 122 514 123 514 123 514 133 514 153 514 153 514 169 514 173 514 169 514 178 514 173 514 178 625 182 625 173 625 173 514 156 514 135 514 135 626 123 626 153 626</p>
        </triangles>
        <triangles material="Cheese_001-material" count="68">
          <input semantic="VERTEX" source="#Cylinder-mesh-vertices" offset="0"/>
          <input semantic="NORMAL" source="#Cylinder-mesh-normals" offset="1"/>
          <p>253 627 255 627 252 627 255 628 257 628 252 628 253 629 252 629 247 629 259 630 253 630 258 630 255 631 254 631 217 631 252 632 243 632 242 632 223 633 255 633 224 633 257 634 261 634 260 634 250 635 253 635 251 635 262 636 259 636 258 636 254 637 221 637 220 637 257 638 260 638 234 638 226 639 261 639 256 639 261 640 265 640 260 640 262 641 258 641 248 641 262 642 267 642 263 642 219 643 259 643 263 643 235 644 265 644 236 644 264 645 232 645 231 645 265 646 267 646 266 646 266 647 245 647 244 647 228 648 267 648 229 648 265 649 266 649 238 649 267 650 264 650 233 650 253 651 254 651 255 651 255 652 256 652 257 652 249 653 251 653 253 653 252 654 242 654 241 654 247 655 249 655 253 655 252 656 241 656 247 656 259 657 254 657 253 657 218 658 224 658 255 658 254 659 220 659 216 659 217 660 218 660 255 660 254 661 216 661 217 661 252 662 257 662 243 662 223 663 256 663 255 663 257 634 256 634 261 634 250 664 258 664 253 664 262 636 263 636 259 636 254 665 259 665 221 665 239 666 243 666 257 666 260 667 235 667 234 667 234 668 239 668 257 668 226 669 232 669 261 669 256 670 223 670 222 670 222 671 226 671 256 671 261 672 264 672 265 672 246 673 245 673 262 673 258 674 250 674 248 674 248 675 246 675 262 675 262 676 266 676 267 676 219 677 221 677 259 677 263 678 228 678 225 678 225 679 219 679 263 679 235 680 260 680 265 680 264 681 261 681 232 681 265 682 264 682 267 682 266 683 262 683 245 683 228 684 263 684 267 684 237 685 236 685 265 685 266 686 244 686 240 686 238 687 237 687 265 687 266 688 240 688 238 688 227 689 229 689 267 689 264 690 231 690 230 690 233 691 227 691 267 691 264 692 230 692 233 692</p>
        </triangles>
        <triangles material="Meat_001-material" count="108">
          <input semantic="VERTEX" source="#Cylinder-mesh-vertices" offset="0"/>
          <input semantic="NORMAL" source="#Cylinder-mesh-normals" offset="1"/>
          <p>1 693 3 693 0 693 7 694 0 694 6 694 1 695 9 695 2 695 3 696 10 696 11 696 16 697 7 697 6 697 7 698 8 698 1 698 19 699 9 699 8 699 9 700 10 700 2 700 10 701 23 701 11 701 31 702 16 702 30 702 32 703 7 703 17 703 33 704 8 704 18 704 35 705 19 705 34 705 9 706 36 706 21 706 10 707 37 707 22 707 22 708 39 708 23 708 49 709 30 709 48 709 50 710 17 710 31 710 51 711 18 711 32 711 34 712 33 712 52 712 53 713 34 713 54 713 55 714 20 714 35 714 36 715 37 715 21 715 37 716 38 716 22 716 38 717 59 717 39 717 58 718 48 718 59 718 74 719 31 719 49 719 75 720 32 720 50 720 52 721 51 721 76 721 34 722 77 722 54 722 79 723 80 723 35 723 81 724 36 724 55 724 37 725 82 725 57 725 38 726 83 726 58 726 83 727 49 727 58 727 74 728 75 728 50 728 76 729 75 729 91 729 93 730 94 730 52 730 95 731 55 731 78 731 96 732 56 732 81 732 57 733 97 733 83 733 97 734 74 734 83 734 98 735 75 735 90 735 92 736 91 736 99 736 101 737 102 737 96 737 103 738 82 738 96 738 103 739 90 739 97 739 105 740 106 740 98 740 103 741 100 741 107 741 104 742 103 742 107 742 1 743 2 743 3 743 7 744 1 744 0 744 1 745 8 745 9 745 3 746 2 746 10 746 16 747 17 747 7 747 7 748 18 748 8 748 19 749 20 749 9 749 9 750 21 750 10 750 10 751 22 751 23 751 31 752 17 752 16 752 32 753 18 753 7 753 33 754 19 754 8 754 35 755 20 755 19 755 9 756 20 756 36 756 10 757 21 757 37 757 22 758 38 758 39 758 49 759 31 759 30 759 50 760 32 760 17 760 51 761 33 761 18 761 34 762 19 762 33 762 53 763 35 763 34 763 55 764 36 764 20 764 36 765 56 765 37 765 37 766 57 766 38 766 38 767 58 767 59 767 58 768 49 768 48 768 74 769 50 769 31 769 75 770 51 770 32 770 52 771 33 771 51 771 34 772 52 772 77 772 80 773 78 773 55 773 55 774 35 774 80 774 35 775 53 775 79 775 81 776 56 776 36 776 37 777 56 777 82 777 38 778 57 778 83 778 83 779 74 779 49 779 74 780 90 780 75 780 76 781 51 781 75 781 94 782 77 782 52 782 52 783 76 783 93 783 76 784 92 784 93 784 95 785 81 785 55 785 96 786 82 786 56 786 57 787 82 787 97 787 97 788 90 788 74 788 98 789 91 789 75 789 92 790 76 790 91 790 102 791 100 791 96 791 96 792 81 792 101 792 81 793 95 793 101 793 103 794 97 794 82 794 103 795 98 795 90 795 106 796 99 796 91 796 91 797 98 797 106 797 98 798 104 798 105 798 103 799 96 799 100 799 104 800 98 800 103 800</p>
        </triangles>
      </mesh>
    </geometry>
  </library_geometries>
  <library_controllers>
    <controller id="Armature_001_Burger-skin" name="Armature.001">
      <skin source="#Cylinder-mesh">
        <bind_shape_matrix>2.351594 0 0 0 0 -0.05531571 2.350944 0.2855141 0 -2.350944 -0.05531571 0.375187 0 0 0 1</bind_shape_matrix>
        <source id="Armature_001_Burger-skin-joints">
          <Name_array id="Armature_001_Burger-skin-joints-array" count="2">Root Yaw</Name_array>
          <technique_common>
            <accessor source="#Armature_001_Burger-skin-joints-array" count="2" stride="1">
              <param name="JOINT" type="name"/>
            </accessor>
          </technique_common>
        </source>
        <source id="Armature_001_Burger-skin-bind_poses">
          <float_array id="Armature_001_Burger-skin-bind_poses-array" count="32">0.9796332 6.56767e-4 0.2007947 0.08307164 0.003772616 0.9997579 -0.02167576 0.6289337 -0.2007603 0.02199172 0.9793936 0.3429639 0 0 0 1 0.9907261 4.51064e-4 0.1358734 -0.0328409 -0.00433129 -0.9993817 0.03489953 0.667567 0.1358051 -0.03516423 -0.9901114 0.3336606 0 0 0 1</float_array>
          <technique_common>
            <accessor source="#Armature_001_Burger-skin-bind_poses-array" count="2" stride="16">
              <param name="TRANSFORM" type="float4x4"/>
            </accessor>
          </technique_common>
        </source>
        <source id="Armature_001_Burger-skin-weights">
          <float_array id="Armature_001_Burger-skin-weights-array" count="476">1 1 1 1 1 1 1 1 1 1 1 1 1 1 1 1 1 1 1 1 1 1 1 1 1 1 1 1 1 1 1 1 1 1 1 1 1 1 1 1 1 1 1 1 1 1 1 1 1 1 1 1 1 1 1 1 1 1 1 1 1 1 1 1 1 1 1 1 1 1 1 1 1 1 1 1 1 1 1 1 1 1 1 1 1 1 1 1 1 1 1 1 1 1 1 1 1 1 1 1 1 1 1 1 1 1 1 1 1 1 1 1 1 1 1 1 1 1 1 1 1 1 1 1 1 1 1 1 1 1 1 1 1 1 1 1 1 1 1 1 1 1 1 1 1 1 1 1 1 1 1 1 1 1 1 1 1 1 1 1 1 1 1 1 1 1 1 1 1 1 1 1 1 1 1 1 1 1 1 1 1 1 1 1 1 1 1 1 1 1 1 1 1 1 1 1 1 1 1 1 1 1 1 1 1 1 1 1 1 1 1 1 1 1 1 1 1 1 1 1 1 1 1 1 1 1 1 1 1 1 1 1 1 1 1 1 1 1 1 1 1 1 1 1 1 1 1 1 1 1 1 1 1 1 1 1 1 1 1 1 1 1 1 1 1 1 1 1 1 1 1 1 1 1 1 1 1 1 1 1 1 1 1 1 1 1 1 1 1 1 1 1 1 1 1 1 1 1 1 1 1 1 1 1 1 1 1 1 1 1 1 1 1 1 1 1 1 1 1 1 1 1 1 1 1 1 1 1 1 1 1 1 1 1 1 1 1 1 1 1 1 1 1 1 1 1 1 1 1 1 1 1 1 1 1 1 1 1 1 1 1 1 1 1 1 1 1 1 1 1 1 1 1 1 1 1 1 1 1 1 1 1 1 1 1 1 1 1 1 1 1 1 1 1 1 1 1 1 1 1 1 1 1 1 1 1 1 1 1 1 1 1 1 1 1 1 1 1 1 1 1 1 1 1 1 1 1 1 1 1 1 1 1 1 1 1 1 1 1 1 1 1 1 1 1 1 1 1 1 1 1 1 1 1 1 1 1 1 1 1 1 1 1 1 1 1 1 1 1 1 1 1 1 1 1 1</float_array>
          <technique_common>
            <accessor source="#Armature_001_Burger-skin-weights-array" count="476" stride="1">
              <param name="WEIGHT" type="float"/>
            </accessor>
          </technique_common>
        </source>
        <joints>
          <input semantic="JOINT" source="#Armature_001_Burger-skin-joints"/>
          <input semantic="INV_BIND_MATRIX" source="#Armature_001_Burger-skin-bind_poses"/>
        </joints>
        <vertex_weights count="476">
          <input semantic="JOINT" source="#Armature_001_Burger-skin-joints" offset="0"/>
          <input semantic="WEIGHT" source="#Armature_001_Burger-skin-weights" offset="1"/>
          <vcount>1 1 1 1 1 1 1 1 1 1 1 1 1 1 1 1 1 1 1 1 1 1 1 1 1 1 1 1 1 1 1 1 1 1 1 1 1 1 1 1 1 1 1 1 1 1 1 1 1 1 1 1 1 1 1 1 1 1 1 1 1 1 1 1 1 1 1 1 1 1 1 1 1 1 1 1 1 1 1 1 1 1 1 1 1 1 1 1 1 1 1 1 1 1 1 1 1 1 1 1 1 1 1 1 1 1 1 1 1 1 1 1 1 1 1 1 1 1 1 1 1 1 1 1 1 1 1 1 1 1 1 1 1 1 1 1 1 1 1 1 1 1 1 1 1 1 1 1 1 1 1 1 1 1 1 1 1 1 1 1 1 1 1 1 1 1 1 1 1 1 1 1 1 1 1 1 1 1 1 1 1 1 1 1 1 1 1 1 1 1 1 1 1 1 1 1 1 1 1 1 1 1 1 1 1 1 1 1 1 1 1 1 1 1 1 1 1 1 1 1 1 1 1 1 1 1 1 1 1 1 1 1 1 1 1 1 1 1 1 1 1 1 1 1 1 1 1 1 1 1 1 1 1 1 1 1 1 1 1 1 1 1 1 1 1 1 1 1 1 1 1 1 1 1 1 1 1 1 1 1 1 1 1 1 1 1 1 1 1 1 1 1 1 1 1 1 1 1 1 1 1 1 1 1 1 1 1 1 1 1 1 1 1 1 1 1 1 1 1 1 1 1 1 1 1 1 1 1 1 1 1 1 1 1 1 1 1 1 1 1 1 1 1 1 1 1 1 1 1 1 1 1 1 1 1 1 1 1 1 1 1 1 1 1 1 1 1 1 1 1 1 1 1 1 1 1 1 1 1 1 1 1 1 1 1 1 1 1 1 1 1 1 1 1 1 1 1 1 1 1 1 1 1 1 1 1 1 1 1 1 1 1 1 1 1 1 1 1 1 1 1 1 1 1 1 1 1 1 1 1 1 1 1 1 1 1 1 1 1 1 1 1 1 1 1 1 1 1 1 1 1 1 1 1 1 1 1 1 1 1 1 1 1 1 1 1 1 1 1 1 1 1 1 1 1 1 </vcount>
          <v>0 0 0 1 0 2 0 3 0 4 0 5 0 6 0 7 0 8 0 9 0 10 0 11 0 12 0 13 0 14 0 15 0 16 0 17 0 18 0 19 0 20 0 21 0 22 0 23 0 24 0 25 0 26 0 27 0 28 0 29 0 30 0 31 0 32 0 33 0 34 0 35 0 36 0 37 0 38 0 39 0 40 0 41 0 42 0 43 0 44 0 45 0 46 0 47 0 48 0 49 0 50 0 51 0 52 0 53 0 54 0 55 0 56 0 57 0 58 0 59 0 60 0 61 0 62 0 63 0 64 0 65 0 66 0 67 0 68 0 69 0 70 0 71 0 72 0 73 0 74 0 75 0 76 0 77 0 78 0 79 0 80 0 81 0 82 0 83 0 84 0 85 0 86 0 87 0 88 0 89 0 90 0 91 0 92 0 93 0 94 0 95 0 96 0 97 0 98 0 99 0 100 0 101 0 102 0 103 0 104 0 105 0 106 0 107 1 108 1 109 1 110 1 111 1 112 1 113 1 114 1 115 1 116 1 117 1 118 1 119 1 120 1 121 0 122 0 123 1 124 1 125 1 126 1 127 1 128 1 129 1 130 1 131 1 132 0 133 1 134 0 135 0 136 0 137 1 138 1 139 1 140 1 141 1 142 1 143 1 144 1 145 1 146 1 147 1 148 1 149 1 150 1 151 1 152 0 153 0 154 1 155 0 156 0 157 0 158 0 159 1 160 1 161 1 162 1 163 1 164 1 165 1 166 1 167 1 168 0 169 0 170 0 171 1 172 0 173 0 174 0 175 0 176 0 177 0 178 0 179 0 180 0 181 0 182 0 183 0 184 0 185 0 186 0 187 0 188 0 189 0 190 0 191 0 192 0 193 0 194 0 195 0 196 0 197 0 198 0 199 0 200 0 201 0 202 0 203 0 204 0 205 0 206 0 207 0 208 0 209 0 210 0 211 0 212 0 213 0 214 0 215 0 216 0 217 0 218 0 219 0 220 0 221 0 222 0 223 0 224 0 225 0 226 0 227 0 228 0 229 0 230 0 231 0 232 0 233 0 234 0 235 0 236 0 237 0 238 0 239 0 240 0 241 0 242 0 243 0 244 0 245 0 246 0 247 0 248 0 249 0 250 0 251 0 252 0 253 0 254 0 255 0 256 0 257 0 258 0 259 0 260 0 261 0 262 0 263 0 264 0 265 0 266 0 267 1 268 1 269 1 270 1 271 1 272 1 273 1 274 1 275 1 276 1 277 1 278 1 279 1 280 1 281 1 282 1 283 1 284 1 285 1 286 1 287 1 288 1 289 1 290 1 291 1 292 1 293 1 294 1 295 1 296 1 297 1 298 1 299 1 300 1 301 1 302 1 303 1 304 1 305 1 306 1 307 1 308 1 309 1 310 1 311 1 312 1 313 1 314 1 315 1 316 1 317 1 318 1 319 1 320 1 321 1 322 1 323 1 324 1 325 1 326 1 327 1 328 1 329 1 330 1 331 1 332 1 333 1 334 1 335 1 336 1 337 1 338 1 339 1 340 1 341 1 342 1 343 1 344 1 345 1 346 1 347 1 348 1 349 1 350 1 351 1 352 1 353 1 354 1 355 1 356 1 357 1 358 1 359 1 360 1 361 1 362 1 363 1 364 1 365 1 366 1 367 1 368 1 369 1 370 1 371 1 372 1 373 1 374 1 375 1 376 1 377 1 378 1 379 1 380 1 381 1 382 1 383 1 384 1 385 1 386 1 387 1 388 1 389 1 390 1 391 1 392 1 393 1 394 1 395 1 396 1 397 1 398 1 399 1 400 1 401 1 402 1 403 1 404 1 405 1 406 1 407 1 408 1 409 1 410 1 411 1 412 1 413 1 414 1 415 1 416 1 417 1 418 1 419 1 420 1 421 1 422 1 423 1 424 1 425 1 426 1 427 1 428 1 429 1 430 1 431 1 432 1 433 1 434 1 435 1 436 1 437 1 438 1 439 1 440 1 441 1 442 1 443 1 444 1 445 1 446 1 447 1 448 1 449 1 450 1 451 1 452 1 453 1 454 0 455 0 456 0 457 0 458 0 459 0 460 0 461 1 462 1 463 1 464 1 465 1 466 1 467 1 468 0 469 0 470 0 471 0 472 0 473 0 474 0 475</v>
        </vertex_weights>
      </skin>
    </controller>
  </library_controllers>
  <library_animations>
    <animation id="action_container-Armature_001" name="Armature.001">
      <animation id="Armature_001_Armature_001Action_Yaw_pose_matrix" name="Armature.001">
        <source id="Armature_001_Armature_001Action_Yaw_pose_matrix-input">
          <float_array id="Armature_001_Armature_001Action_Yaw_pose_matrix-input-array" count="20">0.04166662 0.08333331 0.125 0.1666666 0.2083333 0.25 0.2916666 0.3333333 0.375 0.4166666 0.4583333 0.5 0.5416667 0.5833333 0.625 0.6666667 0.7083333 0.75 0.7916667 0.8333333</float_array>
          <technique_common>
            <accessor source="#Armature_001_Armature_001Action_Yaw_pose_matrix-input-array" count="20" stride="1">
              <param name="TIME" type="float"/>
            </accessor>
          </technique_common>
        </source>
        <source id="Armature_001_Armature_001Action_Yaw_pose_matrix-output">
          <float_array id="Armature_001_Armature_001Action_Yaw_pose_matrix-output-array" count="320">0.9906778 -0.004347839 0.1361582 -9.31323e-10 0.1359869 -0.02782054 -0.9903204 0.6797779 0.008093745 0.9996037 -0.02696995 1.11759e-8 0 0 0 1 0.990678 -0.004374057 0.136156 -9.31323e-10 0.1362127 0.045909 -0.9896157 0.6797779 -0.001922148 0.9989362 0.04607682 1.11759e-8 0 0 0 1 0.9906784 -0.004400296 0.1361519 -9.31323e-10 0.1356911 0.1201084 -0.9834443 0.6797779 -0.01202552 0.9927513 0.1195858 1.11759e-8 0 0 0 1 0.990679 -0.004426339 0.1361458 -9.31323e-10 0.1344076 0.1941583 -0.9717191 0.6797779 -0.02213265 0.9809604 0.1929434 1.11759e-8 0 0 0 1 0.99068 -0.004451941 0.1361377 -9.31323e-10 0.1323601 0.2674242 -0.9544454 0.6797779 -0.03215735 0.9635689 0.2655211 1.11759e-8 0 0 0 1 0.9906813 -0.004476904 0.1361277 -9.31323e-10 0.1295595 0.3392743 -0.9317232 0.6797779 -0.04201337 0.9406769 0.3366928 1.11759e-8 0 0 0 1 0.9906827 -0.004501014 0.136116 -9.31323e-10 0.1260297 0.4090972 -0.9037459 0.6797779 -0.05161685 0.9124798 0.4058529 1.11759e-8 0 0 0 1 0.9906845 -0.004524054 0.1361025 -9.31323e-10 0.1218068 0.4763194 -0.8707948 0.6797779 -0.06088868 0.8792608 0.4724334 1.11759e-8 0 0 0 1 0.9906864 -0.004545867 0.1360874 -9.31323e-10 0.1169378 0.5404207 -0.8332298 0.6797779 -0.06975666 0.8413829 0.5359191 1.11759e-8 0 0 0 1 0.9906885 -0.004566282 0.136071 -9.31323e-10 0.1114791 0.6009467 -0.7914771 0.6797779 -0.07815724 0.7992761 0.5958602 1.11759e-8 0 0 0 1 0.9906885 -0.004566282 0.136071 -9.31323e-10 0.1114791 0.6009467 -0.7914771 0.6797779 -0.07815724 0.7992761 0.5958602 1.11759e-8 0 0 0 1 0.9906885 -0.004566282 0.136071 -9.31323e-10 0.1114791 0.6009467 -0.7914771 0.6797779 -0.07815724 0.7992761 0.5958602 1.11759e-8 0 0 0 1 0.9906853 -0.004534557 0.1360955 -9.31323e-10 0.1195745 0.5071441 -0.8535265 0.6797779 -0.06514961 0.8618495 0.5029626 1.11759e-8 0 0 0 1 0.9906825 -0.00449979 0.1361166 -9.31323e-10 0.12623 0.4055378 -0.9053208 0.6797779 -0.05112661 0.9140674 0.4023272 1.11759e-8 0 0 0 1 0.9906804 -0.004462564 0.1361337 -9.31323e-10 0.1312704 0.2979163 -0.9455234 0.6797779 -0.03633697 0.9545816 0.2957258 1.11759e-8 0 0 0 1 0.9906789 -0.004423612 0.1361465 -9.31323e-10 0.1345794 0.1863554 -0.9732219 0.6797779 -0.02106646 0.9824725 0.1852137 1.11759e-8 0 0 0 1 0.9906779 -0.004383699 0.1361547 -9.31323e-10 0.1361092 0.07308458 -0.9879946 0.6797779 -0.005619727 0.9973162 0.07299993 1.11759e-8 0 0 0 1 0.9906775 -0.004343637 0.1361583 -9.31323e-10 0.1358818 -0.03965746 -0.9899312 0.6797779 0.009699591 0.9992039 -0.03869755 1.11759e-8 0 0 0 1 0.9906775 -0.004343637 0.1361583 -9.31323e-10 0.1358818 -0.03965746 -0.9899312 0.6797779 0.009699591 0.9992039 -0.03869755 1.11759e-8 0 0 0 1 0.9906775 -0.004343637 0.1361583 -9.31323e-10 0.1358818 -0.03965746 -0.9899312 0.6797779 0.009699591 0.9992039 -0.03869755 1.11759e-8 0 0 0 1</float_array>
          <technique_common>
            <accessor source="#Armature_001_Armature_001Action_Yaw_pose_matrix-output-array" count="20" stride="16">
              <param name="TRANSFORM" type="float4x4"/>
            </accessor>
          </technique_common>
        </source>
        <source id="Armature_001_Armature_001Action_Yaw_pose_matrix-interpolation">
          <Name_array id="Armature_001_Armature_001Action_Yaw_pose_matrix-interpolation-array" count="20">LINEAR LINEAR LINEAR LINEAR LINEAR LINEAR LINEAR LINEAR LINEAR LINEAR LINEAR LINEAR LINEAR LINEAR LINEAR LINEAR LINEAR LINEAR LINEAR LINEAR</Name_array>
          <technique_common>
            <accessor source="#Armature_001_Armature_001Action_Yaw_pose_matrix-interpolation-array" count="20" stride="1">
              <param name="INTERPOLATION" type="name"/>
            </accessor>
          </technique_common>
        </source>
        <sampler id="Armature_001_Armature_001Action_Yaw_pose_matrix-sampler">
          <input semantic="INPUT" source="#Armature_001_Armature_001Action_Yaw_pose_matrix-input"/>
          <input semantic="OUTPUT" source="#Armature_001_Armature_001Action_Yaw_pose_matrix-output"/>
          <input semantic="INTERPOLATION" source="#Armature_001_Armature_001Action_Yaw_pose_matrix-interpolation"/>
        </sampler>
        <channel source="#Armature_001_Armature_001Action_Yaw_pose_matrix-sampler" target="Armature_001_Yaw/transform"/>
      </animation>
    </animation>
  </library_animations>
  <library_visual_scenes>
    <visual_scene id="Scene" name="Scene">
      <node id="Light_001" name="Light.001" type="NODE">
        <matrix sid="transform">-0.2908645 -0.7711008 0.5663933 8.9791 0.9551712 -0.1998833 0.2183911 0.9224764 -0.05518898 0.6045247 0.7946723 6.072999 0 0 0 1</matrix>
        <instance_light url="#Light_001-light"/>
      </node>
      <node id="Camera_001" name="Camera.001" type="NODE">
        <matrix sid="transform">0.6859207 -0.3240135 0.6515582 7.358891 0.7276763 0.3054209 -0.6141704 -6.925791 -4.01133e-9 0.8953956 0.4452714 4.958309 0 0 0 1</matrix>
        <instance_camera url="#Camera_001-camera"/>
      </node>
      <node id="Armature_001" name="Armature.001" type="NODE">
        <matrix sid="transform">1 0 0 0 0 -0.02352264 -0.9997233 0.3817993 0 0.9997233 -0.02352264 -0.2766097 0 0 0 1</matrix>
        <node id="Armature_001_Root" name="Root" sid="Root" type="JOINT">
          <matrix sid="transform">0.9796331 0.003772589 -0.2007603 -0.01489893 0.2007237 -0.04518662 0.9786052 -0.03836723 -0.005379806 -0.9989715 -0.0450237 1.019362 0 0 0 1</matrix>
          <node id="Armature_001_Link" name="Link" sid="Link" type="JOINT">
            <matrix sid="transform">0.9795615 0.2006341 0.01433113 0 0.003780283 0.05287229 -0.9985941 1.26494 -0.2011097 0.9782385 0.05103319 7.45058e-9 0 0 0 1</matrix>
            <node id="Armature_001_Yaw" name="Yaw" sid="Yaw" type="JOINT">
              <matrix sid="transform">0.9906776 -0.004343678 0.1361583 -9.31323e-10 0.1358818 -0.03965744 -0.989931 0.6797779 0.009699631 0.9992038 -0.03869751 1.11759e-8 0 0 0 1</matrix>
              <extra>
                <technique profile="blender">
                  <connect sid="connect" type="bool">1</connect>
                  <layer sid="layer" type="string">0</layer>
                  <roll sid="roll" type="float">0.132142</roll>
                  <tip_x sid="tip_x" type="float">-0.005318641</tip_x>
                  <tip_y sid="tip_y" type="float">0.07171016</tip_y>
                  <tip_z sid="tip_z" type="float">1.225852</tip_z>
                </technique>
              </extra>
            </node>
            <extra>
              <technique profile="blender">
                <connect sid="connect" type="bool">1</connect>
                <layer sid="layer" type="string">0</layer>
                <roll sid="roll" type="float">9.05991e-6</roll>
              </technique>
            </extra>
          </node>
          <extra>
            <technique profile="blender">
              <layer sid="layer" type="string">0</layer>
              <roll sid="roll" type="float">-0.2060825</roll>
            </technique>
          </extra>
        </node>
        <node id="Burger" name="Burger" type="NODE">
          <matrix sid="transform">1 0 0 0 0 1 0 0 0 0 1 0 0 0 0 1</matrix>
          <instance_controller url="#Armature_001_Burger-skin">
            <skeleton>#Armature_001_Root</skeleton>
            <bind_material>
              <technique_common>
                <instance_material symbol="Black_001-material" target="#Black_001-material"/>
                <instance_material symbol="White_001-material" target="#White_001-material"/>
                <instance_material symbol="Teeth_001-material" target="#Teeth_001-material"/>
                <instance_material symbol="Bun_001-material" target="#Bun_001-material"/>
                <instance_material symbol="Tomato_001-material" target="#Tomato_001-material"/>
                <instance_material symbol="Cheese_001-material" target="#Cheese_001-material"/>
                <instance_material symbol="Meat_001-material" target="#Meat_001-material"/>
              </technique_common>
            </bind_material>
          </instance_controller>
        </node>
      </node>
      <node id="Camera" name="Camera" type="NODE">
        <matrix sid="transform">0.6859207 -0.3240135 0.6515582 7.358891 0.7276763 0.3054208 -0.6141704 -6.925791 0 0.8953956 0.4452714 4.958309 0 0 0 1</matrix>
        <instance_camera url="#Camera-camera"/>
      </node>
      <node id="Light" name="Light" type="NODE">
        <matrix sid="transform">-0.2908646 -0.7711008 0.5663932 9.484844 0.9551712 -0.1998834 0.2183912 1.006568 -0.05518906 0.6045247 0.7946723 6.301672 0 0 0 1</matrix>
        <instance_light url="#Light-light"/>
      </node>
    </visual_scene>
  </library_visual_scenes>
  <scene>
    <instance_visual_scene url="#Scene"/>
  </scene>
</COLLADA>