# Blender v2.82 (sub 7) OBJ File: ''
# www.blender.org
mtllib tree_leaves.mtl
o polySurface13_Mesh
v -1.127642 -1.451703 4.445374
v -0.286231 -2.340240 4.231088
v -0.002338 -1.819809 4.623683
v 0.222565 -2.521982 4.101552
v 0.684783 -1.476593 4.458092
v 1.088013 -1.653808 3.899900
v -0.333881 -1.113060 4.712797
v -0.949316 -0.926744 4.409314
v 0.353240 -0.769845 4.547205
v 1.265266 -1.128803 3.859482
v -0.084942 -0.058523 4.203302
v 0.424927 -0.240312 4.078129
v -0.205212 -2.510573 3.982455
v 0.108641 -1.195983 4.142745
v -0.582039 -1.351598 4.467593
v -0.022093 -0.601532 4.145867
v -1.290395 -0.883430 4.326219
v -1.308070 -0.259649 3.859996
v -1.027776 -2.072035 4.315201
v -0.782833 -2.636857 3.837959
v -1.736131 -1.603867 4.173826
v -1.884541 -0.385634 3.710724
v -2.067660 -2.294675 3.547313
v -2.199544 -1.700523 3.555209
v -1.092589 -1.862027 3.782697
v -0.210284 -0.694104 3.794178
v -0.986365 -0.475783 4.022011
v -0.067665 -0.066833 3.672837
v -1.444381 0.240732 3.656118
v -1.126317 0.738929 3.062393
v -1.727835 -1.015122 3.893996
v -1.693223 -1.772781 3.538148
v -2.185851 -0.298605 3.528105
v -1.725167 0.826861 2.813037
v -2.750091 -0.968332 2.922900
v -2.609257 -0.339748 2.806364
v 1.640035 -1.149445 3.122596
v 1.244038 0.224622 2.868944
v 0.934830 -0.036473 3.594991
v 0.817396 0.714282 2.861459
v 0.053852 0.061108 3.835903
v -0.517916 0.419786 3.350767
v 0.905661 -0.919547 3.846014
v 1.185700 -1.541524 3.370992
v 0.024683 -0.821964 4.086926
v -0.973727 0.026374 3.594306
v -0.151089 -1.837354 3.855442
v -0.576255 -1.346360 3.852815
v -1.069289 -0.963942 2.847555
v -0.118844 -0.564927 3.040346
v -0.545821 -0.174657 3.200418
v 0.198798 -0.219891 3.041960
v -0.545573 0.463415 3.019439
v -0.118347 0.711216 2.678389
v -1.179740 -0.227647 3.012727
v -1.386682 -0.670906 2.664964
v -1.179491 0.410425 2.831748
v -0.434626 1.003263 2.492310
v -1.702711 0.259212 2.297905
v -1.386186 0.605238 2.303006
v 0.391056 -3.181876 2.842664
v 1.248826 -2.194957 2.615624
v 0.811634 -2.032815 3.215240
v 1.399449 -1.622774 2.568828
v 0.408111 -1.303093 3.311187
v 0.441781 -0.735513 2.807513
v 0.105676 -2.447506 3.400132
v -0.163090 -3.024338 2.985406
v -0.297847 -1.717784 3.496077
v -0.113553 -0.578021 2.945606
v -1.121947 -2.137124 3.219444
v -0.970134 -1.564895 3.177295
vt 0.525558 0.134918
vt 0.745269 0.024986
vt 0.745258 0.134826
vt 0.855018 0.024933
vt 0.855123 0.244634
vt 0.964950 0.244650
vt 0.635436 0.244681
vt 0.525605 0.244668
vt 0.745298 0.354498
vt 0.965005 0.354407
vt 0.635528 0.464380
vt 0.745285 0.464332
vt 0.525558 0.134918
vt 0.745269 0.024986
vt 0.745258 0.134826
vt 0.855018 0.024933
vt 0.855123 0.244634
vt 0.964950 0.244650
vt 0.635436 0.244681
vt 0.525605 0.244668
vt 0.745298 0.354498
vt 0.965005 0.354407
vt 0.635528 0.464380
vt 0.745285 0.464332
vt 0.525558 0.134918
vt 0.745269 0.024986
vt 0.745258 0.134826
vt 0.855018 0.024933
vt 0.855123 0.244634
vt 0.964950 0.244650
vt 0.635436 0.244681
vt 0.525605 0.244668
vt 0.745298 0.354498
vt 0.965005 0.354407
vt 0.635528 0.464380
vt 0.745285 0.464332
vt 0.525558 0.134918
vt 0.745269 0.024986
vt 0.745258 0.134826
vt 0.855018 0.024933
vt 0.855123 0.244634
vt 0.964950 0.244650
vt 0.635436 0.244681
vt 0.525605 0.244668
vt 0.745298 0.354498
vt 0.965005 0.354407
vt 0.635528 0.464380
vt 0.745285 0.464332
vt 0.525558 0.134918
vt 0.745269 0.024986
vt 0.745258 0.134826
vt 0.855018 0.024933
vt 0.855123 0.244634
vt 0.964950 0.244650
vt 0.635436 0.244681
vt 0.525605 0.244668
vt 0.745298 0.354498
vt 0.965005 0.354407
vt 0.635528 0.464380
vt 0.745285 0.464332
vt 0.525558 0.134918
vt 0.745269 0.024986
vt 0.745258 0.134826
vt 0.855018 0.024933
vt 0.855123 0.244634
vt 0.964950 0.244650
vt 0.635436 0.244681
vt 0.525605 0.244668
vt 0.745298 0.354498
vt 0.965005 0.354407
vt 0.635528 0.464380
vt 0.745285 0.464332
vn -0.3008 -0.2116 0.9299
vn -0.1830 -0.5265 0.8302
vn 0.0637 -0.3522 0.9338
vn 0.3952 -0.5229 0.7552
vn 0.5537 -0.1709 0.8150
vn 0.6862 -0.3841 0.6177
vn -0.1111 0.1519 0.9821
vn -0.3191 0.3684 0.8732
vn 0.3789 0.3332 0.8634
vn 0.6992 0.1946 0.6880
vn 0.0032 0.5058 0.8626
vn 0.5501 0.5108 0.6607
vn 0.2373 -0.3856 0.8916
vn 0.4420 -0.1009 0.8913
vn 0.1495 -0.0176 0.9886
vn 0.1254 0.3882 0.9130
vn -0.2593 0.3201 0.9112
vn -0.1356 0.5907 0.7954
vn -0.1735 -0.4323 0.8849
vn -0.2233 -0.6838 0.6947
vn -0.5822 -0.0947 0.8075
vn -0.6268 0.2846 0.7253
vn -0.5149 -0.4892 0.7040
vn -0.8009 0.0078 0.5987
vn -0.0419 -0.2445 0.9687
vn 0.2626 -0.0707 0.9623
vn 0.0242 0.1399 0.9899
vn 0.1814 0.4955 0.8494
vn -0.1935 0.5855 0.7873
vn 0.0440 0.7536 0.6559
vn -0.4307 -0.1262 0.8936
vn -0.5619 -0.3725 0.7386
vn -0.6485 0.3194 0.6910
vn -0.5201 0.6580 0.5445
vn -0.7435 -0.0820 0.6637
vn -0.7805 0.4517 0.4321
vn 0.7619 0.1125 0.6379
vn 0.7674 0.4254 0.4798
vn 0.5506 0.4321 0.7142
vn 0.2921 0.7372 0.6093
vn 0.0415 0.5438 0.8382
vn -0.0560 0.7701 0.6354
vn 0.4789 -0.0740 0.8748
vn 0.4878 -0.3804 0.7857
vn -0.0302 0.0376 0.9988
vn -0.2933 0.3104 0.9042
vn 0.1765 -0.3143 0.9328
vn -0.3356 -0.0357 0.9413
vn -0.2853 -0.3165 0.9047
vn 0.0629 -0.3191 0.9456
vn -0.0450 -0.0232 0.9987
vn 0.2821 0.2211 0.9336
vn 0.0098 0.4937 0.8695
vn 0.3143 0.5362 0.7834
vn -0.5541 -0.0109 0.8324
vn -0.7659 -0.1356 0.6285
vn -0.4993 0.5062 0.7032
vn -0.2047 0.7512 0.6275
vn -0.7720 0.2137 0.5986
vn -0.5144 0.7197 0.4663
vn 0.4364 -0.4920 0.7533
vn 0.7162 -0.3344 0.6126
vn 0.5712 -0.1300 0.8104
vn 0.6906 0.2441 0.6808
vn 0.3633 0.3614 0.8587
vn 0.5203 0.5494 0.6538
vn 0.0956 -0.3434 0.9343
vn -0.1395 -0.5344 0.8337
vn -0.1122 0.1479 0.9826
vn -0.0232 0.5083 0.8609
vn -0.2774 -0.2278 0.9334
vn -0.3354 0.3493 0.8749
usemtl lambert6
s 1
f 1/1/1 2/2/2 3/3/3
f 3/3/3 2/2/2 4/4/4
f 3/3/3 4/4/4 5/5/5
f 4/4/4 6/6/6 5/5/5
f 1/1/1 3/3/3 7/7/7
f 7/7/7 8/8/8 1/1/1
f 5/5/5 9/9/9 7/7/7
f 5/5/5 10/10/10 9/9/9
f 8/8/8 7/7/7 11/11/11
f 7/7/7 9/9/9 11/11/11
f 9/9/9 10/10/10 12/12/12
f 12/12/12 11/11/11 9/9/9
f 6/6/6 10/10/10 5/5/5
f 5/5/5 7/7/7 3/3/3
f 13/13/13 14/14/14 15/15/15
f 15/15/15 14/14/14 16/16/16
f 15/15/15 16/16/16 17/17/17
f 16/16/16 18/18/18 17/17/17
f 13/13/13 15/15/15 19/19/19
f 19/19/19 20/20/20 13/13/13
f 17/17/17 21/21/21 19/19/19
f 17/17/17 22/22/22 21/21/21
f 20/20/20 19/19/19 23/23/23
f 19/19/19 21/21/21 23/23/23
f 21/21/21 22/22/22 24/24/24
f 24/24/24 23/23/23 21/21/21
f 18/18/18 22/22/22 17/17/17
f 17/17/17 19/19/19 15/15/15
f 25/25/25 26/26/26 27/27/27
f 27/27/27 26/26/26 28/28/28
f 27/27/27 28/28/28 29/29/29
f 28/28/28 30/30/30 29/29/29
f 25/25/25 27/27/27 31/31/31
f 31/31/31 32/32/32 25/25/25
f 29/29/29 33/33/33 31/31/31
f 29/29/29 34/34/34 33/33/33
f 32/32/32 31/31/31 35/35/35
f 31/31/31 33/33/33 35/35/35
f 33/33/33 34/34/34 36/36/36
f 36/36/36 35/35/35 33/33/33
f 30/30/30 34/34/34 29/29/29
f 29/29/29 31/31/31 27/27/27
f 37/37/37 38/38/38 39/39/39
f 39/39/39 38/38/38 40/40/40
f 39/39/39 40/40/40 41/41/41
f 40/40/40 42/42/42 41/41/41
f 37/37/37 39/39/39 43/43/43
f 43/43/43 44/44/44 37/37/37
f 41/41/41 45/45/45 43/43/43
f 41/41/41 46/46/46 45/45/45
f 44/44/44 43/43/43 47/47/47
f 43/43/43 45/45/45 47/47/47
f 45/45/45 46/46/46 48/48/48
f 48/48/48 47/47/47 45/45/45
f 42/42/42 46/46/46 41/41/41
f 41/41/41 43/43/43 39/39/39
f 49/49/49 50/50/50 51/51/51
f 51/51/51 50/50/50 52/52/52
f 51/51/51 52/52/52 53/53/53
f 52/52/52 54/54/54 53/53/53
f 49/49/49 51/51/51 55/55/55
f 55/55/55 56/56/56 49/49/49
f 53/53/53 57/57/57 55/55/55
f 53/53/53 58/58/58 57/57/57
f 56/56/56 55/55/55 59/59/59
f 55/55/55 57/57/57 59/59/59
f 57/57/57 58/58/58 60/60/60
f 60/60/60 59/59/59 57/57/57
f 54/54/54 58/58/58 53/53/53
f 53/53/53 55/55/55 51/51/51
f 61/61/61 62/62/62 63/63/63
f 63/63/63 62/62/62 64/64/64
f 63/63/63 64/64/64 65/65/65
f 64/64/64 66/66/66 65/65/65
f 61/61/61 63/63/63 67/67/67
f 67/67/67 68/68/68 61/61/61
f 65/65/65 69/69/69 67/67/67
f 65/65/65 70/70/70 69/69/69
f 68/68/68 67/67/67 71/71/71
f 67/67/67 69/69/69 71/71/71
f 69/69/69 70/70/70 72/72/72
f 72/72/72 71/71/71 69/69/69
f 66/66/66 70/70/70 65/65/65
f 65/65/65 67/67/67 63/63/63
