# Blender v2.79 (sub 0) OBJ File: ''
# www.blender.org
mtllib model.mtl
o Spaceship_Cube.001
v 0.938206 1.208627 -2.272376
v 0.878558 1.520202 -2.039838
v 2.027433 1.520202 -1.780026
v 2.059448 1.208627 -1.988839
v 0.000000 1.208627 -2.357437
v 0.000000 1.520202 -2.117781
v 2.027433 0.703672 -1.780025
v 2.707703 0.703672 -1.288232
v 2.557874 0.597240 -1.122551
v 1.966996 0.597240 -1.760138
v 2.415928 1.208627 -1.452138
v 1.264964 0.703672 -2.039838
v 0.888020 0.597240 -1.999006
v 0.000000 2.506226 -2.030310
v 0.843672 2.355581 -1.930393
v 1.708457 0.597241 1.533946
v 1.712985 0.000951 1.488873
v 2.550712 0.000951 0.750453
v 2.664486 0.597241 0.709256
v 0.000000 0.703672 -2.117781
v 0.000000 0.597240 -2.070666
v 0.940766 0.000951 -1.847338
v 0.000000 0.000951 -1.914787
v 1.178732 0.597241 2.840037
v 0.508102 0.597241 3.379071
v 0.475079 0.000952 3.208855
v 1.214393 0.000952 2.718202
v 2.755270 0.597240 -0.928653
v 2.641111 0.000951 -0.928653
v 2.456666 0.000951 -1.011496
v 1.956329 0.000951 -1.622509
v 0.000000 0.597241 3.419291
v 0.000000 0.000952 3.263412
v 0.000000 -0.003821 1.464835
v 0.756809 -0.003821 1.464835
v 1.758919 -0.003821 0.422195
v 1.833832 -0.003821 -0.589300
v 0.000000 -0.003821 0.442959
v 0.757023 -0.003821 0.442959
v 0.000000 -0.003821 -0.578918
v 0.800750 -0.003821 -0.578918
v 0.756987 2.355581 -1.181898
v 0.000000 2.506227 -1.229853
v 0.175663 2.453501 -1.082082
v 0.545828 2.408307 -1.067696
v 0.713645 2.355581 -0.862374
v 0.748532 1.520202 -0.862374
v 0.800329 2.355581 -1.556146
v 0.880908 2.355581 0.618662
v 1.092710 1.520202 0.618661
v 0.776143 1.520202 -0.656042
v 0.727094 2.355581 -0.656042
v 0.637669 2.408307 -1.834377
v 0.616475 2.408307 -1.722103
v 0.570554 2.408307 -1.338762
v 0.200389 2.453501 -1.353149
v 0.153221 2.264012 -1.084129
v 0.523387 2.218818 -1.069743
v 0.000000 2.506227 -0.862374
v 0.524634 2.408307 -0.955422
v 0.175663 2.453501 -0.962014
v 0.225116 2.453501 -1.864353
v 0.225116 2.453501 -1.744284
v 0.202675 2.264012 -1.746331
v 0.202675 2.264012 -1.866400
v 0.591749 2.408307 -1.451037
v 0.000000 2.506226 -1.630082
v 0.200389 2.453501 -1.473217
v 0.569307 2.218818 -1.453084
v 0.548113 2.218818 -1.340809
v 0.153221 2.264012 -0.964061
v 0.502192 2.218818 -0.957469
v 0.177948 2.264012 -1.475264
v 0.177948 2.264012 -1.355196
v 0.594034 2.218818 -1.724150
v 0.615228 2.218818 -1.836424
v 0.000000 1.673609 -2.396446
v 0.422915 1.524437 -2.455433
v 0.377462 1.407725 -2.303381
v 0.000000 1.541518 -2.250474
v 0.608339 1.154303 -2.612927
v 0.439163 0.780028 -2.776668
v 0.392035 0.740058 -2.591498
v 0.543771 1.075748 -2.444638
v 0.000000 0.620857 -2.850741
v 0.000000 0.597296 -2.657935
v 0.259171 1.301466 -2.350750
v 0.373246 1.073757 -2.447643
v 0.195365 1.071678 -2.450776
v 0.135777 1.190624 -2.400165
v 0.269167 0.843498 -2.548377
v 0.000000 0.745575 -2.593947
v 0.000000 0.900251 -2.527199
v 0.140998 0.951402 -2.503396
v 0.000000 1.393239 -2.314462
v 0.000000 1.238562 -2.381208
v 0.622149 2.475500 0.618662
v 0.000000 2.506227 -0.656042
v 0.000000 2.506227 0.618661
v 1.480955 0.463107 -2.926425
v 1.063789 0.677652 -2.938503
v 1.065521 0.639135 -2.742780
v 1.439681 0.446708 -2.731946
v 0.900734 1.094321 -2.797072
v 1.087304 1.469034 -2.584976
v 1.086612 1.348933 -2.425698
v 0.919276 1.012850 -2.615930
v 1.514211 1.582289 -2.426460
v 1.931376 1.367744 -2.414379
v 1.843668 1.258085 -2.272688
v 1.469508 1.450512 -2.283524
v 2.094431 0.951075 -2.555812
v 1.907861 0.576362 -2.767907
v 1.822577 0.548287 -2.589771
v 1.989913 0.884371 -2.399541
v 1.187720 0.736334 -2.668958
v 1.087407 0.992673 -2.581948
v 1.262792 0.971627 -2.546501
v 1.315192 0.837727 -2.591950
v 1.202187 1.223200 -2.451464
v 1.464824 1.292876 -2.353943
v 1.459938 1.128439 -2.427401
v 1.322748 1.092044 -2.478342
v 1.721468 1.160886 -2.346511
v 1.821781 0.904547 -2.433522
v 1.646396 0.925593 -2.468969
v 1.593997 1.059493 -2.423519
v 1.707002 0.674020 -2.564005
v 1.444365 0.604344 -2.661527
v 1.449251 0.768781 -2.588069
v 1.586440 0.805176 -2.537127
v -0.938206 1.208627 -2.272376
v -2.059448 1.208627 -1.988839
v -2.027433 1.520202 -1.780026
v -0.878558 1.520202 -2.039838
v -2.027433 0.703672 -1.780025
v -1.966996 0.597240 -1.760138
v -2.557874 0.597240 -1.122551
v -2.707703 0.703672 -1.288232
v -2.415928 1.208627 -1.452138
v -1.264964 0.703672 -2.039838
v -0.888019 0.597240 -1.999006
v -0.843671 2.355581 -1.930393
v -1.708457 0.597241 1.533946
v -2.664486 0.597241 0.709256
v -2.550712 0.000951 0.750453
v -1.712985 0.000951 1.488873
v -0.940766 0.000951 -1.847338
v -1.178732 0.597241 2.840037
v -1.214393 0.000952 2.718202
v -0.475079 0.000952 3.208855
v -0.508102 0.597241 3.379071
v -2.755270 0.597240 -0.928653
v -2.641111 0.000951 -0.928653
v -1.956329 0.000951 -1.622509
v -2.456666 0.000951 -1.011496
v -0.756809 -0.003821 1.464835
v -1.758919 -0.003821 0.422195
v -1.833832 -0.003821 -0.589300
v -0.757023 -0.003821 0.442959
v -0.800750 -0.003821 -0.578918
v -0.756987 2.355581 -1.181898
v -0.545828 2.408307 -1.067696
v -0.175663 2.453501 -1.082082
v -0.800329 2.355581 -1.556146
v -0.748532 1.520202 -0.862374
v -0.713645 2.355581 -0.862374
v -0.880908 2.355581 0.618661
v -0.727094 2.355581 -0.656042
v -0.776143 1.520202 -0.656042
v -1.092710 1.520202 0.618661
v -0.616475 2.408307 -1.722103
v -0.637669 2.408307 -1.834377
v -0.200389 2.453501 -1.353149
v -0.570554 2.408307 -1.338762
v -0.523387 2.218818 -1.069743
v -0.153221 2.264012 -1.084129
v -0.175663 2.453501 -0.962014
v -0.524634 2.408307 -0.955422
v -0.225116 2.453501 -1.864353
v -0.202674 2.264012 -1.866400
v -0.202674 2.264012 -1.746331
v -0.225116 2.453501 -1.744284
v -0.591749 2.408307 -1.451037
v -0.200389 2.453501 -1.473217
v -0.548113 2.218818 -1.340809
v -0.569307 2.218818 -1.453084
v -0.502192 2.218818 -0.957469
v -0.153221 2.264012 -0.964061
v -0.177948 2.264012 -1.475264
v -0.177948 2.264012 -1.355196
v -0.615228 2.218818 -1.836424
v -0.594034 2.218818 -1.724150
v -0.377462 1.407725 -2.303381
v -0.422914 1.524437 -2.455433
v -0.608339 1.154303 -2.612927
v -0.543771 1.075748 -2.444638
v -0.392035 0.740058 -2.591498
v -0.439163 0.780028 -2.776668
v -0.259171 1.301466 -2.350750
v -0.135776 1.190624 -2.400165
v -0.195364 1.071678 -2.450776
v -0.373246 1.073757 -2.447643
v -0.269167 0.843498 -2.548377
v -0.140998 0.951402 -2.503396
v -0.622149 2.475500 0.618662
v -1.480955 0.463107 -2.926425
v -1.439681 0.446708 -2.731946
v -1.065521 0.639135 -2.742780
v -1.063789 0.677652 -2.938503
v -0.900734 1.094321 -2.797072
v -0.919276 1.012850 -2.615930
v -1.086612 1.348933 -2.425698
v -1.087304 1.469034 -2.584976
v -1.514211 1.582289 -2.426460
v -1.469508 1.450512 -2.283524
v -1.843668 1.258085 -2.272688
v -1.931376 1.367744 -2.414379
v -2.094431 0.951075 -2.555812
v -1.989913 0.884371 -2.399541
v -1.822577 0.548287 -2.589771
v -1.907861 0.576362 -2.767907
v -1.187720 0.736334 -2.668958
v -1.315192 0.837727 -2.591950
v -1.262792 0.971627 -2.546501
v -1.087407 0.992673 -2.581948
v -1.202187 1.223200 -2.451464
v -1.322748 1.092044 -2.478342
v -1.459938 1.128439 -2.427401
v -1.464824 1.292876 -2.353943
v -1.721468 1.160886 -2.346511
v -1.593997 1.059493 -2.423519
v -1.646396 0.925593 -2.468969
v -1.821781 0.904547 -2.433522
v -1.707002 0.674020 -2.564005
v -1.586440 0.805176 -2.537127
v -1.449251 0.768781 -2.588069
v -1.444365 0.604344 -2.661527
v 1.594833 1.200737 1.686004
v 1.240063 1.520202 1.556084
v 0.980474 1.354813 2.394710
v 1.115057 1.076976 2.757101
v 0.459661 1.084867 3.264010
v 0.538468 1.392553 2.758988
v 0.000000 1.392553 2.758988
v 0.000000 1.084867 3.370865
v 1.836028 0.716123 1.704395
v 1.170053 0.703673 3.021801
v 0.459314 0.703673 3.614080
v 0.000000 0.703673 3.651845
v -1.594833 1.200737 1.686004
v -1.115057 1.076976 2.757101
v -0.980474 1.354813 2.394710
v -1.240063 1.520202 1.556084
v -0.459661 1.084867 3.264010
v -0.538468 1.392553 2.758988
v -1.836028 0.716123 1.704395
v -1.170053 0.703673 3.021801
v -0.459314 0.703673 3.614080
v 1.034635 2.038492 1.976791
v 0.524104 2.440754 1.660372
v 0.527636 2.015161 2.443257
v 0.000000 2.506227 0.827520
v 0.000000 2.440754 1.660372
v 0.598704 2.506227 0.827520
v 0.000000 2.006145 2.447829
v 0.926496 2.355581 0.827520
v 1.153596 1.520202 0.827520
v -1.034635 2.038492 1.976791
v -0.524104 2.440754 1.660372
v -0.527636 2.015161 2.443257
v -0.598704 2.506227 0.827520
v -0.926496 2.355581 0.827520
v -1.153596 1.520202 0.827520
v 1.617908 1.520202 0.435603
v 2.261142 1.531602 0.557912
v 2.654533 1.208627 -0.928654
v 2.461355 1.529505 -0.928654
v 2.562523 1.208627 0.601945
v 1.933697 1.520202 -0.930087
v 2.924421 0.703672 -0.928653
v 2.833062 0.703672 0.647795
v 2.284695 1.520202 -1.288232
v -1.617908 1.520202 0.435603
v -2.261142 1.531602 0.557912
v -2.654533 1.208627 -0.928654
v -2.562523 1.208627 0.601945
v -2.461355 1.529505 -0.928654
v -1.933697 1.520202 -0.930087
v -2.924421 0.703672 -0.928653
v -2.833062 0.703672 0.647795
v -2.284695 1.520202 -1.288232
v 0.713990 1.953524 -1.361386
v 0.681409 1.952297 -1.191076
v 1.087252 1.965140 -1.356026
v 0.783473 1.956966 -1.839175
v 1.134078 1.967460 -1.834333
v -0.713990 1.953524 -1.361386
v -1.087252 1.965140 -1.356026
v -0.681409 1.952297 -1.191076
v -0.783473 1.956966 -1.839175
v -1.134078 1.967460 -1.834333
v 0.000000 2.453071 0.601030
v 0.000000 3.092930 0.718726
v 0.033380 3.092930 0.718726
v 0.033380 2.453071 0.601030
v 0.090027 2.310803 1.484416
v 0.090027 2.195591 2.283508
v 0.066563 2.060337 2.264008
v 0.066563 2.175549 1.464915
v 0.033380 2.197735 2.372011
v 0.009917 2.062481 2.352510
v 0.000000 2.837815 1.616524
v 0.033380 2.837815 1.616524
v 0.033380 2.325403 1.486521
v 0.000000 2.325403 1.486521
v 0.009917 2.190149 1.467020
v 0.000000 2.190149 1.467020
v 0.000000 2.197735 2.372011
v 0.090027 2.761678 1.617445
v 0.090027 2.426014 0.685323
v 0.090027 3.003855 0.807101
v 2.423638 1.373840 -0.849404
v 2.999845 1.430974 -0.816019
v 3.003105 1.398095 -0.816019
v 2.426898 1.340961 -0.849404
v 2.349960 1.333332 0.491540
v 2.388429 1.337146 -0.178932
v 2.381624 1.293740 -0.179569
v 2.346908 1.290298 0.425484
v 2.385169 1.370026 -0.178932
v 2.346700 1.366211 0.491540
v 2.854398 1.416552 -0.151745
v 2.857658 1.383673 -0.151745
v 2.416339 1.297182 -0.784623
v 2.805069 1.335727 -0.155035
v 2.936326 1.348742 -0.754495
v 2.420378 1.406720 -0.849404
v 2.996585 1.463854 -0.816019
v 2.343440 1.399091 0.491540
v 2.331996 1.440687 0.425484
v 2.366711 1.444129 -0.179569
v 2.381909 1.402905 -0.178932
v 2.851137 1.449432 -0.151745
v 2.401427 1.447572 -0.784623
v 2.790157 1.486117 -0.155035
v 2.921414 1.499131 -0.754495
v 2.699337 0.847511 -0.849404
v 3.278359 0.850961 -0.816018
v 3.278556 0.817921 -0.816018
v 2.699534 0.814471 -0.849404
v 2.622220 0.814010 0.491540
v 2.660877 0.814241 -0.178932
v 2.650075 0.771653 -0.179569
v 2.615190 0.771445 0.425485
v 2.660680 0.847281 -0.178932
v 2.622023 0.847050 0.491540
v 3.132201 0.850090 -0.151745
v 3.132399 0.817050 -0.151745
v 2.684960 0.771860 -0.784623
v 3.075590 0.774188 -0.155035
v 3.207487 0.774974 -0.754495
v 2.699140 0.880551 -0.849404
v 3.278162 0.884001 -0.816018
v 2.621826 0.880091 0.491540
v 2.614290 0.922569 0.425484
v 2.649175 0.922777 -0.179569
v 2.660483 0.880321 -0.178932
v 3.132004 0.883130 -0.151745
v 2.684060 0.922985 -0.784623
v 3.074690 0.925312 -0.155035
v 3.206587 0.926098 -0.754495
v 0.000000 0.138543 -2.296531
v 0.000000 0.540381 -2.885468
v 0.505847 0.723888 -2.800071
v 0.668740 0.372098 -2.216967
v 0.700888 1.155385 -2.611297
v 0.863873 0.862581 -2.010509
v 0.487115 1.582106 -2.429724
v 0.604913 1.322676 -1.798097
v 0.000000 1.754085 -2.361718
v 0.000000 1.482864 -1.704160
v 1.190272 0.060321 -1.753292
v 1.478413 0.377553 -2.964643
v 1.970587 0.508123 -2.781891
v 1.716553 0.221137 -1.506256
v 2.185680 0.940125 -2.537369
v 1.947067 0.503206 -1.723590
v 1.997697 1.420497 -2.374313
v 1.746781 1.050953 -1.569579
v 1.516753 1.667843 -2.388242
v 1.233021 1.356049 -1.652208
v 1.024579 1.537272 -2.570992
v 0.706739 1.239771 -1.923073
v 0.809484 1.105271 -2.815515
v 0.476225 0.770235 -2.223507
v 0.997468 0.624899 -2.978569
v 0.676511 0.346829 -1.886798
v 0.000000 2.392789 -2.009175
v 0.000000 3.101804 -2.009175
v 0.031717 3.101804 -2.009175
v 0.031717 2.392789 -2.009175
v 0.031717 2.392789 0.035920
v 0.031717 2.392789 -0.986627
v 0.096462 2.379252 -0.986627
v 0.096462 2.379252 -0.063851
v 0.000000 2.392789 -0.986627
v 0.000000 2.392789 0.035920
v 0.000000 2.970169 -0.986628
v 0.031717 2.970169 -0.986628
v 0.096462 2.379252 -1.909404
v 0.096462 2.900296 -0.986628
v 0.096462 3.019088 -1.909404
v 0.824244 1.957652 -1.890415
v 1.977522 2.014786 -1.864052
v 1.984048 1.981907 -1.864052
v 0.830769 1.924773 -1.890415
v 1.686410 2.000365 -1.339498
v 1.692935 1.967485 -1.339498
v 0.618904 1.950023 -0.831519
v 0.618904 1.917144 -0.831519
v 0.740151 1.877552 -1.361470
v 1.587679 1.919539 -1.342096
v 0.618904 1.874110 -0.883682
v 0.809635 1.880994 -1.839259
v 1.850389 1.932554 -1.815468
v 0.817718 1.990532 -1.890415
v 1.970997 2.047666 -1.864052
v 1.679885 2.033244 -1.339498
v 0.618904 1.982903 -0.831519
v 1.130393 2.041878 -1.834417
v 0.779789 2.031384 -1.839259
v 1.083568 2.039559 -1.356110
v 1.557833 2.069929 -1.342096
v 0.618904 2.024499 -0.883682
v 1.820542 2.082943 -1.815468
v 0.677725 2.026715 -1.191160
v 0.000000 2.062481 2.352510
v 0.066563 2.290760 0.665822
v 0.009917 2.317817 0.581530
v 0.000000 1.401349 -1.045773
v 0.604913 1.241161 -1.139711
v 0.863873 0.781067 -1.352122
v 0.668740 0.290583 -1.558581
v 0.000000 0.057029 -1.638144
v -0.033380 2.453071 0.601030
v -0.033380 3.092930 0.718726
v -0.090027 2.310803 1.484416
v -0.066563 2.175549 1.464915
v -0.066563 2.060337 2.264008
v -0.090027 2.195591 2.283508
v -0.009917 2.062481 2.352510
v -0.033380 2.197735 2.372011
v -0.033380 2.837815 1.616524
v -0.033380 2.325403 1.486521
v -0.009917 2.190149 1.467020
v -0.090027 2.761678 1.617445
v -0.090027 2.426014 0.685323
v -0.090027 3.003855 0.807101
v -2.423638 1.373840 -0.849404
v -2.426898 1.340961 -0.849404
v -3.003105 1.398095 -0.816019
v -2.999845 1.430974 -0.816019
v -2.349960 1.333332 0.491540
v -2.346908 1.290298 0.425484
v -2.381624 1.293740 -0.179569
v -2.388429 1.337146 -0.178932
v -2.385169 1.370026 -0.178932
v -2.346700 1.366211 0.491540
v -2.857658 1.383673 -0.151745
v -2.854398 1.416552 -0.151745
v -2.416339 1.297182 -0.784623
v -2.805069 1.335727 -0.155035
v -2.936326 1.348742 -0.754495
v -2.996585 1.463854 -0.816019
v -2.420378 1.406720 -0.849404
v -2.343440 1.399091 0.491540
v -2.381909 1.402905 -0.178932
v -2.366711 1.444129 -0.179569
v -2.331996 1.440687 0.425484
v -2.851137 1.449432 -0.151745
v -2.401427 1.447572 -0.784623
v -2.790157 1.486117 -0.155035
v -2.921414 1.499131 -0.754495
v -2.699337 0.847511 -0.849404
v -2.699534 0.814471 -0.849404
v -3.278556 0.817921 -0.816018
v -3.278359 0.850961 -0.816018
v -2.622220 0.814010 0.491540
v -2.615190 0.771445 0.425484
v -2.650075 0.771653 -0.179569
v -2.660877 0.814241 -0.178932
v -2.660680 0.847281 -0.178932
v -2.622023 0.847050 0.491540
v -3.132399 0.817050 -0.151745
v -3.132201 0.850090 -0.151745
v -2.684960 0.771860 -0.784623
v -3.075590 0.774188 -0.155035
v -3.207487 0.774974 -0.754495
v -3.278162 0.884001 -0.816018
v -2.699140 0.880551 -0.849404
v -2.621826 0.880091 0.491540
v -2.660483 0.880321 -0.178932
v -2.649175 0.922777 -0.179569
v -2.614290 0.922569 0.425484
v -3.132004 0.883130 -0.151745
v -2.684060 0.922985 -0.784623
v -3.074690 0.925312 -0.155035
v -3.206587 0.926098 -0.754495
v -0.668740 0.372098 -2.216967
v -0.505847 0.723888 -2.800071
v -0.863873 0.862581 -2.010509
v -0.700888 1.155385 -2.611297
v -0.604913 1.322676 -1.798097
v -0.487115 1.582106 -2.429724
v -1.190272 0.060321 -1.753292
v -1.716553 0.221137 -1.506256
v -1.970587 0.508123 -2.781891
v -1.478413 0.377553 -2.964643
v -1.947067 0.503206 -1.723590
v -2.185680 0.940125 -2.537369
v -1.746781 1.050953 -1.569579
v -1.997697 1.420497 -2.374313
v -1.233021 1.356049 -1.652208
v -1.516753 1.667843 -2.388242
v -0.706739 1.239771 -1.923073
v -1.024579 1.537272 -2.570992
v -0.476225 0.770235 -2.223507
v -0.809484 1.105271 -2.815515
v -0.997468 0.624899 -2.978569
v -0.676511 0.346829 -1.886798
v -0.031717 2.392789 -2.009175
v -0.031717 3.101804 -2.009175
v -0.031717 2.392789 0.035920
v -0.096462 2.379252 -0.063851
v -0.096462 2.379252 -0.986627
v -0.031717 2.392789 -0.986627
v -0.031717 2.970169 -0.986628
v -0.096462 2.379252 -1.909404
v -0.096462 2.900296 -0.986628
v -0.096462 3.019088 -1.909404
v -0.824244 1.957652 -1.890415
v -0.830769 1.924773 -1.890415
v -1.984048 1.981907 -1.864052
v -1.977522 2.014786 -1.864052
v -1.692935 1.967485 -1.339498
v -1.686410 2.000365 -1.339498
v -0.618904 1.917144 -0.831519
v -0.618904 1.950023 -0.831519
v -0.740151 1.877552 -1.361470
v -0.618904 1.874110 -0.883682
v -1.587679 1.919539 -1.342096
v -0.809635 1.880994 -1.839259
v -1.850389 1.932554 -1.815468
v -1.970997 2.047666 -1.864052
v -0.817718 1.990532 -1.890415
v -1.679885 2.033244 -1.339498
v -0.618904 1.982903 -0.831519
v -1.130393 2.041878 -1.834417
v -0.779789 2.031384 -1.839259
v -1.083568 2.039559 -1.356110
v -0.618904 2.024499 -0.883682
v -1.557833 2.069929 -1.342096
v -1.820542 2.082943 -1.815468
v -0.677725 2.026715 -1.191160
v -0.066563 2.290760 0.665822
v -0.009917 2.317817 0.581530
v -0.604913 1.241161 -1.139711
v -0.668740 0.290583 -1.558581
v -0.863873 0.781067 -1.352122
v 0.857908 1.837972 0.315727
v 0.838033 1.983517 0.360315
v 0.806852 2.115686 0.288722
v 0.782630 2.157056 0.142886
v 0.779558 2.083393 0.008235
v 0.799433 1.937849 -0.036353
v 0.830613 1.805680 0.035240
v 0.854835 1.764310 0.181076
v 0.964573 1.906570 0.241832
v 0.962691 1.861472 0.159394
v 0.947862 1.886800 0.070109
v 0.928772 1.967717 0.026277
v 0.916604 2.056825 0.053576
v 0.918485 2.101923 0.136013
v 0.933315 2.076595 0.225299
v 0.952404 1.995676 0.269130
v -0.857908 1.837972 0.315727
v -0.854835 1.764310 0.181076
v -0.830613 1.805680 0.035240
v -0.799433 1.937849 -0.036353
v -0.779558 2.083393 0.008235
v -0.782630 2.157056 0.142886
v -0.806852 2.115686 0.288722
v -0.838033 1.983517 0.360315
v -0.964573 1.906570 0.241832
v -0.952404 1.995676 0.269130
v -0.933315 2.076595 0.225299
v -0.918485 2.101923 0.136013
v -0.916604 2.056825 0.053576
v -0.928772 1.967717 0.026277
v -0.947862 1.886800 0.070109
v -0.962691 1.861472 0.159394
vt 0.629488 0.152784
vt 0.618967 0.190192
vt 0.774539 0.225374
vt 0.784239 0.191917
vt 0.500000 0.141045
vt 0.500000 0.179638
vt 0.788824 0.212832
vt 0.885734 0.282892
vt 0.866878 0.305402
vt 0.782128 0.213953
vt 0.833439 0.265991
vt 0.680204 0.175820
vt 0.627370 0.179692
vt 0.500000 0.206977
vt 0.608741 0.217602
vt 0.745046 0.686426
vt 0.755469 0.688456
vt 0.880404 0.578331
vt 0.882170 0.568140
vt 0.500000 0.164716
vt 0.500000 0.169413
vt 0.640303 0.190905
vt 0.500000 0.180846
vt 0.669067 0.873760
vt 0.572878 0.951074
vt 0.570852 0.944969
vt 0.681110 0.871794
vt 0.895191 0.333213
vt 0.893886 0.327915
vt 0.866379 0.315560
vt 0.791760 0.224436
vt 0.500000 0.956843
vt 0.500000 0.953105
vt 0.500000 0.684941
vt 0.612904 0.684941
vt 0.762403 0.529396
vt 0.773578 0.378497
vt 0.500000 0.532493
vt 0.612936 0.532493
vt 0.500000 0.380046
vt 0.619459 0.380046
vt 0.597568 0.314076
vt 0.500000 0.309260
vt 0.522514 0.327724
vt 0.570139 0.329212
vt 0.591982 0.355259
vt 0.601360 0.349635
vt 0.603155 0.265839
vt 0.613540 0.546151
vt 0.647966 0.550185
vt 0.605099 0.377575
vt 0.593715 0.381854
vt 0.581940 0.230694
vt 0.579217 0.245121
vt 0.573316 0.294381
vt 0.525683 0.292982
vt 0.519854 0.325936
vt 0.567996 0.327436
vt 0.500000 0.356216
vt 0.567415 0.343640
vt 0.522514 0.343113
vt 0.528852 0.227463
vt 0.528852 0.242852
vt 0.526262 0.240131
vt 0.526262 0.224574
vt 0.576039 0.279953
vt 0.500000 0.258119
vt 0.525683 0.277594
vt 0.573961 0.277634
vt 0.571208 0.292220
vt 0.519854 0.341494
vt 0.565242 0.342022
vt 0.523058 0.275255
vt 0.523058 0.290812
vt 0.577173 0.242419
vt 0.579927 0.227833
vt 0.500000 0.144891
vt 0.557253 0.134001
vt 0.551464 0.152365
vt 0.500000 0.162062
vt 0.584244 0.104569
vt 0.562259 0.072767
vt 0.555719 0.098085
vt 0.575670 0.126219
vt 0.500000 0.058145
vt 0.500000 0.085182
vt 0.535566 0.143817
vt 0.551947 0.125758
vt 0.527194 0.125278
vt 0.518761 0.134779
vt 0.538006 0.106580
vt 0.500000 0.097866
vt 0.500000 0.110845
vt 0.519774 0.115324
vt 0.500000 0.150576
vt 0.500000 0.138370
vt 0.579638 0.545603
vt 0.500000 0.382582
vt 0.500000 0.545464
vt 0.714259 0.043027
vt 0.651797 0.047102
vt 0.652419 0.074066
vt 0.708509 0.070744
vt 0.625200 0.077624
vt 0.647692 0.115285
vt 0.648683 0.134499
vt 0.628428 0.100951
vt 0.704274 0.139070
vt 0.763970 0.136427
vt 0.753683 0.153696
vt 0.699833 0.155883
vt 0.793738 0.107966
vt 0.774013 0.068875
vt 0.762238 0.093787
vt 0.780252 0.128468
vt 0.668849 0.086986
vt 0.652109 0.105243
vt 0.676875 0.109732
vt 0.685773 0.100294
vt 0.665773 0.128371
vt 0.701125 0.143208
vt 0.702499 0.129721
vt 0.683885 0.121878
vt 0.738294 0.141595
vt 0.756247 0.124117
vt 0.731272 0.119591
vt 0.722043 0.128816
vt 0.743637 0.100456
vt 0.707072 0.084840
vt 0.705605 0.099243
vt 0.724549 0.107299
vt 0.370512 0.152784
vt 0.215761 0.191917
vt 0.225461 0.225374
vt 0.381033 0.190192
vt 0.211176 0.212832
vt 0.217872 0.213953
vt 0.133122 0.305402
vt 0.114266 0.282892
vt 0.166561 0.265991
vt 0.319796 0.175820
vt 0.372631 0.179692
vt 0.391259 0.217602
vt 0.254955 0.686426
vt 0.117830 0.568140
vt 0.119596 0.578331
vt 0.244531 0.688456
vt 0.359697 0.190905
vt 0.330933 0.873760
vt 0.318890 0.871794
vt 0.429148 0.944969
vt 0.427122 0.951074
vt 0.104809 0.333213
vt 0.106114 0.327915
vt 0.208240 0.224436
vt 0.133621 0.315560
vt 0.387096 0.684941
vt 0.237597 0.529396
vt 0.226422 0.378497
vt 0.387064 0.532493
vt 0.380541 0.380046
vt 0.402432 0.314076
vt 0.429861 0.329212
vt 0.477486 0.327724
vt 0.396845 0.265839
vt 0.398640 0.349635
vt 0.408018 0.355259
vt 0.386460 0.546150
vt 0.406285 0.381854
vt 0.394901 0.377575
vt 0.352034 0.550185
vt 0.420783 0.245121
vt 0.418060 0.230694
vt 0.474317 0.292982
vt 0.426684 0.294381
vt 0.432004 0.327436
vt 0.480146 0.325936
vt 0.477486 0.343113
vt 0.432585 0.343640
vt 0.471148 0.227463
vt 0.473739 0.224574
vt 0.473739 0.240131
vt 0.471148 0.242852
vt 0.423960 0.279953
vt 0.474317 0.277594
vt 0.428792 0.292220
vt 0.426039 0.277634
vt 0.434758 0.342022
vt 0.480146 0.341494
vt 0.476943 0.275255
vt 0.476943 0.290812
vt 0.420073 0.227833
vt 0.422826 0.242419
vt 0.448536 0.152365
vt 0.442747 0.134001
vt 0.415756 0.104569
vt 0.424329 0.126219
vt 0.444281 0.098085
vt 0.437741 0.072767
vt 0.464434 0.143817
vt 0.481240 0.134779
vt 0.472806 0.125278
vt 0.448053 0.125758
vt 0.461994 0.106580
vt 0.480226 0.115324
vt 0.420362 0.545603
vt 0.285741 0.043027
vt 0.291491 0.070744
vt 0.347581 0.074066
vt 0.348203 0.047102
vt 0.374800 0.077624
vt 0.371572 0.100951
vt 0.351317 0.134499
vt 0.352308 0.115285
vt 0.295726 0.139070
vt 0.300167 0.155883
vt 0.246317 0.153696
vt 0.236030 0.136427
vt 0.206262 0.107966
vt 0.219748 0.128468
vt 0.237762 0.093787
vt 0.225987 0.068875
vt 0.331151 0.086986
vt 0.314227 0.100294
vt 0.323125 0.109732
vt 0.347891 0.105243
vt 0.334227 0.128371
vt 0.316115 0.121878
vt 0.297501 0.129721
vt 0.298875 0.143208
vt 0.261706 0.141595
vt 0.277957 0.128816
vt 0.268728 0.119591
vt 0.243753 0.124117
vt 0.256363 0.100456
vt 0.275451 0.107299
vt 0.294395 0.099243
vt 0.292928 0.084840
vt 0.720221 0.699221
vt 0.667920 0.677124
vt 0.634112 0.793965
vt 0.655158 0.850056
vt 0.563929 0.920368
vt 0.573483 0.842923
vt 0.500000 0.842923
vt 0.500000 0.935229
vt 0.761350 0.709023
vt 0.666684 0.896891
vt 0.565433 0.981266
vt 0.500000 0.986646
vt 0.279779 0.699221
vt 0.344842 0.850056
vt 0.365888 0.793965
vt 0.332080 0.677124
vt 0.436071 0.920368
vt 0.426517 0.842923
vt 0.238650 0.709023
vt 0.333316 0.896891
vt 0.434567 0.981266
vt 0.635838 0.725945
vt 0.567222 0.679371
vt 0.569369 0.787627
vt 0.500000 0.572152
vt 0.500000 0.679371
vt 0.576502 0.572152
vt 0.500000 0.788399
vt 0.619416 0.573070
vt 0.656211 0.578467
vt 0.364162 0.725945
vt 0.432778 0.679371
vt 0.430631 0.787627
vt 0.423498 0.572152
vt 0.380584 0.573070
vt 0.343789 0.578467
vt 0.719084 0.525397
vt 0.805975 0.541907
vt 0.866371 0.338241
vt 0.833110 0.340731
vt 0.853672 0.549490
vt 0.761846 0.340466
vt 0.916607 0.334117
vt 0.903593 0.558694
vt 0.809376 0.291969
vt 0.280916 0.525397
vt 0.194025 0.541907
vt 0.133629 0.338241
vt 0.146328 0.549490
vt 0.166890 0.340731
vt 0.238154 0.340466
vt 0.083393 0.334117
vt 0.096407 0.558694
vt 0.190625 0.291969
vt 0.594210 0.286777
vt 0.589918 0.309238
vt 0.643363 0.287607
vt 0.603357 0.223783
vt 0.649517 0.224572
vt 0.405790 0.286777
vt 0.356637 0.287607
vt 0.410082 0.309238
vt 0.396643 0.223783
vt 0.350483 0.224572
vt 0.500000 0.543445
vt 0.500000 0.555270
vt 0.504127 0.555270
vt 0.504278 0.543445
vt 0.511634 0.658233
vt 0.511712 0.763473
vt 0.508728 0.763273
vt 0.508669 0.657205
vt 0.504342 0.774948
vt 0.501300 0.774838
vt 0.500000 0.669129
vt 0.504186 0.669129
vt 0.504310 0.658343
vt 0.500000 0.658343
vt 0.501290 0.657316
vt 0.500000 0.657316
vt 0.500000 0.774948
vt 0.511338 0.670114
vt 0.511557 0.554385
vt 0.511186 0.566690
vt 0.831126 0.350362
vt 0.908423 0.355312
vt 0.909687 0.355089
vt 0.832239 0.350129
vt 0.821856 0.533734
vt 0.827049 0.441910
vt 0.826986 0.441757
vt 0.822288 0.524840
vt 0.825946 0.441959
vt 0.820764 0.533598
vt 0.888963 0.445733
vt 0.890189 0.445691
vt 0.831682 0.358709
vt 0.884133 0.445180
vt 0.901787 0.363171
vt 0.830017 0.350595
vt 0.907164 0.355534
vt 0.819676 0.533463
vt 0.817309 0.524306
vt 0.821965 0.441982
vt 0.824848 0.442008
vt 0.887741 0.445774
vt 0.826619 0.359694
vt 0.878603 0.445374
vt 0.896101 0.364113
vt 0.881050 0.346506
vt 0.962686 0.351244
vt 0.963681 0.351003
vt 0.881874 0.346255
vt 0.870948 0.535946
vt 0.876411 0.441099
vt 0.875896 0.440940
vt 0.870953 0.526764
vt 0.875598 0.441152
vt 0.870147 0.535801
vt 0.942083 0.444993
vt 0.943035 0.444949
vt 0.880839 0.355119
vt 0.936183 0.444424
vt 0.954866 0.359413
vt 0.880229 0.346755
vt 0.961695 0.351483
vt 0.869348 0.535656
vt 0.867303 0.526191
vt 0.872200 0.441182
vt 0.874789 0.441204
vt 0.941135 0.445038
vt 0.877096 0.356176
vt 0.931914 0.444633
vt 0.950420 0.360429
vt 0.500000 0.127029
vt 0.500000 0.051030
vt 0.571969 0.068031
vt 0.597324 0.143769
vt 0.597054 0.104819
vt 0.621832 0.182869
vt 0.565715 0.138626
vt 0.582904 0.219978
vt 0.500000 0.151073
vt 0.500000 0.235124
vt 0.676813 0.205963
vt 0.715082 0.035110
vt 0.784268 0.065107
vt 0.752295 0.245025
vt 0.806746 0.110308
vt 0.780965 0.217694
vt 0.772156 0.142946
vt 0.743455 0.247653
vt 0.703566 0.145881
vt 0.668643 0.240435
vt 0.638597 0.118627
vt 0.597355 0.201504
vt 0.612440 0.075326
vt 0.567556 0.150992
vt 0.642814 0.039949
vt 0.598617 0.191367
vt 0.500000 0.208002
vt 0.500000 0.218130
vt 0.503919 0.218130
vt 0.504079 0.208002
vt 0.504079 0.471031
vt 0.504079 0.339517
vt 0.512416 0.339418
vt 0.512416 0.458193
vt 0.500000 0.339517
vt 0.500000 0.471031
vt 0.500000 0.343596
vt 0.503948 0.343596
vt 0.512416 0.220643
vt 0.512054 0.343117
vt 0.511975 0.229375
vt 0.608732 0.217034
vt 0.759992 0.221338
vt 0.761355 0.220863
vt 0.609805 0.216549
vt 0.721906 0.290153
vt 0.723197 0.289811
vt 0.581681 0.356670
vt 0.581839 0.356457
vt 0.598102 0.285957
vt 0.709913 0.288967
vt 0.582048 0.349261
vt 0.607290 0.222679
vt 0.744459 0.226565
vt 0.607662 0.217517
vt 0.758634 0.221811
vt 0.720621 0.290494
vt 0.581522 0.356883
vt 0.648380 0.225618
vt 0.602421 0.224833
vt 0.642253 0.288378
vt 0.704152 0.290531
vt 0.581323 0.350297
vt 0.738397 0.228678
vt 0.589040 0.309915
vt 0.500000 0.774838
vt 0.508611 0.552551
vt 0.501281 0.541528
vt 0.500000 0.323774
vt 0.583321 0.309427
vt 0.622462 0.274736
vt 0.597843 0.238376
vt 0.500000 0.223014
vt 0.495722 0.543445
vt 0.495873 0.555270
vt 0.488366 0.658233
vt 0.491331 0.657205
vt 0.491272 0.763273
vt 0.488288 0.763473
vt 0.498700 0.774838
vt 0.495658 0.774948
vt 0.495814 0.669129
vt 0.495690 0.658343
vt 0.498710 0.657316
vt 0.488662 0.670114
vt 0.488443 0.554385
vt 0.488814 0.566690
vt 0.168874 0.350362
vt 0.167761 0.350129
vt 0.090313 0.355089
vt 0.091577 0.355312
vt 0.178144 0.533734
vt 0.177712 0.524840
vt 0.173014 0.441757
vt 0.172951 0.441910
vt 0.174054 0.441959
vt 0.179236 0.533598
vt 0.109811 0.445691
vt 0.111038 0.445733
vt 0.168318 0.358709
vt 0.115867 0.445180
vt 0.098213 0.363171
vt 0.092836 0.355534
vt 0.169983 0.350595
vt 0.180324 0.533463
vt 0.175152 0.442008
vt 0.178035 0.441982
vt 0.182691 0.524306
vt 0.112259 0.445774
vt 0.173381 0.359694
vt 0.121397 0.445374
vt 0.103899 0.364113
vt 0.118950 0.346506
vt 0.118126 0.346255
vt 0.036319 0.351003
vt 0.037314 0.351244
vt 0.129052 0.535946
vt 0.129047 0.526764
vt 0.124104 0.440940
vt 0.123589 0.441099
vt 0.124402 0.441152
vt 0.129853 0.535801
vt 0.056965 0.444949
vt 0.057918 0.444993
vt 0.119161 0.355119
vt 0.063817 0.444424
vt 0.045134 0.359413
vt 0.038305 0.351483
vt 0.119771 0.346755
vt 0.130652 0.535656
vt 0.125212 0.441204
vt 0.127800 0.441182
vt 0.132697 0.526191
vt 0.058865 0.445038
vt 0.122904 0.356176
vt 0.068086 0.444633
vt 0.049580 0.360429
vt 0.402676 0.143769
vt 0.428031 0.068031
vt 0.378168 0.182869
vt 0.402946 0.104819
vt 0.417096 0.219978
vt 0.434285 0.138626
vt 0.323187 0.205963
vt 0.247705 0.245025
vt 0.215732 0.065107
vt 0.284918 0.035110
vt 0.219035 0.217694
vt 0.193254 0.110308
vt 0.256545 0.247653
vt 0.227844 0.142946
vt 0.331357 0.240435
vt 0.296434 0.145881
vt 0.402645 0.201504
vt 0.361403 0.118627
vt 0.432444 0.150992
vt 0.387560 0.075326
vt 0.357186 0.039949
vt 0.401383 0.191367
vt 0.495921 0.208002
vt 0.496081 0.218130
vt 0.495921 0.471031
vt 0.487584 0.458193
vt 0.487584 0.339418
vt 0.495921 0.339517
vt 0.496052 0.343596
vt 0.487584 0.220643
vt 0.487946 0.343117
vt 0.488025 0.229375
vt 0.391268 0.217034
vt 0.390195 0.216549
vt 0.238645 0.220863
vt 0.240008 0.221338
vt 0.276803 0.289811
vt 0.278094 0.290153
vt 0.418161 0.356457
vt 0.418319 0.356670
vt 0.401898 0.285957
vt 0.417952 0.349261
vt 0.290087 0.288967
vt 0.392710 0.222679
vt 0.255541 0.226565
vt 0.241366 0.221811
vt 0.392338 0.217517
vt 0.279379 0.290494
vt 0.418478 0.356883
vt 0.351620 0.225618
vt 0.397579 0.224833
vt 0.357747 0.288378
vt 0.418677 0.350297
vt 0.295848 0.290531
vt 0.261603 0.228678
vt 0.410960 0.309915
vt 0.491388 0.552551
vt 0.498719 0.541528
vt 0.416679 0.309427
vt 0.402157 0.238376
vt 0.377538 0.274736
vt 0.613977 0.508357
vt 0.610382 0.513870
vt 0.605454 0.504146
vt 0.602041 0.485041
vt 0.602079 0.467489
vt 0.605582 0.461610
vt 0.610563 0.471102
vt 0.614069 0.490573
vt 0.627628 0.498409
vt 0.627720 0.487558
vt 0.625564 0.475698
vt 0.622448 0.469875
vt 0.620212 0.473437
vt 0.620141 0.484202
vt 0.622262 0.495925
vt 0.625357 0.501834
vt 0.386023 0.508357
vt 0.385932 0.490573
vt 0.389437 0.471102
vt 0.394418 0.461610
vt 0.397921 0.467489
vt 0.397959 0.485041
vt 0.394546 0.504146
vt 0.389618 0.513870
vt 0.372372 0.498409
vt 0.374643 0.501834
vt 0.377738 0.495925
vt 0.379859 0.484202
vt 0.379788 0.473437
vt 0.377552 0.469875
vt 0.374436 0.475698
vt 0.372280 0.487558
vn 0.1886 0.5859 -0.7881
vn 0.0710 0.6067 -0.7917
vn 0.4034 -0.7944 -0.4541
vn 0.7578 0.4152 -0.5033
vn 0.2029 -0.6306 -0.7492
vn 0.1115 0.1089 -0.9878
vn 0.6557 -0.0625 0.7524
vn 0.0611 -0.4717 -0.8797
vn 0.0735 -0.2460 -0.9665
vn 0.5787 -0.1928 0.7924
vn 0.9811 -0.1857 0.0536
vn 0.9265 -0.0214 0.3758
vn 0.7372 -0.2035 -0.6443
vn 0.2107 -0.2234 -0.9517
vn 0.0925 -0.2650 0.9598
vn 0.0000 -1.0000 0.0027
vn 0.0000 -1.0000 0.0014
vn 0.0016 -1.0000 0.0019
vn 0.0029 -1.0000 0.0026
vn 0.0039 -1.0000 0.0040
vn 0.0035 -1.0000 0.0025
vn 0.0026 -1.0000 0.0045
vn 0.0042 -1.0000 0.0045
vn 0.0020 -1.0000 -0.0051
vn 0.0047 -1.0000 -0.0042
vn 0.0000 -1.0000 -0.0000
vn 0.0006 -1.0000 0.0006
vn 0.0000 -1.0000 -0.0018
vn 0.0001 -1.0000 -0.0019
vn 0.1699 0.9852 0.0230
vn 0.9929 0.0314 0.1150
vn 0.9720 0.1518 -0.1793
vn 0.7020 -0.0806 -0.7076
vn 0.0675 -0.4046 -0.9120
vn 0.2625 -0.3211 -0.9100
vn 0.2553 0.9663 0.0339
vn 0.1707 0.9853 0.0085
vn 0.0040 -1.0000 -0.0045
vn 0.0046 -1.0000 -0.0045
vn 0.0000 -1.0000 -0.0037
vn 0.0003 -1.0000 -0.0039
vn 0.5774 -0.1785 -0.7967
vn -0.0396 -0.0061 0.9992
vn 0.1813 0.9833 -0.0126
vn 0.2565 0.9658 0.0383
vn 0.2875 0.9578 0.0000
vn 0.9931 -0.1176 0.0000
vn 0.2537 0.9667 0.0336
vn 0.1618 0.9868 0.0051
vn 0.2545 0.9671 -0.0000
vn -0.9758 0.1176 -0.1842
vn 0.2280 0.9737 0.0000
vn 0.1603 0.9868 0.0236
vn 0.1552 0.9878 -0.0113
vn 0.1244 0.9922 0.0113
vn 0.1174 0.9930 0.0107
vn 0.1111 0.9938 0.0101
vn -0.0570 -0.0040 0.9984
vn -0.0727 -0.0022 0.9974
vn 0.0200 0.0084 -0.9998
vn 0.0396 0.0061 -0.9992
vn 0.0570 0.0040 -0.9984
vn -0.3351 -0.6975 -0.6334
vn -0.8820 0.4540 -0.1265
vn -0.8623 -0.2430 -0.4443
vn -0.3559 0.9278 0.1116
vn 0.0116 0.3963 -0.9180
vn 0.0115 0.3964 -0.9180
vn 0.0116 0.3963 -0.9181
vn 0.0114 0.3963 -0.9181
vn 0.0113 0.3962 -0.9181
vn 0.0114 0.3962 -0.9181
vn 0.0117 0.3962 -0.9181
vn 0.0116 0.3962 -0.9181
vn 0.4199 0.9061 -0.0507
vn 0.1331 0.9902 -0.0411
vn 0.4469 0.8785 0.1689
vn 0.9165 -0.3214 -0.2384
vn -0.3129 -0.6475 -0.6948
vn -0.7825 0.5523 -0.2876
vn 0.9363 0.3461 0.0598
vn 0.3990 -0.7330 -0.5509
vn -0.8023 -0.1151 -0.5857
vn -0.2650 0.9639 0.0250
vn 0.2272 0.3916 -0.8917
vn -0.1886 0.5859 -0.7881
vn -0.0710 0.6067 -0.7917
vn -0.4034 -0.7944 -0.4541
vn -0.7578 0.4152 -0.5033
vn -0.2029 -0.6306 -0.7492
vn -0.1115 0.1089 -0.9878
vn -0.6557 -0.0625 0.7524
vn -0.0611 -0.4717 -0.8797
vn -0.0735 -0.2460 -0.9665
vn -0.5787 -0.1928 0.7924
vn -0.9811 -0.1857 0.0536
vn -0.9265 -0.0214 0.3758
vn -0.7372 -0.2035 -0.6443
vn -0.2107 -0.2234 -0.9517
vn -0.0925 -0.2650 0.9598
vn -0.0029 -1.0000 0.0026
vn -0.0016 -1.0000 0.0019
vn -0.0035 -1.0000 0.0025
vn -0.0039 -1.0000 0.0040
vn -0.0042 -1.0000 0.0045
vn -0.0026 -1.0000 0.0044
vn -0.0047 -1.0000 -0.0042
vn -0.0020 -1.0000 -0.0051
vn -0.0006 -1.0000 0.0006
vn -0.0001 -1.0000 -0.0019
vn -0.1699 0.9852 0.0230
vn -0.9929 0.0314 0.1150
vn -0.9720 0.1518 -0.1793
vn -0.7020 -0.0806 -0.7076
vn -0.0675 -0.4046 -0.9120
vn -0.2625 -0.3211 -0.9100
vn -0.2553 0.9663 0.0339
vn -0.1707 0.9853 0.0085
vn -0.0046 -1.0000 -0.0045
vn -0.0040 -1.0000 -0.0045
vn -0.0003 -1.0000 -0.0039
vn -0.5774 -0.1785 -0.7967
vn 0.0396 -0.0061 0.9992
vn -0.1813 0.9833 -0.0126
vn -0.2565 0.9658 0.0383
vn -0.2875 0.9578 0.0000
vn -0.9931 -0.1176 0.0000
vn -0.2537 0.9667 0.0336
vn -0.1618 0.9868 0.0051
vn -0.2545 0.9671 -0.0000
vn 0.9758 0.1176 -0.1842
vn -0.2280 0.9737 0.0000
vn -0.1603 0.9868 0.0236
vn -0.1552 0.9878 -0.0113
vn -0.1244 0.9922 0.0113
vn -0.1174 0.9930 0.0107
vn -0.1111 0.9938 0.0101
vn 0.0570 -0.0040 0.9984
vn 0.0727 -0.0022 0.9974
vn -0.0200 0.0084 -0.9998
vn -0.0396 0.0061 -0.9992
vn -0.0570 0.0040 -0.9984
vn 0.3351 -0.6975 -0.6334
vn 0.8820 0.4540 -0.1265
vn 0.8623 -0.2430 -0.4443
vn 0.3559 0.9278 0.1116
vn -0.0116 0.3963 -0.9180
vn -0.0115 0.3964 -0.9180
vn -0.0114 0.3963 -0.9181
vn -0.0114 0.3962 -0.9181
vn -0.0113 0.3962 -0.9181
vn -0.0117 0.3962 -0.9181
vn -0.0116 0.3962 -0.9181
vn -0.4199 0.9061 -0.0507
vn -0.1331 0.9902 -0.0411
vn -0.4469 0.8785 0.1689
vn -0.9165 -0.3214 -0.2384
vn 0.3129 -0.6475 -0.6948
vn 0.7825 0.5523 -0.2876
vn -0.9363 0.3461 0.0598
vn -0.3990 -0.7330 -0.5509
vn 0.8023 -0.1151 -0.5857
vn 0.2650 0.9639 0.0250
vn -0.2272 0.3916 -0.8917
vn 0.5742 0.7469 0.3354
vn 0.0519 0.8731 0.4847
vn 0.4200 0.7645 0.4890
vn 0.6066 -0.7467 0.2729
vn 0.0336 -0.9083 0.4170
vn 0.3783 -0.8022 0.4619
vn 0.5206 0.5617 0.6430
vn 0.1204 0.6330 0.7648
vn 0.8105 0.4159 0.4125
vn -0.5742 0.7469 0.3354
vn -0.0519 0.8731 0.4847
vn -0.4200 0.7645 0.4890
vn -0.6066 -0.7467 0.2729
vn -0.0336 -0.9083 0.4170
vn -0.3783 -0.8022 0.4619
vn -0.5206 0.5617 0.6430
vn -0.1204 0.6330 0.7648
vn -0.8105 0.4159 0.4125
vn 0.9418 0.1178 0.3148
vn 0.3695 0.8171 0.4425
vn 0.0000 0.9969 0.0784
vn 0.6150 0.3705 0.6961
vn -0.0000 0.8770 0.4804
vn -0.0054 0.8770 0.4804
vn 0.5022 0.8506 0.1557
vn 0.9475 0.3166 -0.0447
vn -0.0000 0.4523 0.8919
vn -0.9418 0.1178 0.3148
vn -0.3695 0.8171 0.4425
vn -0.6150 0.3705 0.6961
vn 0.0054 0.8770 0.4804
vn -0.5022 0.8506 0.1557
vn -0.9475 0.3166 -0.0447
vn 0.0000 1.0000 -0.0000
vn -0.0169 0.9998 -0.0048
vn -0.0167 0.9998 -0.0056
vn -0.0167 0.9998 -0.0053
vn 0.7882 0.6107 0.0759
vn -0.0173 0.9998 -0.0039
vn -0.0024 1.0000 -0.0023
vn 0.5284 0.6780 0.5110
vn 0.8795 0.4730 0.0519
vn 0.6784 0.3912 0.6218
vn 0.8195 0.3872 -0.4225
vn -0.0060 1.0000 -0.0059
vn -0.0073 0.9999 -0.0072
vn 0.7826 0.4982 -0.3733
vn 0.7541 0.5251 -0.3945
vn 0.0169 0.9998 -0.0048
vn 0.0167 0.9998 -0.0053
vn 0.0167 0.9998 -0.0056
vn -0.7882 0.6107 0.0759
vn -0.0010 1.0000 -0.0025
vn 0.0080 0.9999 -0.0070
vn -0.5284 0.6780 0.5110
vn -0.8795 0.4730 0.0519
vn -0.6784 0.3912 0.6218
vn -0.8195 0.3872 -0.4225
vn 0.0060 1.0000 -0.0059
vn 0.0073 0.9999 -0.0072
vn -0.7826 0.4982 -0.3733
vn -0.7541 0.5251 -0.3945
vn 0.9391 0.2467 -0.2394
vn 0.2047 0.9788 -0.0067
vn 0.0251 0.9971 -0.0719
vn 0.4172 0.9045 -0.0886
vn 0.9938 0.0499 -0.0989
vn -0.0309 0.9995 0.0017
vn -0.0311 0.9995 0.0012
vn -0.0306 0.9995 0.0023
vn -0.9391 0.2467 -0.2394
vn -0.2047 0.9788 -0.0067
vn -0.0251 0.9971 -0.0719
vn -0.4172 0.9045 -0.0886
vn -0.9938 0.0499 -0.0989
vn 0.0309 0.9995 0.0017
vn 0.0311 0.9995 0.0012
vn 0.0306 0.9995 0.0023
vn 0.4294 -0.7825 0.4509
vn 0.5369 -0.8431 0.0304
vn 0.0000 0.1809 -0.9835
vn 0.9856 -0.1675 -0.0241
vn 0.8195 -0.2185 0.5298
vn 0.0000 0.9619 0.2733
vn 0.0000 -0.9898 -0.1427
vn 0.0000 0.1427 -0.9898
vn 0.0000 0.7630 0.6464
vn 1.0000 -0.0000 0.0000
vn 0.7165 0.5319 0.4513
vn 0.8610 0.0981 -0.4990
vn 0.7628 0.6208 0.1807
vn 0.0573 0.0057 -0.9983
vn -0.9863 0.1555 -0.0557
vn -0.9863 0.1554 -0.0557
vn -0.9935 -0.0985 -0.0576
vn 0.9719 0.0964 0.2149
vn 0.7797 0.0773 0.6214
vn 0.0987 -0.9951 0.0000
vn 0.5976 -0.6842 0.4181
vn 0.1140 -0.8317 -0.5435
vn 0.6637 -0.7368 0.1293
vn -0.9365 -0.3461 -0.0557
vn -0.0987 0.9951 -0.0000
vn 0.4516 0.7882 0.4181
vn -0.0516 0.8379 -0.5435
vn 0.5060 0.8528 0.1293
vn 0.0576 0.0003 -0.9983
vn -0.9676 0.2463 -0.0557
vn -0.9983 -0.0060 -0.0576
vn -0.9983 -0.0059 -0.0576
vn 0.9766 0.0059 0.2149
vn 0.9766 0.0058 0.2149
vn 0.7835 0.0047 0.6214
vn 0.0060 -1.0000 0.0000
vn 0.5316 -0.7366 0.4181
vn 0.0363 -0.8386 -0.5435
vn 0.5925 -0.7952 0.1293
vn -0.9646 -0.2578 -0.0557
vn -0.0060 1.0000 0.0000
vn 0.5228 0.7429 0.4181
vn 0.0263 0.8390 -0.5435
vn 0.5829 0.8022 0.1293
vn 0.4120 -0.8574 -0.3083
vn 0.3479 -0.7658 -0.5408
vn 0.9019 -0.2232 -0.3698
vn 0.8839 0.4676 0.0081
vn 0.3193 0.8862 0.3356
vn 0.3313 -0.9309 -0.1539
vn 0.8480 -0.5298 0.0164
vn 0.8974 0.2212 0.3817
vn 0.3891 0.7849 0.4821
vn -0.3334 0.9077 0.2547
vn -0.8367 0.5191 -0.1746
vn -0.7815 -0.4237 -0.4579
vn -0.4085 -0.8517 -0.3282
vn -0.3315 -0.0004 0.9434
vn 0.0000 0.0000 -1.0000
vn -0.2047 -0.9788 0.0000
vn 0.0000 0.9918 0.1277
vn 0.0000 0.8708 0.4917
vn 0.6848 0.6346 0.3583
vn 0.8389 0.0000 -0.5444
vn 0.7307 0.6771 0.0872
vn 0.0226 0.0045 -0.9997
vn 0.8596 0.1706 0.4817
vn 0.4266 0.0423 0.9034
vn 0.4276 0.0424 0.9030
vn 0.0495 -0.9988 0.0003
vn 0.0494 -0.9988 0.0041
vn 0.0494 -0.9988 0.0053
vn 0.0495 -0.9988 0.0000
vn 0.3192 -0.7318 0.6022
vn 0.0527 -0.7694 -0.6366
vn 0.4022 -0.8937 0.1986
vn 0.4287 0.0425 0.9024
vn -0.0138 0.0004 0.9999
vn -0.9940 -0.0493 -0.0976
vn 0.2415 0.7802 0.5771
vn -0.0250 0.7878 -0.6155
vn 0.2796 0.9429 0.1811
vn -0.0524 0.9984 -0.0197
vn -0.0611 0.9981 -0.0038
vn -0.3759 -0.0197 -0.9264
vn 0.0000 -0.1427 0.9898
vn -0.9856 0.1675 0.0241
vn 0.8195 -0.0600 -0.5700
vn 0.2713 0.9552 0.1183
vn 0.9345 -0.3534 -0.0437
vn 0.3397 -0.9334 -0.1156
vn 0.8812 0.4692 0.0581
vn -0.4294 -0.7825 0.4509
vn -0.5369 -0.8431 0.0304
vn -0.9856 -0.1675 -0.0241
vn -0.8195 -0.2185 0.5298
vn -1.0000 0.0000 0.0000
vn -0.7165 0.5319 0.4513
vn -0.8610 0.0981 -0.4990
vn -0.7628 0.6208 0.1807
vn -0.0573 0.0057 -0.9983
vn 0.9863 0.1555 -0.0557
vn 0.9863 0.1554 -0.0557
vn 0.9935 -0.0985 -0.0576
vn -0.9719 0.0964 0.2149
vn -0.7797 0.0773 0.6214
vn -0.0987 -0.9951 0.0000
vn -0.5976 -0.6842 0.4181
vn -0.1140 -0.8317 -0.5435
vn -0.6637 -0.7368 0.1293
vn 0.9365 -0.3461 -0.0557
vn 0.0987 0.9951 -0.0000
vn -0.4516 0.7882 0.4181
vn 0.0516 0.8379 -0.5435
vn -0.5060 0.8528 0.1293
vn -0.0576 0.0003 -0.9983
vn 0.9676 0.2463 -0.0557
vn 0.9983 -0.0060 -0.0576
vn 0.9983 -0.0059 -0.0576
vn -0.9766 0.0059 0.2149
vn -0.9766 0.0058 0.2149
vn -0.7835 0.0047 0.6214
vn -0.0060 -1.0000 0.0000
vn -0.5316 -0.7366 0.4181
vn -0.0363 -0.8386 -0.5435
vn -0.5925 -0.7952 0.1293
vn 0.9646 -0.2577 -0.0557
vn 0.9646 -0.2578 -0.0557
vn 0.0060 1.0000 0.0000
vn -0.5228 0.7429 0.4181
vn -0.0263 0.8390 -0.5435
vn -0.5829 0.8022 0.1293
vn -0.4120 -0.8574 -0.3083
vn -0.3479 -0.7658 -0.5408
vn -0.9019 -0.2232 -0.3698
vn -0.8839 0.4676 0.0081
vn -0.3193 0.8862 0.3356
vn -0.3313 -0.9309 -0.1539
vn -0.8480 -0.5298 0.0164
vn -0.8974 0.2212 0.3817
vn -0.3891 0.7849 0.4821
vn 0.3334 0.9077 0.2547
vn 0.8367 0.5191 -0.1746
vn 0.7815 -0.4237 -0.4579
vn 0.4085 -0.8517 -0.3282
vn 0.3315 -0.0004 0.9434
vn 0.2047 -0.9788 0.0000
vn -0.6848 0.6346 0.3583
vn -0.8389 0.0000 -0.5444
vn -0.7307 0.6771 0.0872
vn -0.0226 0.0045 -0.9997
vn -0.8596 0.1706 0.4817
vn -0.4266 0.0423 0.9034
vn -0.4276 0.0424 0.9030
vn -0.0495 -0.9988 0.0003
vn -0.0494 -0.9988 0.0053
vn -0.0494 -0.9988 0.0041
vn -0.0495 -0.9988 -0.0000
vn -0.3192 -0.7318 0.6022
vn -0.0527 -0.7694 -0.6366
vn -0.4022 -0.8937 0.1986
vn -0.4287 0.0425 0.9024
vn 0.0138 0.0004 0.9999
vn 0.9940 -0.0493 -0.0976
vn -0.2415 0.7802 0.5771
vn 0.0250 0.7878 -0.6155
vn -0.2796 0.9429 0.1811
vn 0.0524 0.9984 -0.0197
vn 0.0611 0.9981 -0.0038
vn 0.3759 -0.0197 -0.9264
vn 0.9856 0.1675 0.0241
vn -0.8195 -0.0600 -0.5700
vn -0.2713 0.9552 0.1183
vn -0.9345 -0.3534 -0.0437
vn -0.3397 -0.9334 -0.1156
vn -0.8812 0.4692 0.0581
vn -0.9790 -0.1688 0.1147
vn 0.9790 0.1688 -0.1147
vn 0.3528 0.3178 -0.8801
vn 0.3773 0.9055 0.1942
vn 0.6261 -0.1490 0.7654
vn 0.4721 -0.3312 -0.8170
vn 0.3135 0.8300 -0.4612
vn 0.5068 0.5000 0.7023
vn 0.6653 -0.6612 0.3465
vn 0.6016 -0.7367 -0.3089
vn 0.9790 -0.1688 0.1147
vn -0.9789 0.1688 -0.1147
vn -0.3528 0.3178 -0.8801
vn -0.3773 0.9055 0.1942
vn -0.6261 -0.1490 0.7654
vn -0.4721 -0.3312 -0.8170
vn -0.3135 0.8300 -0.4612
vn -0.5068 0.5000 0.7023
vn -0.6653 -0.6612 0.3465
vn -0.6016 -0.7367 -0.3089
usemtl Black
s 1
f 1/1/1 2/2/1 3/3/1 4/4/1
f 5/5/2 6/6/2 2/2/2 1/1/2
f 7/7/3 8/8/3 9/9/3 10/10/3
f 4/4/4 3/3/4 11/11/4
f 12/12/5 7/7/5 10/10/5 13/13/5
f 2/2/6 6/6/6 14/14/6 15/15/6
f 16/16/7 17/17/7 18/18/7 19/19/7
f 20/20/8 12/12/8 13/13/8 21/21/8
f 21/21/9 13/13/9 22/22/9 23/23/9
f 24/24/10 25/25/10 26/26/10 27/27/10
f 28/28/11 19/19/11 18/18/11 29/29/11
f 16/16/12 24/24/12 27/27/12 17/17/12
f 10/10/13 9/9/13 30/30/13 31/31/13
f 13/13/14 10/10/14 31/31/14 22/22/14
f 25/25/15 32/32/15 33/33/15 26/26/15
f 33/33/16 34/34/17 35/35/18 26/26/19
f 26/26/19 35/35/18 17/17/20 27/27/21
f 17/17/20 36/36/22 18/18/23
f 36/36/22 37/37/24 29/29/25 18/18/23
f 34/34/17 38/38/26 39/39/27 35/35/18
f 38/38/26 40/40/28 41/41/29 39/39/27
f 35/35/18 39/39/27 36/36/22 17/17/20
f 39/39/27 41/41/29 37/37/24 36/36/22
f 42/42/30 43/43/30 44/44/30 45/45/30
f 42/42/31 46/46/31 47/47/31 2/2/31 15/15/31 48/48/31
f 49/49/32 50/50/32 51/51/32 52/52/32
f 7/7/33 4/4/33 11/11/33 8/8/33
f 20/20/34 5/5/34 1/1/34 12/12/34
f 12/12/35 1/1/35 4/4/35 7/7/35
f 48/48/36 15/15/36 53/53/36 54/54/36
f 43/43/37 42/42/37 55/55/37 56/56/37
f 37/37/24 31/31/38 30/30/39 29/29/25
f 40/40/28 23/23/40 22/22/41 41/41/29
f 9/9/42 28/28/42 29/29/42 30/30/42
f 41/41/29 22/22/41 31/31/38 37/37/24
f 45/45/43 44/44/43 57/57/43 58/58/43
f 59/59/44 46/46/44 60/60/44 61/61/44
f 46/46/45 42/42/45 45/45/45 60/60/45
f 43/43/46 59/59/46 61/61/46 44/44/46
f 62/62/47 63/63/47 64/64/47 65/65/47
f 42/42/48 48/48/48 66/66/48 55/55/48
f 48/48/49 67/67/49 68/68/49 66/66/49
f 67/67/50 43/43/50 56/56/50 68/68/50
f 55/55/51 66/66/51 69/69/51 70/70/51
f 14/14/52 67/67/52 63/63/52 62/62/52
f 67/67/53 48/48/53 54/54/53 63/63/53
f 15/15/54 14/14/54 62/62/54 53/53/54
f 57/57/55 71/71/55 72/72/55 58/58/55
f 73/73/56 74/74/56 70/70/56 69/69/56
f 65/65/57 64/64/57 75/75/57 76/76/57
f 66/66/58 68/68/58 73/73/58 69/69/58
f 53/53/59 62/62/59 65/65/59 76/76/59
f 61/61/60 60/60/60 72/72/60 71/71/60
f 56/56/61 55/55/61 70/70/61 74/74/61
f 54/54/51 53/53/51 76/76/51 75/75/51
f 44/44/47 61/61/47 71/71/47 57/57/47
f 68/68/47 56/56/47 74/74/47 73/73/47
f 63/63/62 54/54/62 75/75/62 64/64/62
f 60/60/51 45/45/51 58/58/51 72/72/51
f 77/77/63 78/78/63 79/79/63 80/80/63
f 81/81/64 82/82/64 83/83/64 84/84/64
f 78/78/65 81/81/65 84/84/65 79/79/65
f 82/82/66 85/85/66 86/86/66 83/83/66
f 87/87/67 88/88/68 89/89/68 90/90/69
f 91/91/70 92/92/71 93/93/72 94/94/70
f 95/95/73 87/87/67 90/90/69 96/96/74
f 88/88/68 91/91/70 94/94/70 89/89/68
f 52/52/75 97/97/75 49/49/75
f 52/52/76 98/98/76 99/99/76 97/97/76
f 100/100/77 101/101/77 102/102/77 103/103/77
f 104/104/78 105/105/78 106/106/78 107/107/78
f 108/108/79 109/109/79 110/110/79 111/111/79
f 112/112/80 113/113/80 114/114/80 115/115/80
f 101/101/81 104/104/81 107/107/81 102/102/81
f 105/105/82 108/108/82 111/111/82 106/106/82
f 109/109/83 112/112/83 115/115/83 110/110/83
f 113/113/84 100/100/84 103/103/84 114/114/84
f 116/116/85 117/117/85 118/118/85 119/119/85
f 120/120/85 121/121/85 122/122/85 123/123/85
f 124/124/85 125/125/85 126/126/85 127/127/85
f 128/128/85 129/129/85 130/130/85 131/131/85
f 129/129/85 116/116/85 119/119/85 130/130/85
f 117/117/85 120/120/85 123/123/85 118/118/85
f 121/121/85 124/124/85 127/127/85 122/122/85
f 125/125/85 128/128/85 131/131/85 126/126/85
f 132/132/86 133/133/86 134/134/86 135/135/86
f 5/5/87 132/132/87 135/135/87 6/6/87
f 136/136/88 137/137/88 138/138/88 139/139/88
f 133/133/89 140/140/89 134/134/89
f 141/141/90 142/142/90 137/137/90 136/136/90
f 135/135/91 143/143/91 14/14/91 6/6/91
f 144/144/92 145/145/92 146/146/92 147/147/92
f 20/20/93 21/21/93 142/142/93 141/141/93
f 21/21/94 23/23/94 148/148/94 142/142/94
f 149/149/95 150/150/95 151/151/95 152/152/95
f 153/153/96 154/154/96 146/146/96 145/145/96
f 144/144/97 147/147/97 150/150/97 149/149/97
f 137/137/98 155/155/98 156/156/98 138/138/98
f 142/142/99 148/148/99 155/155/99 137/137/99
f 152/152/100 151/151/100 33/33/100 32/32/100
f 33/33/16 151/151/101 157/157/102 34/34/17
f 151/151/101 150/150/103 147/147/104 157/157/102
f 147/147/104 146/146/105 158/158/106
f 158/158/106 146/146/105 154/154/107 159/159/108
f 34/34/17 157/157/102 160/160/109 38/38/26
f 38/38/26 160/160/109 161/161/110 40/40/28
f 157/157/102 147/147/104 158/158/106 160/160/109
f 160/160/109 158/158/106 159/159/108 161/161/110
f 162/162/111 163/163/111 164/164/111 43/43/111
f 162/162/112 165/165/112 143/143/112 135/135/112 166/166/112 167/167/112
f 168/168/113 169/169/113 170/170/113 171/171/113
f 136/136/114 139/139/114 140/140/114 133/133/114
f 20/20/115 141/141/115 132/132/115 5/5/115
f 141/141/116 136/136/116 133/133/116 132/132/116
f 165/165/117 172/172/117 173/173/117 143/143/117
f 43/43/118 174/174/118 175/175/118 162/162/118
f 159/159/108 154/154/107 156/156/119 155/155/120
f 40/40/28 161/161/110 148/148/121 23/23/40
f 138/138/122 156/156/122 154/154/122 153/153/122
f 161/161/110 159/159/108 155/155/120 148/148/121
f 163/163/123 176/176/123 177/177/123 164/164/123
f 59/59/124 178/178/124 179/179/124 167/167/124
f 167/167/125 179/179/125 163/163/125 162/162/125
f 43/43/126 164/164/126 178/178/126 59/59/126
f 180/180/127 181/181/127 182/182/127 183/183/127
f 162/162/128 175/175/128 184/184/128 165/165/128
f 165/165/129 184/184/129 185/185/129 67/67/129
f 67/67/130 185/185/130 174/174/130 43/43/130
f 175/175/131 186/186/131 187/187/131 184/184/131
f 14/14/132 180/180/132 183/183/132 67/67/132
f 67/67/133 183/183/133 172/172/133 165/165/133
f 143/143/134 173/173/134 180/180/134 14/14/134
f 177/177/135 176/176/135 188/188/135 189/189/135
f 190/190/136 187/187/136 186/186/136 191/191/136
f 181/181/137 192/192/137 193/193/137 182/182/137
f 184/184/138 187/187/138 190/190/138 185/185/138
f 173/173/139 192/192/139 181/181/139 180/180/139
f 178/178/140 189/189/140 188/188/140 179/179/140
f 174/174/141 191/191/141 186/186/141 175/175/141
f 172/172/131 193/193/131 192/192/131 173/173/131
f 164/164/127 177/177/127 189/189/127 178/178/127
f 185/185/127 190/190/127 191/191/127 174/174/127
f 183/183/142 182/182/142 193/193/142 172/172/142
f 179/179/131 188/188/131 176/176/131 163/163/131
f 77/77/143 80/80/143 194/194/143 195/195/143
f 196/196/144 197/197/144 198/198/144 199/199/144
f 195/195/145 194/194/145 197/197/145 196/196/145
f 199/199/146 198/198/146 86/86/146 85/85/146
f 200/200/147 201/201/147 202/202/148 203/203/148
f 204/204/149 205/205/149 93/93/150 92/92/151
f 95/95/152 96/96/153 201/201/147 200/200/147
f 203/203/148 202/202/148 205/205/149 204/204/149
f 169/169/154 168/168/154 206/206/154
f 169/169/155 206/206/155 99/99/155 98/98/155
f 207/207/156 208/208/156 209/209/156 210/210/156
f 211/211/157 212/212/157 213/213/157 214/214/157
f 215/215/158 216/216/158 217/217/158 218/218/158
f 219/219/159 220/220/159 221/221/159 222/222/159
f 210/210/160 209/209/160 212/212/160 211/211/160
f 214/214/161 213/213/161 216/216/161 215/215/161
f 218/218/162 217/217/162 220/220/162 219/219/162
f 222/222/163 221/221/163 208/208/163 207/207/163
f 223/223/164 224/224/164 225/225/164 226/226/164
f 227/227/164 228/228/164 229/229/164 230/230/164
f 231/231/164 232/232/164 233/233/164 234/234/164
f 235/235/164 236/236/164 237/237/164 238/238/164
f 238/238/164 237/237/164 224/224/164 223/223/164
f 226/226/164 225/225/164 228/228/164 227/227/164
f 230/230/164 229/229/164 232/232/164 231/231/164
f 234/234/164 233/233/164 236/236/164 235/235/164
usemtl Beige
f 239/239/165 240/240/165 241/241/165 242/242/165
f 243/243/166 244/244/166 245/245/166 246/246/166
f 242/242/167 241/241/167 244/244/167 243/243/167
f 247/247/168 248/248/168 24/24/168 16/16/168
f 249/249/169 250/250/169 32/32/169 25/25/169
f 248/248/170 249/249/170 25/25/170 24/24/170
f 248/248/171 242/242/171 243/243/171 249/249/171
f 249/249/172 243/243/172 246/246/172 250/250/172
f 247/247/173 239/239/173 242/242/173 248/248/173
f 251/251/174 252/252/174 253/253/174 254/254/174
f 255/255/175 246/246/175 245/245/175 256/256/175
f 252/252/176 255/255/176 256/256/176 253/253/176
f 257/257/177 144/144/177 149/149/177 258/258/177
f 259/259/178 152/152/178 32/32/178 250/250/178
f 258/258/179 149/149/179 152/152/179 259/259/179
f 258/258/180 259/259/180 255/255/180 252/252/180
f 259/259/181 250/250/181 246/246/181 255/255/181
f 257/257/182 258/258/182 252/252/182 251/251/182
usemtl Glass
f 241/241/183 240/240/183 260/260/183
f 261/261/184 262/262/184 260/260/184
f 263/263/185 264/264/185 261/261/185 265/265/185
f 244/244/186 241/241/186 260/260/186 262/262/186
f 264/264/187 266/266/187 262/262/188 261/261/188
f 265/265/189 261/261/189 260/260/189 267/267/189
f 240/240/190 268/268/190 267/267/190 260/260/190
f 262/262/191 266/266/191 245/245/191 244/244/191
f 253/253/192 269/269/192 254/254/192
f 270/270/193 269/269/193 271/271/193
f 263/263/185 272/272/185 270/270/185 264/264/185
f 256/256/194 271/271/194 269/269/194 253/253/194
f 264/264/187 270/270/195 271/271/195 266/266/187
f 272/272/196 273/273/196 269/269/196 270/270/196
f 254/254/197 269/269/197 273/273/197 274/274/197
f 271/271/191 256/256/191 245/245/191 266/266/191
usemtl Red
f 268/268/198 240/240/198 275/275/198
f 275/275/199 240/240/200 276/276/201
f 277/277/202 278/278/202 276/276/202 279/279/202
f 280/280/203 275/275/199 276/276/201 278/278/203
f 47/47/198 275/275/198 280/280/204
f 240/240/205 239/239/205 279/279/205 276/276/205
f 275/275/198 47/47/198 51/51/198 50/50/198 268/268/198
f 281/281/206 277/277/206 279/279/206 282/282/206
f 282/282/207 279/279/207 239/239/207 247/247/207
f 11/11/208 277/277/208 281/281/208 8/8/208
f 2/2/198 47/47/198 280/280/204 3/3/209
f 3/3/209 280/280/204 278/278/210 283/283/210
f 283/283/211 278/278/211 277/277/211 11/11/211
f 11/11/212 3/3/212 283/283/212
f 274/274/198 284/284/198 254/254/198
f 284/284/213 285/285/214 254/254/215
f 286/286/216 287/287/216 285/285/216 288/288/216
f 289/289/217 288/288/218 285/285/214 284/284/213
f 166/166/198 289/289/217 284/284/198
f 254/254/219 285/285/219 287/287/219 251/251/219
f 284/284/198 274/274/198 171/171/198 170/170/198 166/166/198
f 290/290/220 291/291/220 287/287/220 286/286/220
f 291/291/221 257/257/221 251/251/221 287/287/221
f 140/140/222 139/139/222 290/290/222 286/286/222
f 135/135/198 134/134/223 289/289/217 166/166/198
f 134/134/223 292/292/224 288/288/218 289/289/217
f 292/292/225 140/140/225 286/286/225 288/288/225
f 140/140/226 292/292/226 134/134/226
usemtl Grey
f 268/268/227 50/50/227 49/49/227 267/267/227
f 59/59/228 98/98/228 52/52/228 46/46/228
f 97/97/229 99/99/229 263/263/229 265/265/229
f 49/49/230 97/97/230 265/265/230 267/267/230
f 52/52/231 51/51/231 47/47/231 46/46/231
f 293/293/232 294/294/233 295/295/232
f 296/296/234 293/293/232 295/295/232 297/297/234
f 274/274/235 273/273/235 168/168/235 171/171/235
f 59/59/236 167/167/236 169/169/236 98/98/236
f 206/206/237 272/272/237 263/263/237 99/99/237
f 168/168/238 273/273/238 272/272/238 206/206/238
f 169/169/239 167/167/239 166/166/239 170/170/239
f 298/298/240 299/299/240 300/300/241
f 301/301/242 302/302/242 299/299/240 298/298/240
usemtl Yellow
f 282/282/243 247/247/243 16/16/243 19/19/243
f 281/281/244 282/282/244 19/19/244 28/28/244
f 303/303/245 304/304/245 305/305/245 306/306/245
f 307/307/246 308/308/246 309/309/246 310/310/246
f 308/308/247 311/311/247 312/312/247 309/309/247
f 305/305/248 304/304/248 313/313/248 314/314/248
f 303/303/249 306/306/249 315/315/249 316/316/249
f 316/316/250 315/315/250 317/317/250 318/318/250
f 314/314/251 313/313/251 319/319/251 311/311/251
f 307/307/252 320/320/252 308/308/252
f 321/321/252 322/322/252 320/320/252 307/307/252
f 314/314/253 311/311/253 308/308/253 320/320/253
f 306/306/254 305/305/254 322/322/254 321/321/254
f 305/305/255 314/314/255 320/320/255 322/322/255
f 323/323/256 324/324/256 325/325/256 326/326/256
f 327/327/257 328/328/258 329/329/258 330/330/257
f 331/331/259 328/328/259 327/327/259 332/332/259
f 325/325/260 324/324/260 333/333/260 334/334/260
f 323/323/259 326/326/259 328/328/259 331/331/259
f 328/328/258 326/326/258 335/335/258 329/329/258
f 334/334/261 333/333/261 332/332/261 327/327/261
f 329/329/262 336/336/262 330/330/262
f 335/335/262 337/337/262 336/336/262 329/329/262
f 334/334/263 327/327/263 330/330/263 336/336/263
f 326/326/264 325/325/264 337/337/264 335/335/264
f 325/325/265 334/334/265 336/336/265 337/337/265
f 323/323/256 338/338/256 339/339/256 324/324/256
f 340/340/266 341/341/266 342/342/266 343/343/266
f 331/331/259 332/332/259 340/340/259 343/343/259
f 339/339/260 344/344/260 333/333/260 324/324/260
f 323/323/259 331/331/259 343/343/259 338/338/259
f 343/343/266 342/342/266 345/345/266 338/338/266
f 344/344/261 340/340/261 332/332/261 333/333/261
f 342/342/267 341/341/267 346/346/267
f 345/345/267 342/342/267 346/346/267 347/347/267
f 344/344/268 346/346/268 341/341/268 340/340/268
f 338/338/269 345/345/269 347/347/269 339/339/269
f 339/339/270 347/347/270 346/346/270 344/344/270
f 348/348/271 349/349/271 350/350/271 351/351/271
f 352/352/272 353/353/272 354/354/272 355/355/272
f 356/356/273 353/353/274 352/352/274 357/357/273
f 350/350/275 349/349/276 358/358/276 359/359/275
f 348/348/274 351/351/273 353/353/274 356/356/273
f 353/353/272 351/351/272 360/360/272 354/354/272
f 359/359/277 358/358/277 357/357/277 352/352/277
f 354/354/278 361/361/278 355/355/278
f 360/360/278 362/362/278 361/361/278 354/354/278
f 359/359/279 352/352/279 355/355/279 361/361/279
f 351/351/280 350/350/280 362/362/280 360/360/280
f 350/350/281 359/359/281 361/361/281 362/362/281
f 348/348/271 363/363/271 364/364/271 349/349/271
f 365/365/282 366/366/282 367/367/282 368/368/282
f 356/356/273 357/357/273 365/365/273 368/368/273
f 364/364/276 369/369/276 358/358/276 349/349/276
f 348/348/274 356/356/273 368/368/273 363/363/274
f 368/368/282 367/367/282 370/370/282 363/363/282
f 369/369/277 365/365/277 357/357/277 358/358/277
f 367/367/283 366/366/283 371/371/283
f 370/370/283 367/367/283 371/371/283 372/372/283
f 369/369/284 371/371/284 366/366/284 365/365/284
f 363/363/285 370/370/285 372/372/285 364/364/285
f 364/364/286 372/372/286 371/371/286 369/369/286
f 8/8/287 281/281/287 28/28/287 9/9/287
f 373/373/288 374/374/288 375/375/288 376/376/288
f 376/376/289 375/375/289 377/377/289 378/378/289
f 378/378/290 377/377/290 379/379/290 380/380/290
f 380/380/291 379/379/291 381/381/291 382/382/291
f 375/375/70 374/374/71 85/85/71 82/82/70
f 379/379/67 377/377/68 81/81/68 78/78/67
f 381/381/73 379/379/67 78/78/67 77/77/73
f 377/377/68 375/375/70 82/82/70 81/81/68
f 383/383/292 384/384/292 385/385/292 386/386/292
f 386/386/293 385/385/293 387/387/293 388/388/293
f 388/388/294 387/387/294 389/389/294 390/390/294
f 390/390/295 389/389/295 391/391/295 392/392/295
f 392/392/296 391/391/296 393/393/296 394/394/296
f 394/394/297 393/393/297 395/395/297 396/396/297
f 384/384/85 397/397/85 101/101/85 100/100/85
f 396/396/298 395/395/298 397/397/298 398/398/298
f 398/398/299 397/397/299 384/384/299 383/383/299
f 383/383/300 386/386/300 388/388/300 390/390/300 392/392/300 394/394/300 396/396/300 398/398/300
f 385/385/85 384/384/85 100/100/85 113/113/85
f 389/389/85 387/387/85 112/112/85 109/109/85
f 395/395/85 393/393/85 105/105/85 104/104/85
f 391/391/85 389/389/85 109/109/85 108/108/85
f 397/397/85 395/395/85 104/104/85 101/101/85
f 387/387/85 385/385/85 113/113/85 112/112/85
f 393/393/85 391/391/85 108/108/85 105/105/85
f 399/399/301 400/400/301 401/401/301 402/402/301
f 403/403/302 404/404/302 405/405/302 406/406/302
f 407/407/26 404/404/26 403/403/26 408/408/26
f 401/401/303 400/400/303 409/409/303 410/410/303
f 399/399/26 402/402/26 404/404/26 407/407/26
f 404/404/302 402/402/302 411/411/302 405/405/302
f 410/410/304 409/409/304 408/408/304 403/403/304
f 405/405/252 412/412/252 406/406/252
f 411/411/252 413/413/252 412/412/252 405/405/252
f 410/410/305 403/403/305 406/406/305 412/412/305
f 402/402/306 401/401/306 413/413/306 411/411/306
f 401/401/307 410/410/307 412/412/307 413/413/307
f 414/414/308 415/415/308 416/416/308 417/417/308
f 416/416/309 415/415/309 418/418/309 419/419/309
f 419/419/310 418/418/311 420/420/311 421/421/310
f 422/422/312 423/423/313 424/424/314
f 425/425/315 426/426/315 423/423/313 422/422/312
f 419/419/316 421/421/316 424/424/316 423/423/316
f 417/417/317 416/416/317 426/426/317 425/425/317
f 416/416/318 419/419/318 423/423/318 426/426/318
f 414/414/308 427/427/308 428/428/308 415/415/308
f 428/428/309 429/429/309 418/418/309 415/415/309
f 429/429/319 430/430/319 420/420/311 418/418/311
f 431/431/320 432/432/320 296/296/320 297/297/320
f 433/433/321 431/431/321 297/297/321 295/295/321
f 429/429/322 434/434/322 435/435/322 430/430/322
f 427/427/323 432/432/323 431/431/323 436/436/323 428/428/323
f 428/428/324 436/436/324 434/434/324 429/429/324
f 433/433/325 437/437/325 435/435/325 434/434/325
f 431/431/326 433/433/326 434/434/326 436/436/326
f 437/437/327 433/433/327 295/295/327 294/294/327
f 311/311/328 319/319/328 438/438/328 312/312/328
f 321/321/246 307/307/246 310/310/246 439/439/246
f 315/315/329 306/306/329 440/440/329 317/317/329
f 306/306/330 321/321/330 439/439/330 440/440/330
f 380/380/331 382/382/331 441/441/331 442/442/331
f 376/376/332 378/378/332 443/443/332 444/444/332
f 373/373/333 376/376/333 444/444/333 445/445/333
f 378/378/334 380/380/334 442/442/334 443/443/334
f 291/291/335 145/145/335 144/144/335 257/257/335
f 290/290/336 153/153/336 145/145/336 291/291/336
f 303/303/245 446/446/245 447/447/245 304/304/245
f 448/448/337 449/449/337 450/450/337 451/451/337
f 451/451/338 450/450/338 452/452/338 453/453/338
f 447/447/248 454/454/248 313/313/248 304/304/248
f 303/303/249 316/316/249 455/455/249 446/446/249
f 316/316/250 318/318/250 456/456/250 455/455/250
f 454/454/251 453/453/251 319/319/251 313/313/251
f 448/448/339 451/451/339 457/457/339
f 458/458/339 448/448/339 457/457/339 459/459/339
f 454/454/340 457/457/340 451/451/340 453/453/340
f 446/446/341 458/458/341 459/459/341 447/447/341
f 447/447/342 459/459/342 457/457/342 454/454/342
f 460/460/343 461/461/343 462/462/343 463/463/343
f 464/464/344 465/465/344 466/466/345 467/467/345
f 468/468/346 469/469/346 464/464/346 467/467/346
f 462/462/347 470/470/347 471/471/347 463/463/347
f 460/460/346 468/468/346 467/467/346 461/461/346
f 467/467/345 466/466/345 472/472/345 461/461/345
f 470/470/348 464/464/348 469/469/348 471/471/348
f 466/466/349 465/465/349 473/473/349
f 472/472/349 466/466/349 473/473/349 474/474/349
f 470/470/350 473/473/350 465/465/350 464/464/350
f 461/461/351 472/472/351 474/474/351 462/462/351
f 462/462/352 474/474/352 473/473/352 470/470/352
f 460/460/343 463/463/343 475/475/343 476/476/343
f 477/477/353 478/478/353 479/479/353 480/480/353
f 468/468/346 478/478/346 477/477/346 469/469/346
f 475/475/347 463/463/347 471/471/347 481/481/347
f 460/460/346 476/476/346 478/478/346 468/468/346
f 478/478/353 476/476/353 482/482/353 479/479/353
f 481/481/348 471/471/348 469/469/348 477/477/348
f 479/479/354 483/483/354 480/480/354
f 482/482/354 484/484/354 483/483/354 479/479/354
f 481/481/355 477/477/355 480/480/355 483/483/355
f 476/476/356 475/475/356 484/484/356 482/482/356
f 475/475/357 481/481/357 483/483/357 484/484/357
f 485/485/358 486/486/358 487/487/358 488/488/358
f 489/489/359 490/490/359 491/491/359 492/492/359
f 493/493/360 494/494/360 489/489/361 492/492/361
f 487/487/362 495/495/362 496/496/363 488/488/363
f 485/485/360 493/493/360 492/492/361 486/486/360
f 492/492/359 491/491/359 497/497/359 486/486/359
f 495/495/364 489/489/364 494/494/364 496/496/364
f 491/491/365 490/490/365 498/498/365
f 497/497/365 491/491/365 498/498/365 499/499/365
f 495/495/366 498/498/366 490/490/366 489/489/366
f 486/486/367 497/497/367 499/499/367 487/487/367
f 487/487/368 499/499/368 498/498/368 495/495/368
f 485/485/358 488/488/358 500/500/358 501/501/358
f 502/502/369 503/503/370 504/504/370 505/505/369
f 493/493/360 503/503/360 502/502/360 494/494/360
f 500/500/363 488/488/363 496/496/363 506/506/363
f 485/485/360 501/501/361 503/503/360 493/493/360
f 503/503/370 501/501/370 507/507/370 504/504/370
f 506/506/364 496/496/364 494/494/364 502/502/364
f 504/504/371 508/508/371 505/505/371
f 507/507/371 509/509/371 508/508/371 504/504/371
f 506/506/372 502/502/372 505/505/372 508/508/372
f 501/501/373 500/500/373 509/509/373 507/507/373
f 500/500/374 506/506/374 508/508/374 509/509/374
f 139/139/375 138/138/375 153/153/375 290/290/375
f 373/373/376 510/510/376 511/511/376 374/374/376
f 510/510/377 512/512/377 513/513/377 511/511/377
f 512/512/378 514/514/378 515/515/378 513/513/378
f 514/514/379 382/382/379 381/381/379 515/515/379
f 511/511/149 199/199/149 85/85/151 374/374/151
f 515/515/147 195/195/147 196/196/148 513/513/148
f 381/381/152 77/77/152 195/195/147 515/515/147
f 513/513/148 196/196/148 199/199/149 511/511/149
f 516/516/380 517/517/380 518/518/380 519/519/380
f 517/517/381 520/520/381 521/521/381 518/518/381
f 520/520/382 522/522/382 523/523/382 521/521/382
f 522/522/383 524/524/383 525/525/383 523/523/383
f 524/524/384 526/526/384 527/527/384 525/525/384
f 526/526/385 528/528/385 529/529/385 527/527/385
f 519/519/164 207/207/164 210/210/164 530/530/164
f 528/528/386 531/531/386 530/530/386 529/529/386
f 531/531/387 516/516/387 519/519/387 530/530/387
f 516/516/388 531/531/388 528/528/388 526/526/388 524/524/388 522/522/388 520/520/388 517/517/388
f 518/518/164 222/222/164 207/207/164 519/519/164
f 523/523/164 218/218/164 219/219/164 521/521/164
f 529/529/164 211/211/164 214/214/164 527/527/164
f 525/525/164 215/215/164 218/218/164 523/523/164
f 530/530/164 210/210/164 211/211/164 529/529/164
f 521/521/164 219/219/164 222/222/164 518/518/164
f 527/527/164 214/214/164 215/215/164 525/525/164
f 399/399/301 532/532/301 533/533/301 400/400/301
f 534/534/389 535/535/389 536/536/389 537/537/389
f 407/407/26 408/408/26 534/534/26 537/537/26
f 533/533/303 538/538/303 409/409/303 400/400/303
f 399/399/26 407/407/26 537/537/26 532/532/26
f 537/537/389 536/536/389 539/539/389 532/532/389
f 538/538/304 534/534/304 408/408/304 409/409/304
f 536/536/339 535/535/339 540/540/339
f 539/539/339 536/536/339 540/540/339 541/541/339
f 538/538/390 540/540/390 535/535/390 534/534/390
f 532/532/391 539/539/391 541/541/391 533/533/391
f 533/533/392 541/541/392 540/540/392 538/538/392
f 542/542/393 543/543/393 544/544/393 545/545/393
f 544/544/394 546/546/394 547/547/394 545/545/394
f 546/546/395 548/548/395 549/549/396 547/547/396
f 550/550/397 551/551/398 552/552/399
f 553/553/400 550/550/397 552/552/399 554/554/400
f 546/546/401 552/552/401 551/551/401 548/548/401
f 543/543/402 553/553/402 554/554/402 544/544/402
f 544/544/403 554/554/403 552/552/403 546/546/403
f 542/542/393 545/545/393 555/555/393 556/556/393
f 555/555/394 545/545/394 547/547/394 557/557/394
f 557/557/404 547/547/396 549/549/396 558/558/404
f 559/559/405 302/302/405 301/301/405 560/560/405
f 561/561/406 299/299/406 302/302/406 559/559/406
f 557/557/407 558/558/407 562/562/407 563/563/407
f 556/556/408 555/555/408 564/564/408 559/559/408 560/560/408
f 555/555/409 557/557/409 563/563/409 564/564/409
f 561/561/410 563/563/410 562/562/410 565/565/410
f 559/559/411 564/564/411 563/563/411 561/561/411
f 565/565/412 300/300/412 299/299/412 561/561/412
f 453/453/328 452/452/328 438/438/328 319/319/328
f 458/458/337 566/566/337 449/449/337 448/448/337
f 455/455/413 456/456/413 567/567/413 446/446/413
f 446/446/414 567/567/414 566/566/414 458/458/414
f 514/514/415 568/568/415 441/441/415 382/382/415
f 510/510/416 569/569/416 570/570/416 512/512/416
f 373/373/417 445/445/417 569/569/417 510/510/417
f 512/512/418 570/570/418 568/568/418 514/514/418
usemtl Green
f 79/79/67 84/84/68 88/88/68 87/87/67
f 83/83/70 86/86/71 92/92/71 91/91/70
f 80/80/73 79/79/67 87/87/67 95/95/73
f 84/84/68 83/83/70 91/91/70 88/88/68
f 106/106/85 111/111/85 121/121/85 120/120/85
f 110/110/85 115/115/85 125/125/85 124/124/85
f 114/114/85 103/103/85 129/129/85 128/128/85
f 103/103/85 102/102/85 116/116/85 129/129/85
f 107/107/85 106/106/85 120/120/85 117/117/85
f 111/111/85 110/110/85 124/124/85 121/121/85
f 115/115/85 114/114/85 128/128/85 125/125/85
f 102/102/85 107/107/85 117/117/85 116/116/85
f 131/131/85 130/130/85 119/119/85 118/118/85 123/123/85 122/122/85 127/127/85 126/126/85
f 94/94/70 93/93/72 96/96/74 90/90/69 89/89/68
f 571/571/419 572/572/419 573/573/419 574/574/419 575/575/419 576/576/419 577/577/419 578/578/419
f 579/579/420 580/580/420 581/581/420 582/582/420 583/583/420 584/584/420 585/585/420 586/586/420
f 576/576/421 575/575/421 583/583/421 582/582/421
f 574/574/422 573/573/422 585/585/422 584/584/422
f 572/572/423 571/571/423 579/579/423 586/586/423
f 577/577/424 576/576/424 582/582/424 581/581/424
f 575/575/425 574/574/425 584/584/425 583/583/425
f 573/573/426 572/572/426 586/586/426 585/585/426
f 571/571/427 578/578/427 580/580/427 579/579/427
f 578/578/428 577/577/428 581/581/428 580/580/428
f 194/194/147 200/200/147 203/203/148 197/197/148
f 198/198/149 204/204/149 92/92/151 86/86/151
f 80/80/152 95/95/152 200/200/147 194/194/147
f 197/197/148 203/203/148 204/204/149 198/198/149
f 213/213/164 227/227/164 230/230/164 216/216/164
f 217/217/164 231/231/164 234/234/164 220/220/164
f 221/221/164 235/235/164 238/238/164 208/208/164
f 208/208/164 238/238/164 223/223/164 209/209/164
f 212/212/164 226/226/164 227/227/164 213/213/164
f 216/216/164 230/230/164 231/231/164 217/217/164
f 220/220/164 234/234/164 235/235/164 221/221/164
f 209/209/164 223/223/164 226/226/164 212/212/164
f 236/236/164 233/233/164 232/232/164 229/229/164 228/228/164 225/225/164 224/224/164 237/237/164
f 205/205/149 202/202/148 201/201/147 96/96/153 93/93/150
f 587/587/429 588/588/429 589/589/429 590/590/429 591/591/429 592/592/429 593/593/429 594/594/429
f 595/595/430 596/596/430 597/597/430 598/598/430 599/599/430 600/600/430 601/601/430 602/602/430
f 590/590/431 600/600/431 599/599/431 591/591/431
f 592/592/432 598/598/432 597/597/432 593/593/432
f 594/594/433 596/596/433 595/595/433 587/587/433
f 589/589/434 601/601/434 600/600/434 590/590/434
f 591/591/435 599/599/435 598/598/435 592/592/435
f 593/593/436 597/597/436 596/596/436 594/594/436
f 587/587/437 595/595/437 602/602/437 588/588/437
f 588/588/438 602/602/438 601/601/438 589/589/438
