# Blender v2.79 (sub 0) OBJ File: ''
# www.blender.org
mtllib Nacho.mtl
o Nacho_Cube.007
v 0.118641 0.000000 -1.621364
v -1.659542 0.000000 -1.624165
v -1.200406 0.137633 -1.565119
v 0.116832 0.185805 -1.565130
v 1.431263 0.137632 -1.477662
v 1.893212 0.000000 -1.506095
v 1.431263 -0.137632 -1.477662
v 0.116832 -0.185805 -1.565130
v -1.200406 -0.137632 -1.565119
v 0.111418 0.247738 -1.396417
v 1.887792 0.185805 -1.337382
v -1.664962 0.185805 -1.455452
v -1.464962 0.185805 -0.756696
v 0.093904 0.247738 -0.847588
v 1.643694 0.185805 -0.653390
v 0.111418 -0.247738 -1.396417
v -1.664962 -0.185805 -1.455452
v 1.887792 -0.185805 -1.337382
v 1.643694 -0.185805 -0.653390
v 0.093904 -0.247738 -0.847588
v -1.464962 -0.185805 -0.756696
v -2.257086 0.000000 -1.475129
v -1.984583 0.000000 -0.726403
v 2.479917 0.000000 -1.317706
v 2.160296 0.000000 -0.588656
v 0.055812 -0.247738 0.349002
v -0.850514 -0.185805 0.889656
v 0.925860 -0.185805 0.948691
v 0.018187 -0.137632 1.531585
v 0.055812 0.247738 0.349002
v -0.625698 0.185805 0.858370
v 0.018187 0.137632 1.531585
v 0.704741 0.185805 0.981580
v 0.912795 -0.000000 1.191734
v -0.004661 -0.000000 2.249578
v -0.861125 -0.000000 1.027460
v 0.415767 1.241082 0.970227
v 0.414871 1.106063 1.009198
v 0.456711 1.083568 1.015673
v 0.457550 1.210464 0.979047
v 1.806839 0.436932 1.046343
v 1.810923 1.055996 0.867658
v 1.810975 1.097420 1.011178
v 1.806890 0.478356 1.189863
v 1.811813 1.191015 0.828693
v 0.415710 1.199653 0.826707
v 1.811870 1.232439 0.972213
v 0.796049 0.067478 1.153345
v 0.410735 0.445575 1.044358
v 0.414820 1.064639 0.865678
v 1.416567 0.063639 1.154230
v 0.410786 0.486999 1.187878
v 1.925240 1.231737 0.972372
v 1.925182 1.190314 0.828852
v 0.796100 0.108902 1.296865
v 1.416618 0.105063 1.297750
v 0.069629 1.243222 0.969737
v 0.068739 1.108202 1.008707
v 0.815012 0.146378 1.286043
v 0.452872 0.501735 1.183610
v 0.069578 1.201798 0.826217
v 0.068688 1.066778 0.865188
v 1.924350 1.096718 1.011343
v 1.924292 1.055294 0.867823
v 1.810307 0.570086 -0.815857
v 1.923676 0.569385 -0.815691
v 1.811197 0.705106 -0.854827
v 1.924566 0.704404 -0.854662
v 1.923186 0.410267 -1.161526
v 1.809816 0.410969 -1.161686
v 1.809069 0.314344 -1.059641
v 1.922438 0.313642 -1.059482
v 0.452849 0.483565 1.120645
v 0.456689 1.065392 0.952713
v 0.457527 1.192293 0.916087
v 1.398203 0.142773 1.286870
v 1.769682 1.202340 0.980913
v 1.768843 1.075444 1.017539
v 1.765004 0.493617 1.185470
v 1.398180 0.124597 1.223910
v 1.764981 0.475441 1.122510
v 1.768821 1.057274 0.954579
v 0.814989 0.128208 1.223077
v 1.769659 1.184170 0.917953
v -0.276509 1.245367 0.969240
v -0.318691 1.215267 0.977946
v -0.319530 1.088372 1.014572
v -0.277399 1.110347 1.008211
v -1.677638 0.458503 1.041391
v -1.677587 0.499927 1.184911
v -1.673502 1.118990 1.006231
v -1.673553 1.077566 0.862712
v -1.672663 1.212580 0.823741
v -1.672612 1.254004 0.967261
v -0.276560 1.203943 0.825721
v -0.671812 0.076561 1.151263
v -1.292324 0.080406 1.150379
v -0.277450 1.068923 0.864691
v -0.281535 0.449860 1.043376
v -0.281483 0.491284 1.186891
v -1.786033 1.213282 0.823581
v -1.785981 1.254706 0.967101
v -0.671755 0.117984 1.294783
v -1.292273 0.121830 1.293899
v -0.323369 0.506544 1.182504
v -0.690170 0.155694 1.283904
v -1.786871 1.119692 1.006066
v -1.786922 1.078268 0.862546
v -1.787539 0.592359 -0.820968
v -1.674170 0.591657 -0.820803
v -1.673280 0.726671 -0.859773
v -1.674660 0.432534 -1.166638
v -1.788035 0.433236 -1.166798
v -1.786649 0.727372 -0.859939
v -1.675408 0.335914 -1.064593
v -1.788777 0.336616 -1.064753
v -0.319553 1.070201 0.951612
v -0.323392 0.488368 1.119544
v -0.318714 1.197097 0.914986
v -1.273367 0.159306 1.283077
v -1.631662 1.096496 1.012707
v -1.630823 1.223391 0.976081
v -1.635501 0.514663 1.180638
v -1.273389 0.141135 1.220111
v -0.690193 0.137524 1.220944
v -1.631685 1.078319 0.949747
v -1.635524 0.496492 1.117678
v -1.630846 1.205215 0.913121
vn -0.0045 0.3413 -0.9399
vn 0.0669 0.3413 -0.9376
vn 0.0669 -0.3413 -0.9376
vn -0.0045 -0.3413 -0.9399
vn 0.0516 0.9145 -0.4012
vn -0.0248 0.9146 -0.4037
vn -0.0371 0.9993 0.0054
vn 0.0366 0.9993 0.0078
vn -0.0248 -0.9146 -0.4037
vn 0.0516 -0.9145 -0.4012
vn 0.0366 -0.9993 0.0078
vn 0.0461 -0.9989 0.0124
vn 0.0466 -0.9988 0.0128
vn -0.0371 -0.9993 0.0054
vn -0.0474 -0.9988 0.0095
vn -0.0469 -0.9989 0.0093
vn -0.1488 0.6624 -0.7343
vn -0.1488 -0.6624 -0.7343
vn -0.3145 -0.9437 0.1026
vn -0.3145 0.9437 0.1026
vn 0.1972 -0.6622 -0.7229
vn 0.1972 0.6622 -0.7229
vn 0.3070 0.9438 0.1225
vn 0.3070 -0.9438 0.1225
vn -0.0477 -0.9988 0.0097
vn 0.0470 -0.9988 0.0127
vn -0.0031 -0.9957 0.0926
vn -0.0086 0.9957 0.0924
vn 0.0498 0.9986 0.0172
vn -0.0513 0.9986 0.0146
vn 0.2606 -0.9120 0.3167
vn 0.4608 -0.8462 0.2677
vn 0.3705 0.8980 0.2372
vn 0.2472 0.9293 0.2745
vn -0.4994 -0.8280 0.2552
vn -0.3245 -0.8889 0.3233
vn -0.2893 0.9234 0.2524
vn -0.3825 0.8967 0.2228
vn 0.0004 0.2773 0.9608
vn 1.0000 -0.0062 0.0014
vn 0.0063 0.9608 -0.2773
vn -0.0004 -0.2773 -0.9608
vn -1.0000 0.0062 -0.0014
vn -0.7145 -0.6721 0.1943
vn 0.7056 -0.6809 0.1963
vn -0.0063 -0.9608 0.2773
vn 0.0003 0.2773 0.9608
vn -0.0064 -0.9608 0.2773
vn 0.0055 0.7219 -0.6920
vn -0.0035 -0.7261 -0.6876
vn -0.0053 -0.6900 0.7238
vn -0.7056 0.6809 -0.1963
vn 0.7145 0.6721 -0.1942
vn -0.0003 -0.2773 -0.9608
vn 0.0064 0.9608 -0.2773
vn -0.0035 -0.7261 -0.6875
usemtl Nacho
s 1
f 1//1 2//1 3//1 4//1
f 1//2 4//2 5//2 6//2
f 1//3 6//3 7//3 8//3
f 1//4 8//4 9//4 2//4
f 10//5 11//5 5//5 4//5
f 10//6 4//6 3//6 12//6
f 10//7 12//7 13//7 14//7
f 10//8 14//8 15//8 11//8
f 16//9 17//9 9//9 8//9
f 16//10 8//10 7//10 18//10
f 16//11 18//11 19//12 20//13
f 16//14 20//15 21//16 17//14
f 22//17 12//17 3//17 2//17
f 22//18 2//18 9//18 17//18
f 22//19 17//19 21//19 23//19
f 22//20 23//20 13//20 12//20
f 24//21 18//21 7//21 6//21
f 24//22 6//22 5//22 11//22
f 24//23 11//23 15//23 25//23
f 24//24 25//24 19//24 18//24
f 26//25 27//25 21//16 20//15
f 26//26 20//13 19//12 28//26
f 26//27 28//27 29//27 27//27
f 30//28 31//28 32//28 33//28
f 30//29 33//29 15//29 14//29
f 30//30 14//30 13//30 31//30
f 34//31 35//31 29//31 28//31
f 34//32 28//32 19//32 25//32
f 34//33 25//33 15//33 33//33
f 34//34 33//34 32//34 35//34
f 36//35 23//35 21//35 27//35
f 36//36 27//36 29//36 35//36
f 36//37 35//37 32//37 31//37
f 36//38 31//38 13//38 23//38
usemtl Black
f 37//39 38//39 39//39 40//39
f 41//40 42//40 43//40 44//40
f 45//41 46//41 37//41 47//41
f 48//42 49//42 50//42 42//42 41//42 51//42
f 52//43 38//43 50//43 49//43
f 45//41 47//41 53//41 54//41
f 48//44 55//44 52//44 49//44
f 56//45 51//45 41//45 44//45
f 48//46 51//46 56//46 55//46
f 38//39 37//39 57//39 58//39
f 52//47 55//47 59//47 60//47
f 42//42 50//42 46//42 45//42
f 37//41 46//41 61//41 57//41
f 50//46 38//46 58//46 62//46
f 46//42 50//42 62//42 61//42
f 63//40 64//40 54//40 53//40
f 64//48 42//48 65//48 66//48
f 47//47 43//39 63//47 53//47
f 43//48 42//48 64//48 63//48
f 67//49 68//49 69//49 70//49
f 42//43 45//43 67//43 65//43
f 54//40 64//40 66//40 68//40
f 45//41 54//41 68//41 67//41
f 71//50 70//50 69//50 72//50
f 65//43 67//43 70//43 71//43
f 66//51 65//51 71//51 72//51
f 68//40 66//40 72//40 69//40
f 39//40 60//40 73//40 74//40
f 40//40 39//40 74//40 75//40
f 55//47 56//47 76//47 59//47
f 43//39 47//47 77//39 78//39
f 47//47 37//39 40//39 77//39
f 44//47 43//39 78//39 79//47
f 38//39 52//47 60//47 39//39
f 56//47 44//47 79//47 76//47
f 80//47 81//47 82//39 74//39 73//47 83//47
f 74//39 82//39 84//39 75//39
f 76//52 79//52 81//52 80//52
f 77//46 40//46 75//46 84//46
f 79//43 78//43 82//43 81//43
f 59//41 76//41 80//41 83//41
f 60//53 59//53 83//53 73//53
f 78//43 77//43 84//43 82//43
f 85//39 86//39 87//39 88//39
f 89//43 90//43 91//43 92//43
f 93//41 94//41 85//41 95//41
f 96//42 97//42 89//42 92//42 98//54 99//42
f 100//40 99//40 98//40 88//40
f 93//41 101//41 102//41 94//41
f 96//45 99//45 100//45 103//45
f 104//44 90//44 89//44 97//44
f 96//46 103//46 104//46 97//46
f 88//39 58//47 57//47 85//39
f 100//39 105//39 106//39 103//39
f 92//42 93//42 95//54 98//54
f 62//40 61//40 57//40 58//40
f 85//41 57//55 61//55 95//41
f 98//48 62//48 58//48 88//48
f 95//54 61//54 62//54 98//54
f 107//43 102//43 101//43 108//43
f 108//48 109//48 110//48 92//48
f 94//39 102//47 107//47 91//39
f 91//48 107//48 108//48 92//48
f 111//49 112//49 113//49 114//49
f 92//40 110//40 111//40 93//40
f 101//43 114//43 109//43 108//43
f 93//41 111//41 114//41 101//41
f 115//56 116//56 113//56 112//56
f 110//40 115//40 112//40 111//40
f 109//51 116//51 115//51 110//51
f 114//43 113//43 116//43 109//43
f 87//43 117//43 118//43 105//43
f 86//43 119//43 117//43 87//43
f 103//39 106//39 120//39 104//39
f 91//39 121//39 122//39 94//39
f 94//39 122//39 86//39 85//39
f 90//39 123//39 121//39 91//39
f 88//39 87//39 105//39 100//39
f 104//39 120//39 123//39 90//39
f 124//47 125//47 118//47 117//47 126//47 127//47
f 117//47 119//47 128//47 126//47
f 120//53 124//53 127//53 123//53
f 122//46 128//46 119//46 86//46
f 123//40 127//40 126//40 121//40
f 106//41 125//41 124//41 120//41
f 105//52 118//52 125//52 106//52
f 121//40 126//40 128//40 122//40
