# Blender v2.82 (sub 7) OBJ File: 'scene.blend'
# www.blender.org
mtllib grass_m.mtl
o GRS_TB_side_Cube.052
v -3.003108 0.632055 -0.707376
v -3.003108 -1.002239 -1.007553
v -3.003108 0.632055 0.693447
v 1.001581 -1.002239 -1.007554
v 1.001581 0.632055 0.693446
v 1.001581 -1.002239 0.976946
v 1.001581 0.614390 0.858537
v 1.001581 0.365231 0.976946
v -3.003108 -1.002239 0.976947
v -3.003108 0.365231 0.976947
v 1.001581 0.530324 0.959281
v -3.003108 0.530322 0.959283
v -3.003108 0.614390 0.858540
v 1.001581 0.632055 -0.707377
v 1.001581 0.331878 -1.007553
v 1.001581 0.489869 -0.978855
v 1.001581 0.603369 -0.865341
v 1.001581 0.632055 -0.707377
v -3.003108 0.632055 -0.707376
v -3.003108 0.603357 -0.865367
v -3.003108 0.489843 -0.978866
v -3.003108 0.331878 -1.007552
v -3.003108 0.632055 -0.674023
v -3.003108 0.632055 0.843535
v 1.001581 0.632055 0.843534
v 1.001581 0.632055 -0.674024
v 0.200643 0.365231 0.993623
v 1.001581 0.365231 0.993623
v 1.001581 0.530324 0.975957
v 0.200643 0.530324 0.975958
v 1.001581 0.647743 0.858537
v 0.200643 0.647743 0.858538
v 1.001581 0.665408 0.526682
v 0.200643 0.665408 0.558168
v 0.200643 -1.002239 0.993623
v 1.001581 -1.002239 0.993623
v -3.003108 0.632055 -0.707376
v 1.001581 0.632055 -0.707377
v 1.001581 0.603369 -0.865341
v -3.003108 0.603357 -0.865367
v 1.001581 0.489869 -0.978855
v -3.003108 0.489843 -0.978866
v 1.001581 0.331878 -1.007553
v -3.003108 0.331878 -1.007552
v 1.001581 -1.002239 -1.007554
v -3.003108 -1.002239 -1.007553
v -3.003108 -1.002239 0.993624
v -2.202170 -1.002239 0.993624
v -2.202170 0.365231 0.993624
v -3.003108 0.365231 0.993624
v -1.801701 -1.002239 0.993624
v -1.401232 -1.002239 0.993623
v -1.401232 0.365231 0.993623
v -1.801701 0.365231 0.993624
v -0.600294 -1.002239 0.993623
v -0.600294 0.365231 0.993623
v -3.003108 0.647743 0.858540
v -2.202170 0.647743 0.858540
v -2.202170 0.665408 0.146227
v -3.003108 0.665408 0.526683
v -1.801701 0.647743 0.858540
v -1.401232 0.647743 0.858539
v -1.290669 0.665408 0.616135
v -1.801701 0.665408 0.236992
v -0.600294 0.647743 0.858538
v -0.600294 0.665408 0.215606
v -3.003108 0.530322 0.975959
v -2.202170 0.530323 0.975959
v -1.801701 0.530323 0.975959
v -1.401232 0.530323 0.975958
v -0.600294 0.530324 0.975958
vt 0.983127 0.017963
vt 0.983127 0.017963
vt 0.983127 0.017963
vt 0.983127 0.017963
vt 0.983127 0.017963
vt 0.983127 0.017963
vt 0.983127 0.017963
vt 0.983127 0.017963
vt 0.983127 0.017963
vt 0.983127 0.017963
vt 0.983127 0.017963
vt 0.983127 0.017963
vt 0.983127 0.017963
vt 0.983127 0.017963
vt 0.983127 0.017963
vt 0.983127 0.017963
vt 0.983127 0.017963
vt 0.983127 0.017963
vt 0.749565 0.436032
vt 0.749565 0.429291
vt 0.749565 0.436032
vt 0.749565 0.424447
vt 0.749565 0.423223
vt 0.749565 0.562659
vt 0.749565 0.620345
vt 0.625190 0.620345
vt 0.625190 0.562659
vt 0.150156 0.699059
vt 0.125104 0.699059
vt 0.125104 0.692902
vt 0.150156 0.692902
vt 0.125104 0.686745
vt 0.150156 0.686745
vt 0.125104 0.670656
vt 0.150156 0.670656
vt 0.150156 0.750052
vt 0.125104 0.750052
vt 0.749565 0.436032
vt 0.749565 0.437455
vt 0.625190 0.437455
vt 0.625190 0.436032
vt 0.625190 0.429292
vt 0.749565 0.429291
vt 0.125190 0.311954
vt 0.249565 0.311952
vt 0.249565 0.317963
vt 0.125190 0.317964
vt 0.249565 0.323975
vt 0.125190 0.323975
vt 0.249565 0.374740
vt 0.125190 0.374740
vt 0.983127 0.017963
vt 0.250362 0.750052
vt 0.225311 0.750052
vt 0.225311 0.699059
vt 0.250362 0.699059
vt 0.212785 0.750052
vt 0.200259 0.750052
vt 0.200259 0.699059
vt 0.212785 0.699059
vt 0.175207 0.750052
vt 0.175207 0.699059
vt 0.250362 0.686745
vt 0.225311 0.686745
vt 0.225311 0.670656
vt 0.250362 0.670656
vt 0.212785 0.686745
vt 0.200259 0.686745
vt 0.196801 0.670656
vt 0.212785 0.670656
vt 0.175207 0.686745
vt 0.175207 0.670656
vt 0.250362 0.692902
vt 0.225311 0.692902
vt 0.212785 0.692902
vt 0.200259 0.692902
vt 0.175207 0.692902
vn -1.0000 0.0000 0.0000
vn 1.0000 -0.0000 -0.0000
vn 0.0000 -1.0000 -0.0000
vn 0.0000 0.0000 1.0000
vn 0.3510 0.0000 -0.9364
vn -1.0000 0.0000 0.0001
vn 0.0935 0.0000 -0.1214
vn -0.0000 1.0000 -0.0000
vn 0.0000 0.1064 0.9943
vn 0.0000 0.7071 0.7071
vn 0.0011 0.9984 0.0558
vn -0.0000 0.9839 -0.1787
vn -0.0000 0.7071 -0.7071
vn 0.0000 0.1787 -0.9839
vn -0.0000 0.0000 -1.0000
vn 0.0080 0.9994 0.0338
vn 0.0025 0.9995 0.0301
vn 0.0075 0.9994 0.0336
vn -0.0161 0.9991 0.0388
vn 0.0111 0.9991 0.0413
vn -0.0080 0.9993 0.0374
vn -0.0030 0.9996 0.0265
usemtl Mat_Grass.002
s 1
f 1/1/1 2/2/1 3/3/1
f 4/4/2 5/5/2 6/6/2
f 5/5/2 7/7/2 8/8/2
f 9/9/1 10/10/1 3/3/1
f 8/8/2 6/6/2 5/5/2
f 6/6/3 2/2/3 4/4/3
f 11/11/2 8/8/2 7/7/2
f 2/2/1 9/9/1 3/3/1
f 10/10/1 12/12/1 13/13/1
f 13/13/1 3/3/1 10/10/1
f 6/6/3 9/9/3 2/2/3
f 4/4/2 14/14/2 5/5/2
f 15/15/2 16/16/2 14/14/2
f 16/16/2 17/17/2 14/14/2
f 17/17/4 18/18/4 14/14/4
f 19/19/5 20/20/6 1/21/7
f 20/20/6 21/22/1 1/21/7
f 21/22/1 22/23/1 1/21/7
f 23/24/8 24/25/8 25/26/8 26/27/8
f 27/28/9 28/29/9 29/30/9 30/31/9
f 30/31/10 29/30/10 31/32/10 32/33/10
f 32/33/11 31/32/11 33/34/11 34/35/11
f 35/36/4 36/37/4 28/29/4 27/28/4
f 37/38/8 23/39/8 26/40/8 38/41/8
f 37/38/12 38/41/12 39/42/12 40/43/12
f 40/44/13 39/45/13 41/46/13 42/47/13
f 42/47/14 41/46/14 43/48/14 44/49/14
f 45/50/15 46/51/15 44/49/15 43/48/15
f 1/1/7 22/52/1 2/2/1
f 4/4/2 15/15/2 14/14/2
f 47/53/4 48/54/4 49/55/4 50/56/4
f 51/57/4 52/58/4 53/59/4 54/60/4
f 52/58/4 55/61/4 56/62/4 53/59/4
f 55/61/4 35/36/4 27/28/4 56/62/4
f 57/63/16 58/64/17 59/65/18 60/66/16
f 61/67/19 62/68/19 63/69/19 64/70/19
f 62/68/20 65/71/20 66/72/20 63/69/20
f 65/71/21 32/33/21 34/35/21 66/72/21
f 67/73/10 68/74/10 58/64/10 57/63/10
f 69/75/10 70/76/10 62/68/10 61/67/10
f 70/76/10 71/77/10 65/71/10 62/68/10
f 71/77/10 30/31/10 32/33/10 65/71/10
f 50/56/9 49/55/9 68/74/9 67/73/9
f 54/60/9 53/59/9 70/76/9 69/75/9
f 53/59/9 56/62/9 71/77/9 70/76/9
f 56/62/9 27/28/9 30/31/9 71/77/9
f 49/55/9 54/60/9 69/75/9 68/74/9
f 68/74/10 69/75/10 61/67/10 58/64/10
f 58/64/17 61/67/22 64/70/22 59/65/18
f 48/54/4 51/57/4 54/60/4 49/55/4
