# Blender v2.82 (sub 7) OBJ File: ''
# www.blender.org
mtllib root_2.mtl
o low:ZBrush_defualt_group17.001
v -1.534978 0.602085 0.360849
v -1.502585 0.571879 0.337339
v -1.987678 0.604530 0.605295
v -2.021509 0.546041 0.590059
v -0.633698 0.822700 -0.363734
v -0.757571 0.757637 -0.181471
v -0.544916 0.854493 -0.311193
v -0.671541 0.813900 -0.132522
v 0.286339 0.640728 -2.024865
v 0.273655 0.779691 -1.957997
v 0.261717 0.699908 -1.884428
v -2.148556 0.712317 0.795565
v -2.281873 0.727234 0.845825
v -2.146301 0.672012 0.961714
v -2.951346 0.565035 0.336659
v -2.917275 0.523370 0.286653
v -2.840113 0.471337 0.293174
v -0.422532 0.803102 -0.625488
v -0.491938 0.772900 -0.637275
v 1.013004 0.450573 -2.651107
v 0.957419 0.537567 -2.721331
v 1.012060 0.527771 -2.645497
v 0.973058 0.581539 -2.685548
v -2.266939 0.312126 0.943107
v -2.081531 0.245809 0.782020
v -2.082664 0.232235 0.833725
v -0.408416 0.785570 -0.732223
v -0.468531 0.783361 -0.718442
v -0.365922 0.772123 -0.649786
v -0.340600 0.783960 -0.748897
v -2.137546 0.288855 1.045481
v -2.050143 0.208426 0.875933
v -2.087887 0.506114 0.920806
v -2.160649 0.552473 1.035143
v -2.081514 0.605569 0.930704
v -2.047310 0.353295 0.938220
v -2.417224 0.617071 1.540002
v -2.306666 0.566664 1.504028
v -2.404037 0.687080 1.456020
v -2.063097 0.166941 0.565162
v -2.113482 0.192857 0.523928
v -2.034400 0.162626 0.526670
v -2.085923 0.244350 0.518264
v -2.255705 0.320057 0.466572
v -2.812272 0.552235 0.424921
v -2.773209 0.585360 0.276899
v -2.922227 0.602647 0.360297
v -2.869089 0.627864 0.264490
v -0.339796 0.461360 -1.832827
v -0.271855 0.655251 -1.737123
v -0.170535 0.532818 -1.759974
v -0.179000 0.639670 -1.718297
v -0.196093 0.410355 -1.625108
v -0.313600 0.502475 -1.537958
v -0.240805 0.704264 -1.417545
v -0.289274 0.705468 -1.157958
v -0.171193 0.598344 -1.160304
v -0.106527 0.605280 -1.426782
v -0.083036 0.656511 -1.633992
v -2.788957 0.532066 0.211610
v -2.654938 0.461411 0.305760
v -2.681818 0.402364 0.326619
v -0.226558 0.514629 -0.877279
v -0.269316 0.690548 -0.950438
v 0.194322 0.939172 -1.710948
v 0.185694 0.662945 -1.793062
v -2.115921 0.501151 0.539974
v -2.221161 0.653744 0.664383
v -2.198624 0.504045 0.503504
v -2.263238 0.592786 0.603641
v -2.300273 0.490728 0.446973
v -2.341061 0.582786 0.644522
v -2.332186 0.624164 0.698273
v -2.347126 -0.064394 0.642680
v -2.348206 0.024347 0.693675
v -2.237088 -0.011006 0.603860
v -1.898898 0.565182 0.621359
v -1.680076 0.685604 0.559329
v 0.032416 0.490087 -1.808448
v 0.080955 0.485183 -1.705605
v -0.107211 0.431663 -1.611484
v 0.002182 0.393267 -1.507138
v -0.019701 0.588079 -1.843174
v -2.925117 0.576008 0.244867
v -0.308745 0.763136 -0.951677
v 0.395614 1.041586 -3.017403
v 0.375308 1.120106 -2.976492
v 0.483631 1.030990 -2.950997
v 0.461935 1.101827 -2.917088
v -1.933374 0.225488 0.664856
v -1.857858 0.157842 0.479594
v -1.490036 0.290121 0.493415
v -1.420097 0.316841 0.386563
v 0.122497 0.522696 -1.933572
v 0.067746 0.758292 -1.943641
v 0.256492 0.550512 -2.054859
v 0.126281 0.820333 -1.987867
v 0.239624 0.469189 -1.982182
v -2.040133 0.241992 0.737759
v -2.031931 0.215713 0.660734
v -2.043824 0.244828 0.845820
v -2.628776 0.504678 0.355854
v -2.595984 0.525126 0.528355
v -0.707269 0.719757 -0.341142
v -0.590171 0.672876 -0.615614
v -0.520054 0.557867 -0.360996
v -0.540770 0.519762 -0.551614
v -2.262211 0.462308 0.658299
v -2.197241 0.267462 0.524253
v -2.133098 0.209033 0.573809
v -2.612516 0.442213 0.553260
v -2.769599 0.435312 0.460853
v -2.697008 0.352696 0.415436
v -2.085505 0.667200 0.876988
v -2.153661 0.251059 0.533101
v -2.093532 0.141091 0.547564
v -1.364181 0.651913 0.479881
v -1.026505 0.724680 0.242024
v -2.393358 0.432348 1.437386
v -2.319213 0.467254 1.242604
v -2.236335 0.551408 1.197356
v -2.269775 0.590404 1.274976
v -2.221126 0.703248 1.050045
v -2.289349 0.715316 1.203267
v -2.313019 0.716824 1.406535
v -2.384542 0.690959 1.213942
v -2.305870 0.714995 1.001012
v -2.409367 0.697287 1.387743
v -2.363503 0.644981 1.055671
v -2.427557 0.556837 1.532164
v -2.459214 0.434048 1.230773
v -2.322078 0.669208 0.873144
v -2.259902 0.711136 0.762306
v -2.307580 0.671913 0.802306
v -2.290502 0.689615 0.731695
v -2.330434 0.659029 0.751940
v -2.268393 0.464833 1.085395
v -0.839943 0.825813 0.009549
v -0.652491 0.768945 -0.115534
v -0.970185 0.743795 -0.041132
v -1.206331 0.557827 0.191947
v -1.112717 0.386981 0.174403
v -1.449390 0.464011 0.339451
v -1.054693 0.286398 0.190298
v -1.044606 0.349012 0.232865
v -1.087168 0.466943 0.357484
v -1.599684 0.357410 0.624184
v -1.866664 0.382250 0.722426
v -1.887554 0.281180 0.734423
v -1.838876 0.459056 0.728137
v -1.616301 0.533693 0.616994
v -1.848890 0.522364 0.685927
v -2.190520 0.706652 0.711526
v -1.181961 0.585489 0.411543
v -0.724030 0.549897 0.002682
v -0.734372 0.453641 0.018051
v -0.655744 0.544641 -0.114132
v -0.661674 0.489759 -0.095949
v -0.655469 0.666646 -0.130179
v -0.725781 0.672057 0.010211
v -0.538614 0.817711 -0.298509
v -0.503543 0.734070 -0.299849
v -0.866254 0.662319 -0.132186
v -0.794744 0.597967 -0.117414
v -0.961002 0.547739 -0.022678
v -0.737942 0.443398 -0.085528
v -0.501238 0.504719 -0.345690
v -0.814182 0.430321 0.030226
v -0.692684 0.408933 -0.067348
v -0.758389 0.401227 0.049552
v -0.735572 0.412323 0.042123
v -0.654640 0.439890 -0.111251
v -0.432187 0.545877 -0.415886
v -0.469197 0.495752 -0.375861
v -0.389902 0.609279 -0.466571
v -0.328886 0.715718 -0.659406
v -0.341833 0.607142 -0.643808
v -0.296361 0.719578 -0.748773
v -0.294413 0.608303 -0.728001
v -0.329180 0.510645 -0.700619
v -0.377697 0.510246 -0.612882
v -0.378933 0.451775 -0.675950
v -0.419056 0.453910 -0.577699
v -0.261440 0.406768 -0.857393
v -0.334056 0.421090 -0.881696
v -0.448646 0.462096 -0.661820
v -0.186007 0.333574 -1.182139
v -0.150941 0.422896 -1.167048
v 0.005737 0.464594 -1.441159
v 0.038483 0.565577 -1.630390
v 0.146254 0.537183 -1.807869
v 0.004334 0.737243 -1.735923
v 0.236123 0.503475 -1.847339
v 0.661377 0.408338 -1.920632
v 0.640172 0.306238 -1.945911
v 0.664566 0.492544 -2.003322
v 0.645482 0.475105 -2.114818
v 0.626466 0.380607 -2.136420
v 0.623556 0.289078 -2.047253
v 0.763117 0.284761 -2.173040
v 0.802052 0.302797 -2.102713
v 0.788413 0.412675 -2.081192
v 0.742759 0.506426 -2.120780
v 0.707420 0.480126 -2.203729
v 0.719215 0.375601 -2.224893
v 0.974665 0.410573 -2.641392
v 0.937782 0.467848 -2.681103
v 0.082494 0.809240 -1.817024
v -0.039504 0.705652 -1.800716
v -0.246402 0.367669 -1.182660
v -0.308876 0.474451 -1.178119
v -0.380437 0.606781 -1.151961
v -0.352407 0.723015 -1.154279
v -0.349829 0.656459 -1.407224
v -0.393474 0.783406 -1.677398
v -0.459537 0.712279 -1.683394
v -0.601883 0.800846 -2.128819
v -0.504292 0.728499 -2.306551
v -0.459983 0.844432 -2.253713
v -0.531226 0.898162 -2.127469
v -0.652419 0.845507 -2.296301
v -0.604918 0.964320 -2.305164
v -0.542660 0.785324 -2.424631
v -0.512606 0.915802 -2.413654
v -0.804320 1.054777 -2.717752
v -0.876038 1.076483 -2.619928
v -0.789879 1.153424 -2.712263
v -0.858903 1.169248 -2.619760
v -0.348095 0.768903 -0.942724
v -0.398950 0.728440 -0.977190
v -0.421981 0.603631 -0.957892
v -0.566189 0.673897 -0.690964
v -0.520723 0.520083 -0.658862
v -0.389432 0.487083 -0.906381
v -0.473754 0.458862 -0.557048
v -1.837922 0.324282 0.398135
v -2.109645 0.396934 0.523706
v -2.294458 0.402825 0.420611
v -2.262033 0.111302 0.674383
v -2.164214 0.046368 0.565072
v -2.039426 0.131349 0.623091
v -2.078384 0.058518 0.641963
v -2.253261 -0.153413 0.656124
v -2.114836 -0.032123 0.658367
v -2.208039 -0.150838 0.719458
v -2.188367 -0.004130 0.698909
v -2.126343 0.085530 0.682030
v -2.286096 -0.110178 0.770793
v -2.266307 0.033728 0.712410
v -2.227317 0.098109 0.705182
v -2.454456 -0.041867 0.728208
v -2.172876 0.311487 0.709250
v 0.200822 0.852839 -1.935171
v 0.281658 0.883485 -2.084602
v 0.338937 0.806883 -2.090184
v 0.418212 0.775061 -2.094615
v 0.441384 0.848471 -2.090702
v 0.383246 0.939423 -2.083162
v 0.296978 0.959045 -2.080825
v -2.458629 -0.168926 0.761900
v -2.331830 0.450781 0.940302
v -2.396421 0.347609 1.124642
vt 0.204307 0.110119
vt 0.204235 0.143513
vt 0.135329 0.078892
vt 0.117134 0.088126
vt 0.455695 0.086495
vt 0.384942 0.093505
vt 0.447950 0.049236
vt 0.375103 0.058436
vt 0.262993 0.838093
vt 0.297728 0.837575
vt 0.256665 0.867603
vt 0.900262 0.222252
vt 0.909321 0.261447
vt 0.868285 0.204186
vt 0.345907 0.401063
vt 0.353338 0.417764
vt 0.352457 0.434646
vt 0.543903 0.085401
vt 0.547023 0.105569
vt 0.330401 0.710771
vt 0.336149 0.662556
vt 0.343725 0.696364
vt 0.348367 0.676856
vt 0.860796 0.366551
vt 0.843682 0.439469
vt 0.833277 0.425733
vt 0.569716 0.095294
vt 0.563213 0.112134
vt 0.549322 0.059886
vt 0.577679 0.073566
vt 0.784317 0.350992
vt 0.814661 0.412045
vt 0.846734 0.089077
vt 0.873015 0.138777
vt 0.852619 0.171306
vt 0.878705 0.173672
vt 0.876058 0.099155
vt 0.773501 0.283201
vt 0.784295 0.255851
vt 0.793921 0.294889
vt 0.186211 0.605999
vt 0.222088 0.600929
vt 0.210268 0.659325
vt 0.246772 0.653735
vt 0.285152 0.596266
vt 0.389669 0.387743
vt 0.387669 0.408617
vt 0.360065 0.388308
vt 0.373012 0.404075
vt 0.819451 0.868355
vt 0.879883 0.861093
vt 0.871451 0.894317
vt 0.111394 0.749327
vt 0.092772 0.719700
vt 0.126586 0.714277
vt 0.830289 0.921312
vt 0.790627 0.903678
vt 0.076984 0.672421
vt 0.599766 0.328539
vt 0.641090 0.304252
vt 0.638447 0.355772
vt 0.681207 0.333246
vt 0.124212 0.652381
vt 0.152486 0.690518
vt 0.375541 0.427319
vt 0.392388 0.443031
vt 0.376155 0.453461
vt 0.588472 0.258794
vt 0.575407 0.292661
vt 0.286057 0.905927
vt 0.213291 0.878303
vt 0.528653 0.494708
vt 0.486952 0.488066
vt 0.495548 0.441841
vt 0.460789 0.468639
vt 0.464838 0.432689
vt 0.441291 0.457309
vt 0.457685 0.403388
vt 0.478536 0.394553
vt 0.132961 0.459495
vt 0.165022 0.454579
vt 0.144407 0.482780
vt 0.162032 0.039491
vt 0.198161 0.049402
vt 0.146490 0.799194
vt 0.131304 0.829301
vt 0.073994 0.777343
vt 0.062464 0.815752
vt 0.056029 0.748224
vt 0.163791 0.768542
vt 0.359880 0.408183
vt 0.552820 0.310715
vt 0.572640 0.854096
vt 0.581695 0.837280
vt 0.561018 0.887906
vt 0.570299 0.939924
vt 0.551824 0.905883
vt 0.066685 0.242682
vt 0.094104 0.195511
vt 0.180409 0.229069
vt 0.191140 0.201663
vt 0.191697 0.808920
vt 0.243526 0.760565
vt 0.241881 0.823497
vt 0.277965 0.770917
vt 0.220821 0.834700
vt 0.809330 0.452111
vt 0.148333 0.621089
vt 0.787847 0.475225
vt 0.802129 0.420749
vt 0.712835 0.445431
vt 0.723909 0.509874
vt 0.404033 0.429177
vt 0.416195 0.396090
vt 0.461192 0.122891
vt 0.544620 0.131019
vt 0.483247 0.151183
vt 0.533181 0.155670
vt 0.306285 0.531730
vt 0.253672 0.571176
vt 0.220492 0.548766
vt 0.326196 0.481843
vt 0.331798 0.457981
vt 0.342842 0.536826
vt 0.357626 0.467304
vt 0.394312 0.524524
vt 0.889254 0.194126
vt 0.240265 0.584007
vt 0.194813 0.561275
vt 0.212259 0.371078
vt 0.239807 0.328951
vt 0.299408 0.326040
vt 0.785847 0.212438
vt 0.814762 0.187439
vt 0.832906 0.203818
vt 0.823056 0.228227
vt 0.854200 0.234548
vt 0.832304 0.260431
vt 0.803655 0.281508
vt 0.843078 0.278145
vt 0.874487 0.264717
vt 0.810628 0.295539
vt 0.882689 0.284371
vt 0.764804 0.264855
vt 0.787997 0.170159
vt 0.552994 0.369148
vt 0.593666 0.360442
vt 0.570965 0.388272
vt 0.542051 0.404761
vt 0.532833 0.381129
vt 0.510408 0.410137
vt 0.505641 0.385205
vt 0.824096 0.151649
vt 0.352547 0.342779
vt 0.388400 0.309912
vt 0.396689 0.325763
vt 0.341035 0.061624
vt 0.340214 0.097726
vt 0.265735 0.146991
vt 0.271248 0.175042
vt 0.199252 0.170824
vt 0.273192 0.198878
vt 0.271946 0.220864
vt 0.257649 0.269189
vt 0.173778 0.280111
vt 0.123260 0.303875
vt 0.097912 0.278321
vt 0.145768 0.333013
vt 0.193135 0.320433
vt 0.943745 0.164569
vt 0.936265 0.136427
vt 0.952635 0.182550
vt 0.968134 0.216521
vt 0.593608 0.419324
vt 0.589378 0.483385
vt 0.542073 0.429437
vt 0.545659 0.492076
vt 0.159524 0.354568
vt 0.174550 0.396718
vt 0.256046 0.298644
vt 0.349678 0.267362
vt 0.348817 0.241704
vt 0.379941 0.258613
vt 0.377330 0.237225
vt 0.385017 0.285209
vt 0.351313 0.293456
vt 0.442308 0.275492
vt 0.441158 0.256710
vt 0.444792 0.292605
vt 0.380174 0.117182
vt 0.378667 0.145137
vt 0.348775 0.143621
vt 0.381334 0.170689
vt 0.476749 0.175207
vt 0.354963 0.173643
vt 0.380073 0.194403
vt 0.357615 0.193820
vt 0.353259 0.218443
vt 0.379514 0.216888
vt 0.471022 0.218080
vt 0.473490 0.196567
vt 0.470241 0.238732
vt 0.511643 0.268978
vt 0.508685 0.287816
vt 0.519000 0.247369
vt 0.531323 0.278222
vt 0.539383 0.254631
vt 0.519768 0.302579
vt 0.544564 0.230580
vt 0.522219 0.224624
vt 0.548798 0.207477
vt 0.525136 0.202238
vt 0.591863 0.230147
vt 0.592374 0.206591
vt 0.551401 0.181557
vt 0.662008 0.248273
vt 0.659010 0.273838
vt 0.726655 0.292887
vt 0.714022 0.311338
vt 0.061472 0.840420
vt 0.118799 0.855475
vt 0.058858 0.882160
vt 0.107365 0.890115
vt 0.175398 0.844166
vt 0.160068 0.912413
vt 0.209147 0.852301
vt 0.723815 0.554142
vt 0.705857 0.594552
vt 0.538866 0.549827
vt 0.549457 0.584220
vt 0.710140 0.762090
vt 0.530010 0.750261
vt 0.681949 0.725491
vt 0.525577 0.716253
vt 0.527676 0.681536
vt 0.675548 0.690469
vt 0.539806 0.649505
vt 0.694442 0.662688
vt 0.551274 0.614109
vt 0.705330 0.628508
vt 0.492980 0.614964
vt 0.485983 0.585131
vt 0.477104 0.554589
vt 0.480837 0.740874
vt 0.488619 0.709352
vt 0.494789 0.677653
vt 0.496837 0.647356
vt 0.359480 0.629237
vt 0.356040 0.649892
vt 0.339539 0.618652
vt 0.202953 0.718103
vt 0.255257 0.729066
vt 0.186591 0.742711
vt 0.658765 0.226810
vt 0.740186 0.258387
vt 0.656010 0.198239
vt 0.732897 0.228457
vt 0.647260 0.162080
vt 0.713327 0.186786
vt 0.654707 0.130715
vt 0.692310 0.153087
vt 0.678327 0.109639
vt 0.722359 0.115567
vt 0.754362 0.892473
vt 0.702815 0.895418
vt 0.725320 0.835971
vt 0.761149 0.840971
vt 0.771737 0.742940
vt 0.814487 0.735837
vt 0.852146 0.732224
vt 0.884960 0.731685
vt 0.915987 0.829926
vt 0.921518 0.720260
vt 0.910794 0.683133
vt 0.875878 0.692188
vt 0.774128 0.706078
vt 0.811389 0.704021
vt 0.845686 0.698247
vt 0.799972 0.571567
vt 0.778237 0.564532
vt 0.821691 0.561354
vt 0.844146 0.563619
vt 0.862062 0.548933
vt 0.912946 0.894853
vt 0.609625 0.107379
vt 0.627753 0.092034
vt 0.604834 0.129784
vt 0.600058 0.155592
vt 0.557439 0.134296
vt 0.553322 0.158494
vt 0.593808 0.183509
vt 0.528703 0.179617
vt 0.931654 0.104443
vt 0.746480 0.365859
vt 0.116093 0.159679
vt 0.033042 0.153909
vt 0.046199 0.116030
vt 0.037264 0.188470
vt 0.064075 0.087289
vt 0.430374 0.478869
vt 0.467220 0.505578
vt 0.453304 0.534530
vt 0.413998 0.502426
vt 0.185871 0.475112
vt 0.157876 0.507521
vt 0.148439 0.578486
vt 0.114103 0.531436
vt 0.096915 0.463862
vt 0.880565 0.508692
vt 0.823878 0.498788
vt 0.096099 0.504258
vt 0.078768 0.471374
vt 0.902984 0.532066
vt 0.915568 0.511179
vt 0.896386 0.490200
vt 0.942291 0.533116
vt 0.056449 0.472949
vt 0.923863 0.486566
vt 0.912380 0.469053
vt 0.141030 0.433765
vt 0.248373 0.502148
vt 0.306049 0.809008
vt 0.375022 0.797102
vt 0.371961 0.823745
vt 0.370771 0.851842
vt 0.370020 0.875890
vt 0.363056 0.902787
vt 0.354950 0.934363
vt 0.210157 0.928419
vt 0.384371 0.773993
vt 0.082459 0.433825
vt 0.685216 0.399721
vt 0.770926 0.095487
vt 0.796711 0.125718
vt 0.795970 0.057823
vn -0.5166 0.3453 -0.7835
vn -0.3740 0.0975 -0.9223
vn -0.3449 0.4611 -0.8176
vn -0.1800 0.4813 -0.8579
vn -0.5420 0.8022 -0.2505
vn -0.5473 0.7696 -0.3289
vn 0.3678 0.8861 0.2822
vn -0.4225 0.8652 -0.2702
vn 0.9855 0.0085 0.1692
vn 0.3099 0.9508 0.0007
vn -0.4156 0.9023 -0.1148
vn 0.6097 0.6951 0.3808
vn -0.7474 -0.6643 -0.0109
vn -0.6533 -0.7121 -0.2571
vn -0.6302 -0.7653 0.1310
vn 0.0927 0.9911 -0.0957
vn -0.5260 0.8130 -0.2498
vn 0.8134 0.0520 -0.5794
vn 0.8099 0.1691 -0.5617
vn -0.5989 -0.5903 0.5412
vn -0.4989 -0.8355 -0.2303
vn -0.4818 -0.8562 -0.1864
vn -0.0914 0.9848 -0.1480
vn -0.0361 0.9993 0.0026
vn 0.7089 0.6508 0.2720
vn 0.4934 0.8674 0.0650
vn -0.4589 -0.7935 0.3997
vn -0.4278 -0.9038 0.0145
vn 0.6604 0.0131 0.7508
vn 0.7580 0.0211 0.6519
vn 0.8153 0.0130 0.5790
vn 0.7433 0.2393 0.6247
vn 0.8194 0.0658 0.5694
vn 0.4849 0.6328 0.6037
vn 0.0482 -0.9880 0.1467
vn -0.3480 -0.9245 -0.1558
vn 0.0073 -0.9733 0.2292
vn -0.1987 -0.2234 -0.9542
vn 0.0914 -0.1571 -0.9834
vn -0.0604 -0.1386 -0.9885
vn 0.2223 -0.4684 -0.8551
vn 0.2766 0.9452 0.1733
vn 0.3092 0.9074 0.2847
vn 0.2618 0.9248 0.2760
vn 0.3261 0.8539 0.4056
vn 0.2350 0.3628 -0.9018
vn 0.2364 0.3634 -0.9011
vn 0.2355 0.3625 -0.9018
vn 0.2438 0.3691 -0.8968
vn -0.1139 -0.5676 -0.8154
vn -0.0594 -0.9693 -0.2385
vn -0.1759 -0.9580 -0.2264
vn -0.8215 -0.5684 0.0456
vn 0.0018 0.9998 0.0191
vn 0.4406 0.8800 -0.1778
vn 0.5954 0.8033 0.0129
vn 0.4582 0.8837 -0.0956
vn 0.8812 0.4360 0.1829
vn 0.6656 0.7010 0.2561
vn -0.3723 0.9116 0.1742
vn -0.1742 -0.7328 -0.6577
vn 0.1211 -0.4709 -0.8738
vn -0.1943 -0.7028 -0.6844
vn -0.0144 -0.6626 -0.7488
vn 0.9388 0.0203 0.3438
vn 0.8982 0.4270 0.1043
vn 0.7406 0.2195 0.6350
vn 0.8620 -0.1151 0.4936
vn 0.1687 -0.0544 0.9842
vn 0.3233 0.4155 -0.8502
vn -0.0742 0.7189 -0.6911
vn 0.3479 0.5357 -0.7694
vn -0.1967 0.7782 -0.5964
vn 0.2265 0.6281 -0.7444
vn -0.2560 0.8370 -0.4837
vn -0.5207 0.6668 -0.5332
vn -0.5277 -0.1606 -0.8341
vn -0.5194 0.3976 -0.7564
vn -0.4051 -0.0461 -0.9131
vn 0.0238 0.4233 0.9057
vn 0.1970 0.7924 0.5773
vn 0.1847 0.5254 0.8306
vn -0.3464 0.7548 -0.5570
vn -0.0733 -0.8921 -0.4459
vn 0.2293 -0.9474 -0.2232
vn 0.0634 -0.9345 -0.3502
vn -0.0452 -0.9519 -0.3029
vn -0.5005 -0.0632 -0.8634
vn -0.6997 0.6998 -0.1440
vn -0.2375 0.7070 -0.6661
vn -0.4872 0.6915 -0.5334
vn -0.7414 0.6577 -0.1332
vn -0.6036 -0.5489 -0.5782
vn 0.5539 0.8278 -0.0894
vn 0.5613 0.4919 -0.6655
vn 0.5608 0.4912 -0.6665
vn 0.5610 0.4914 -0.6662
vn 0.5608 0.4909 -0.6667
vn 0.1801 -0.8823 0.4348
vn 0.2275 -0.8963 0.3805
vn 0.3978 -0.8278 0.3957
vn 0.0626 -0.9771 -0.2034
vn -0.5420 -0.6891 -0.4810
vn -0.6542 -0.1411 -0.7431
vn -0.5142 -0.4257 -0.7446
vn -0.5578 -0.0637 -0.8276
vn -0.4706 -0.8236 -0.3164
vn 0.5293 0.5772 -0.6218
vn 0.4386 0.5700 -0.6948
vn 0.2641 -0.9262 -0.2689
vn -0.3458 -0.9057 -0.2453
vn -0.0112 -0.9943 -0.1060
vn 0.0942 -0.9113 0.4009
vn -0.9743 -0.2237 -0.0274
vn 0.1965 0.9799 -0.0355
vn 0.0929 0.9733 -0.2097
vn -0.8480 -0.0687 -0.5256
vn -0.9553 0.0634 -0.2887
vn -0.7937 -0.5311 -0.2966
vn -0.8375 -0.5453 0.0365
vn -0.4987 -0.6381 0.5866
vn -0.5949 -0.5807 0.5557
vn -0.8175 -0.5076 0.2723
vn 0.0711 -0.9964 -0.0464
vn -0.5473 -0.7610 0.3484
vn -0.4177 -0.6872 0.5944
vn 0.5987 0.7406 0.3050
vn -0.5826 -0.7981 -0.1534
vn -0.8596 -0.5045 -0.0811
vn -0.7650 -0.3766 -0.5224
vn -0.7400 -0.0388 -0.6715
vn -0.6842 -0.5482 0.4810
vn -0.1499 -0.7926 -0.5910
vn 0.3377 0.5219 0.7834
vn 0.4475 0.5687 0.6902
vn 0.7007 -0.7073 0.0933
vn 0.5229 -0.8436 0.1224
vn 0.9041 -0.1940 0.3808
vn 0.9555 0.0043 0.2951
vn 0.5060 0.8200 0.2676
vn 0.9143 0.2997 0.2725
vn 0.9728 0.1756 0.1511
vn 0.9471 -0.2970 0.1218
vn -0.2634 0.9454 -0.1917
vn -0.1431 0.9873 -0.0687
vn -0.3981 0.9174 0.0006
vn -0.2548 0.9644 -0.0715
vn -0.2186 0.9745 0.0503
vn -0.2335 0.9707 -0.0571
vn -0.2042 0.9785 0.0298
vn -0.2262 0.9606 0.1613
vn -0.8345 0.4894 -0.2531
vn -0.8314 0.5156 -0.2073
vn 0.2316 -0.5482 0.8036
vn 0.2374 -0.4368 0.8677
vn 0.2391 -0.3593 0.9021
vn 0.3803 -0.8990 0.2170
vn -0.8284 0.5370 -0.1594
vn -0.3572 0.9069 -0.2235
vn -0.6549 0.7542 -0.0476
vn -0.4896 0.8031 -0.3397
vn -0.6532 0.7364 -0.1759
vn 0.2629 0.5332 0.8041
vn 0.5554 -0.4198 0.7178
vn 0.5552 0.4991 0.6653
vn 0.7838 0.2243 0.5791
vn 0.6189 0.4933 0.6112
vn -0.3520 0.8283 -0.4359
vn -0.5847 0.4515 -0.6739
vn -0.5150 -0.2753 -0.8118
vn -0.4739 -0.3584 -0.8043
vn -0.2924 -0.2419 -0.9252
vn 0.0471 -0.9896 -0.1358
vn -0.2481 -0.3549 -0.9014
vn 0.5301 -0.4813 0.6981
vn 0.3537 -0.5642 0.7461
vn -0.0220 -0.9664 -0.2561
vn 0.6068 -0.1907 0.7716
vn 0.3457 -0.4466 0.8253
vn 0.5190 -0.1379 0.8435
vn 0.4900 -0.5201 0.6995
vn 0.4983 0.1148 0.8593
vn 0.3506 0.2619 0.8991
vn 0.3684 0.6832 0.6305
vn 0.0404 0.8857 -0.4624
vn 0.4157 0.9062 -0.0775
vn 0.5013 0.1882 0.8446
vn 0.7785 -0.0106 0.6276
vn 0.6739 0.2162 0.7064
vn 0.7736 0.1115 0.6238
vn 0.8272 0.0347 0.5609
vn 0.8505 0.0071 0.5259
vn 0.7443 0.1620 0.6479
vn 0.7384 0.3192 0.5940
vn 0.7862 0.1961 0.5860
vn -0.5972 -0.1788 -0.7819
vn -0.4999 -0.5483 -0.6705
vn -0.4820 -0.4028 -0.7781
vn -0.5865 -0.6026 -0.5412
vn -0.7601 -0.4132 -0.5015
vn -0.3219 -0.6813 -0.6574
vn -0.4106 -0.8029 -0.4322
vn 0.2329 -0.9710 0.0537
vn 0.7113 -0.2989 0.6362
vn 0.8399 -0.1993 0.5048
vn 0.8153 -0.3771 0.4394
vn 0.8653 -0.2449 0.4374
vn 0.5210 -0.7539 0.4002
vn 0.9159 -0.0858 0.3922
vn 0.9117 0.2273 0.3421
vn 0.9186 -0.1231 0.3755
vn 0.9271 0.3042 0.2191
vn 0.9161 0.0132 0.4006
vn 0.8200 -0.2744 0.5024
vn 0.8695 -0.3326 0.3653
vn 0.3809 -0.8688 0.3164
vn 0.4354 -0.8750 0.2118
vn 0.8738 -0.2492 0.4177
vn -0.2337 -0.9635 0.1304
vn -0.4950 -0.8688 -0.0158
vn -0.4339 -0.8933 -0.1172
vn -0.4322 -0.8889 -0.1518
vn 0.8500 -0.3930 0.3508
vn 0.9312 -0.1399 0.3367
vn 0.8182 -0.4090 0.4040
vn 0.9134 0.0694 0.4011
vn 0.9798 -0.0733 0.1861
vn 0.7948 0.3549 0.4923
vn 0.8760 0.0116 0.4822
vn 0.5004 0.6894 0.5237
vn 0.8559 0.1432 0.4969
vn 0.3296 0.5412 0.7736
vn 0.1379 -0.9899 0.0328
vn -0.2951 -0.9278 0.2282
vn 0.1850 -0.1719 0.9676
vn 0.1603 -0.2700 0.9494
vn 0.5202 0.0966 0.8486
vn 0.1472 -0.7494 0.6456
vn 0.5986 0.5558 0.5768
vn 0.3985 0.8933 -0.2079
vn 0.3307 0.8890 -0.3167
vn -0.3095 0.2707 -0.9116
vn -0.5326 -0.2480 -0.8092
vn -0.2268 0.3686 -0.9015
vn -0.0115 0.3562 -0.9343
vn -0.4937 -0.6518 -0.5757
vn -0.3855 -0.8973 0.2151
vn -0.0757 -0.9810 0.1785
vn 0.3412 -0.9388 0.0473
vn 0.7015 -0.6020 0.3813
vn 0.8192 0.2594 0.5115
vn 0.7089 0.5443 0.4486
vn -0.3104 0.9459 -0.0948
vn -0.3606 0.9254 -0.1170
vn -0.3110 0.9425 -0.1221
vn -0.7606 0.5368 -0.3651
vn -0.8790 -0.0027 -0.4768
vn -0.8209 0.0229 -0.5706
vn -0.6509 -0.3730 -0.6612
vn -0.6685 -0.5851 -0.4591
vn -0.5986 -0.6796 -0.4242
vn -0.5658 -0.5844 -0.5817
vn 0.7179 -0.6900 0.0920
vn 0.9198 -0.2644 0.2899
vn 0.8179 0.4262 0.3865
vn 0.6180 0.7060 0.3459
vn -0.7676 0.5639 -0.3045
vn -0.8662 0.3212 -0.3827
vn -0.9006 0.0014 -0.4346
vn -0.6413 0.7649 0.0610
vn -0.6485 0.7294 -0.2180
vn -0.5198 0.8467 0.1138
vn -0.6395 0.7665 0.0590
vn -0.6228 0.0713 -0.7791
vn -0.5495 0.2403 -0.8002
vn -0.6547 -0.7422 -0.1430
vn -0.8608 -0.4873 -0.1468
vn -0.9803 -0.1216 -0.1553
vn -0.4733 0.8356 -0.2789
vn -0.9914 -0.0948 -0.0898
vn -0.3326 0.9286 0.1643
vn -0.3796 0.9061 0.1867
vn -0.3240 0.8350 0.4447
vn -0.6891 0.6066 0.3964
vn -0.6924 0.6133 0.3801
vn -0.6988 0.6160 0.3636
vn -0.8226 -0.5241 0.2208
vn -0.8344 -0.5160 0.1937
vn -0.8386 -0.5123 0.1852
vn -0.8462 -0.5050 0.1700
vn -0.7289 -0.6729 -0.1263
vn 0.9124 -0.1278 -0.3889
vn 0.9050 -0.1677 -0.3910
vn 0.6483 0.7602 0.0423
vn 0.6612 0.7497 0.0271
vn 0.7028 0.7109 -0.0243
vn 0.7151 0.6978 -0.0410
vn -0.7541 0.5424 0.3703
vn -0.7561 0.5419 0.3671
vn -0.7544 0.5426 0.3693
vn -0.7014 0.6221 0.3479
vn -0.7536 0.5420 0.3719
vn -0.8078 0.3579 0.4683
vn -0.6206 -0.7838 -0.0217
vn -0.6181 -0.7678 -0.1686
vn 0.9078 -0.1771 -0.3802
vn 0.9085 -0.1763 -0.3788
vn 0.9087 -0.1761 -0.3785
vn 0.9092 -0.1755 -0.3775
vn 0.5964 0.7876 0.1552
vn 0.6315 0.7749 0.0266
vn -0.6137 -0.7727 -0.1625
vn -0.5366 -0.8167 -0.2122
vn 0.7137 -0.0657 -0.6974
vn 0.6890 -0.0983 -0.7180
vn 0.5685 0.8139 0.1198
vn 0.4590 0.8670 0.1942
vn -0.6333 0.3062 0.7108
vn -0.7650 0.1402 0.6286
vn 0.6719 0.7195 -0.1756
vn -0.1911 0.9664 -0.1718
vn -0.7817 0.5529 -0.2886
vn -0.9265 -0.1614 -0.3399
vn -0.9243 0.1540 -0.3493
vn -0.7437 0.6153 -0.2615
vn -0.7919 -0.5618 -0.2394
vn -0.8031 -0.5380 -0.2560
vn -0.4022 -0.9142 0.0507
vn 0.9973 -0.0260 0.0682
vn 0.9734 -0.0383 0.2260
vn 0.3868 -0.8504 -0.3566
vn -0.2645 -0.0670 -0.9621
vn -0.1939 -0.3955 -0.8978
vn 0.1200 0.1883 -0.9748
vn 0.3509 -0.0418 -0.9355
vn 0.4324 0.5327 -0.7275
vn 0.5234 0.5115 -0.6814
vn -0.0907 -0.8558 -0.5092
vn -0.5802 0.3181 -0.7498
vn -0.0081 -0.1866 -0.9824
vn 0.5826 -0.1410 -0.8005
vn 0.7648 -0.2444 -0.5961
vn 0.6464 -0.3987 -0.6506
vn 0.9267 -0.3360 -0.1682
vn 0.5848 -0.4896 -0.6468
vn -0.1683 -0.4288 -0.8876
vn 0.5771 -0.3154 0.7533
vn 0.7004 -0.4670 0.5398
vn 0.2509 -0.2692 -0.9298
vn 0.5985 -0.7055 0.3796
vn 0.2974 -0.9387 -0.1742
vn 0.6062 -0.6844 -0.4050
vn 0.4960 0.0078 0.8683
vn 0.4085 0.0343 0.9121
vn 0.4297 -0.2979 0.8524
vn 0.3195 -0.4295 0.8446
vn 0.2064 0.0161 0.9783
vn 0.2206 -0.0241 0.9751
vn -0.5081 0.4245 -0.7494
vn -0.7343 0.4199 -0.5333
vn 0.5913 -0.5394 0.5996
vn 0.9933 -0.1073 0.0428
vn 0.2054 -0.5319 -0.8215
vn 0.2427 -0.4423 -0.8634
vn 0.4095 -0.6227 -0.6668
vn -0.7719 0.6158 -0.1579
vn -0.6338 0.7652 -0.1128
vn -0.5131 0.8549 -0.0760
vn 0.4063 0.4000 -0.8215
vn 0.3061 0.3986 -0.8645
vn 0.3874 -0.9217 0.0205
vn -0.7046 -0.5313 -0.4703
vn -0.9043 -0.1960 -0.3792
vn -0.5621 -0.7571 -0.3329
vn -0.6338 -0.5571 -0.5366
vn -0.3936 -0.8551 -0.3375
vn 0.0696 0.3839 -0.9207
vn -0.6081 -0.4871 -0.6269
vn 0.8149 -0.2842 0.5051
vn 0.9028 -0.3013 0.3069
vn 0.9368 -0.3049 0.1717
vn 0.7534 0.4412 0.4875
vn 0.8293 0.3383 0.4447
vn 0.2229 0.9599 0.1699
vn 0.2231 0.9626 0.1540
vn 0.2233 0.9681 0.1140
vn -0.6846 0.7130 -0.1517
vn -0.9460 0.2044 -0.2515
vn -0.8120 0.1922 -0.5511
vn -0.3989 0.9160 -0.0428
vn -0.9767 -0.1585 -0.1446
vn -0.6873 -0.6762 -0.2653
vn 0.0950 -0.9558 -0.2784
vn 0.9537 -0.3002 -0.0168
vn 0.9562 0.2583 0.1379
vn 0.9636 0.2302 0.1358
vn 0.2223 0.9528 0.2065
vn 0.0811 0.9797 0.1833
vn -0.5164 -0.2291 0.8251
vn -0.4737 -0.1935 0.8591
vn 0.1378 -0.8904 0.4338
vn 0.1378 -0.8904 0.4339
vn 0.9064 0.1646 0.3892
vn 0.2363 -0.1651 0.9575
vn -0.6302 -0.7653 0.1311
vn -0.7809 0.1453 -0.6075
vn -0.7809 0.1456 -0.6074
vn -0.7815 0.1479 -0.6061
vn -0.7816 0.1481 -0.6059
vn -0.4807 -0.3465 -0.8055
vn -0.4339 -0.2176 -0.8743
vn 0.1605 -0.8668 0.4721
vn -0.8709 -0.4797 0.1071
vn -0.3408 -0.7644 -0.5473
vn 0.5040 -0.2765 0.8182
vn -0.6262 -0.2784 0.7282
vn 0.6661 0.3740 0.6453
usemtl lambert5
s 1
f 1/1/1 2/2/2 3/3/3
f 3/3/3 2/2/2 4/4/4
f 5/5/5 6/6/6 7/7/7
f 7/7/7 6/6/6 8/8/8
f 9/9/9 10/10/9 11/11/9
f 12/12/10 13/13/11 14/14/12
f 15/15/13 16/16/14 17/17/15
f 7/7/7 18/18/16 5/5/5
f 5/5/5 18/18/16 19/19/17
f 20/20/18 21/21/18 22/22/18
f 22/22/19 21/21/19 23/23/19
f 24/24/20 25/25/21 26/26/22
f 18/18/16 27/27/23 19/19/17
f 19/19/17 27/27/23 28/28/24
f 29/29/25 30/30/26 18/18/16
f 18/18/16 30/30/26 27/27/23
f 31/31/27 24/24/20 32/32/28
f 32/32/28 24/24/20 26/26/22
f 31/33/29 33/34/30 34/35/31
f 34/35/31 33/34/30 35/36/32
f 33/34/30 31/33/29 36/37/33
f 37/38/34 38/39/34 39/40/34
f 40/41/35 41/42/36 42/43/37
f 42/43/38 41/42/39 43/44/40
f 41/42/39 44/45/41 43/44/40
f 45/46/42 46/47/43 47/48/44
f 47/48/45 46/47/45 48/49/45
f 49/50/46 50/51/47 51/52/48
f 51/53/48 50/54/47 52/55/49
f 51/52/50 53/56/51 49/50/52
f 49/50/52 53/56/51 54/57/53
f 52/55/54 50/54/55 55/58/56
f 56/59/57 57/60/58 55/61/56
f 55/61/56 57/60/58 58/62/59
f 55/58/56 58/63/59 52/55/54
f 52/55/54 58/63/59 59/64/60
f 60/65/61 61/66/62 17/17/63
f 17/17/63 61/66/62 62/67/64
f 63/68/65 57/60/58 64/69/66
f 11/11/67 65/70/68 66/71/69
f 4/72/4 67/73/70 68/74/71
f 68/74/71 69/75/72 70/76/73
f 70/76/73 69/75/72 71/77/74
f 70/76/73 72/78/75 73/79/76
f 74/80/77 75/81/78 76/82/79
f 3/3/80 77/83/81 78/84/82
f 78/84/83 1/1/1 3/3/3
f 79/85/84 80/86/85 81/87/86
f 81/87/86 80/86/85 82/88/87
f 81/87/86 53/89/51 51/53/50
f 81/87/86 51/53/50 79/85/84
f 79/85/84 51/53/50 83/90/88
f 47/48/89 48/49/90 84/91/91
f 47/48/89 84/91/91 15/15/92
f 15/15/13 84/91/93 16/16/14
f 57/60/58 56/59/57 64/69/66
f 64/69/66 56/59/57 85/92/94
f 86/93/95 87/94/96 88/95/97
f 88/95/97 87/96/96 89/97/98
f 90/98/99 91/99/100 92/100/101
f 92/100/101 91/99/100 93/101/102
f 94/102/103 95/103/104 96/104/105
f 96/104/105 95/103/104 97/105/106
f 96/104/105 98/106/107 94/102/103
f 46/47/108 60/65/109 48/49/90
f 48/49/90 60/65/109 84/91/91
f 26/26/110 25/25/111 99/107/112
f 42/43/37 100/108/113 40/41/35
f 99/107/114 100/109/114 101/110/114
f 90/111/99 100/109/113 42/112/37
f 102/113/115 103/114/116 71/77/74
f 71/77/74 103/114/116 72/78/75
f 104/115/117 105/116/118 106/117/119
f 106/117/119 105/116/118 107/118/120
f 108/119/121 109/120/122 110/121/123
f 111/122/124 112/123/125 108/124/121
f 112/123/125 113/125/126 108/124/121
f 108/124/121 113/125/126 109/126/122
f 12/12/10 14/14/12 114/127/127
f 115/128/128 41/42/129 110/121/130
f 110/121/130 41/42/129 116/129/131
f 44/45/132 41/42/129 115/128/128
f 110/121/130 109/120/133 115/128/128
f 115/128/128 109/120/133 44/45/41
f 78/130/82 117/131/134 118/132/135
f 17/17/63 16/16/14 60/65/61
f 60/65/61 16/16/14 84/91/93
f 119/133/136 120/134/137 121/135/138
f 119/133/136 121/135/138 122/136/139
f 122/136/139 121/135/138 123/137/140
f 123/137/140 121/135/138 14/14/12
f 14/14/12 121/135/138 34/35/31
f 123/137/140 14/14/12 13/13/11
f 123/137/140 124/138/141 122/136/139
f 124/138/141 125/139/142 122/136/139
f 122/136/139 125/139/142 38/39/143
f 124/138/144 123/137/140 126/140/145
f 126/140/145 123/137/140 127/141/146
f 126/140/147 128/142/148 124/138/149
f 124/138/149 128/142/148 125/139/150
f 128/142/148 39/40/151 125/139/150
f 126/140/152 127/141/146 129/143/153
f 119/133/154 38/39/155 130/144/156
f 119/133/136 131/145/157 120/134/137
f 132/146/158 129/147/153 13/148/11
f 13/13/11 129/143/153 127/141/146
f 13/148/11 133/149/159 132/146/158
f 132/146/158 133/149/159 134/150/160
f 133/149/159 135/151/161 134/150/160
f 134/150/160 135/151/161 136/152/162
f 136/152/162 135/151/161 73/79/76
f 73/79/76 135/151/161 70/76/73
f 123/137/140 13/13/11 127/141/146
f 39/40/163 38/39/163 125/139/163
f 121/135/138 120/134/137 34/35/31
f 34/35/31 120/134/137 137/153/164
f 118/132/135 138/154/165 78/130/82
f 138/154/165 139/155/166 8/156/167
f 138/157/168 8/8/8 140/158/169
f 140/158/169 8/8/8 6/6/6
f 138/157/168 140/158/169 78/84/83
f 140/158/169 1/1/1 78/84/83
f 141/159/170 2/2/2 1/1/1
f 142/160/171 143/161/172 141/159/170
f 141/159/170 143/161/172 2/2/2
f 142/160/171 144/162/173 143/161/172
f 143/161/172 144/162/173 93/101/174
f 144/162/173 145/163/175 93/101/176
f 93/101/102 145/163/177 92/100/101
f 145/163/175 146/164/178 92/100/101
f 92/100/101 146/164/178 147/165/179
f 147/165/179 148/166/180 92/100/101
f 92/100/101 148/166/180 149/167/181
f 148/166/180 147/165/179 150/168/182
f 150/168/182 147/165/179 151/169/183
f 150/170/182 35/36/32 148/171/180
f 148/171/180 35/36/32 33/34/30
f 152/172/184 114/127/127 150/170/182
f 150/170/182 114/127/127 35/36/32
f 114/127/127 152/172/184 12/12/10
f 152/172/184 77/173/81 12/12/10
f 12/174/10 77/175/81 153/176/185
f 153/176/185 77/175/81 3/177/186
f 68/74/71 153/176/185 4/72/4
f 4/72/4 153/176/185 3/177/3
f 152/178/184 151/169/183 78/130/82
f 152/178/184 78/130/82 77/179/81
f 151/169/183 117/131/134 78/130/82
f 151/169/183 152/178/184 150/168/182
f 117/131/134 151/169/183 154/180/187
f 154/180/187 151/169/183 146/164/178
f 146/164/178 151/169/183 147/165/179
f 154/180/187 118/132/135 117/131/134
f 146/164/178 145/163/175 155/181/188
f 155/181/188 145/163/175 156/182/189
f 155/181/188 156/182/189 157/183/190
f 157/183/190 156/182/189 158/184/191
f 157/183/190 159/185/192 155/181/188
f 155/181/188 159/185/192 160/186/193
f 159/185/192 157/183/190 161/187/194
f 161/187/194 157/183/190 162/188/195
f 161/187/194 7/189/7 159/185/192
f 159/185/192 7/189/7 139/155/166
f 159/185/192 139/155/166 160/186/193
f 160/186/193 139/155/166 138/154/165
f 7/189/7 8/156/167 139/155/166
f 104/115/117 163/190/196 5/5/5
f 5/5/5 163/190/196 6/6/6
f 106/117/119 164/191/197 104/115/117
f 104/115/117 164/191/197 163/190/196
f 164/191/197 165/192/198 163/190/196
f 163/190/196 165/192/198 140/158/169
f 164/191/197 106/117/119 166/193/199
f 166/193/199 106/117/119 167/194/200
f 166/193/199 168/195/201 164/191/197
f 164/191/197 168/195/201 165/192/198
f 168/195/201 142/160/171 165/192/198
f 165/192/198 142/160/171 141/159/170
f 166/193/199 169/196/202 168/195/201
f 168/195/201 169/196/202 170/197/203
f 170/197/203 144/162/173 168/195/201
f 168/195/201 144/162/173 142/160/171
f 170/197/203 171/198/204 144/162/173
f 144/162/173 171/198/204 145/163/175
f 171/198/204 156/182/189 145/163/175
f 171/198/204 170/197/203 172/199/205
f 172/199/205 170/197/203 169/196/206
f 172/199/205 158/184/191 171/198/204
f 171/198/204 158/184/191 156/182/189
f 172/199/205 169/196/206 173/200/207
f 173/200/207 169/196/206 174/201/208
f 173/200/207 175/202/209 172/199/205
f 172/199/205 175/202/209 158/184/191
f 175/202/209 162/188/195 158/184/191
f 158/184/191 162/188/195 157/183/190
f 162/188/195 176/203/210 161/187/194
f 161/187/194 176/203/210 29/204/25
f 161/187/194 29/204/25 7/189/7
f 7/7/7 29/29/25 18/18/16
f 162/188/195 175/202/209 176/203/210
f 176/203/210 175/202/209 177/205/211
f 176/203/210 177/205/211 178/206/212
f 178/206/212 177/205/211 179/207/213
f 176/203/210 178/206/212 29/204/25
f 29/204/25 178/206/212 30/208/26
f 178/206/212 179/207/213 64/69/66
f 64/69/66 179/207/213 63/68/65
f 64/69/66 85/92/94 178/206/212
f 178/206/212 85/92/94 30/208/26
f 179/207/213 177/205/211 180/209/214
f 180/209/214 177/205/211 181/210/215
f 179/207/213 180/209/214 63/68/65
f 180/209/214 181/210/215 182/211/216
f 182/211/216 181/210/215 183/212/217
f 182/211/216 184/213/218 180/209/214
f 180/209/214 184/213/218 63/68/65
f 184/213/219 182/211/216 185/214/220
f 185/214/220 182/211/216 186/215/221
f 185/214/220 187/216/222 184/213/219
f 184/213/218 187/216/223 188/217/224
f 184/213/218 188/217/224 63/68/65
f 63/68/65 188/217/224 57/60/58
f 187/216/223 82/218/225 188/217/224
f 188/217/224 82/218/225 189/219/226
f 189/219/226 58/62/59 188/217/224
f 188/217/224 58/62/59 57/60/58
f 189/220/226 82/88/227 190/221/228
f 190/221/228 82/88/227 80/86/229
f 189/220/226 190/221/228 58/222/59
f 58/222/59 190/221/228 59/223/230
f 190/221/228 80/86/229 191/224/231
f 59/223/230 190/221/228 192/225/232
f 80/86/85 79/85/84 191/224/233
f 191/224/233 79/85/84 94/102/103
f 94/102/103 98/106/107 191/224/233
f 191/224/233 98/106/107 193/226/234
f 191/224/235 193/226/236 66/71/69
f 66/227/69 193/228/236 194/229/237
f 194/229/237 193/228/236 195/230/238
f 66/231/69 194/232/237 11/233/67
f 11/233/67 194/232/237 196/234/239
f 196/234/240 197/235/240 11/233/240
f 11/233/241 197/235/241 9/236/241
f 197/235/242 198/237/243 9/236/244
f 9/236/244 198/237/243 96/238/245
f 198/237/243 199/239/246 96/238/105
f 96/238/105 199/239/246 98/240/107
f 98/240/107 199/239/246 193/228/234
f 193/228/247 199/239/248 195/230/238
f 199/239/248 200/241/249 195/230/238
f 195/230/238 200/241/249 201/242/250
f 195/230/238 201/242/250 194/229/237
f 194/229/237 201/242/250 202/243/251
f 194/232/237 202/244/251 196/234/239
f 196/234/239 202/244/251 203/245/252
f 196/234/253 203/245/254 197/235/255
f 197/235/255 203/245/254 204/246/256
f 204/246/256 205/247/257 197/235/258
f 197/235/242 205/247/259 198/237/243
f 200/241/260 205/247/260 206/248/260
f 206/248/261 205/247/261 207/249/261
f 205/247/259 200/241/262 198/237/243
f 198/237/243 200/241/262 199/239/246
f 200/241/249 206/248/263 201/242/250
f 201/242/250 206/248/263 20/250/264
f 201/242/250 20/250/264 202/243/251
f 202/244/251 20/20/264 22/22/265
f 202/244/251 22/22/265 203/245/252
f 203/245/252 22/22/265 23/23/266
f 203/245/254 23/23/267 204/246/256
f 204/246/256 23/23/267 21/21/268
f 21/21/268 207/249/269 204/246/256
f 204/246/256 207/249/269 205/247/257
f 192/251/270 208/252/270 209/253/270
f 209/253/271 208/252/271 95/103/271
f 52/55/54 59/64/60 209/253/272
f 209/253/272 59/64/60 192/251/273
f 209/253/274 83/90/88 52/55/275
f 52/55/275 83/90/88 51/53/50
f 210/254/276 81/255/86 187/216/222
f 187/216/222 81/255/86 82/218/87
f 211/256/277 53/257/51 210/254/276
f 210/254/276 53/257/51 81/255/86
f 212/258/278 54/259/53 211/256/277
f 211/256/277 54/259/53 53/257/51
f 213/260/279 214/261/280 212/258/278
f 212/258/278 214/261/280 54/259/53
f 213/260/279 56/262/57 214/261/281
f 214/261/281 56/262/57 55/263/282
f 54/57/53 214/264/280 49/50/52
f 55/265/282 215/266/283 214/264/281
f 214/264/284 215/266/285 216/267/286
f 214/264/287 216/267/288 49/50/289
f 216/267/288 217/268/290 49/50/289
f 49/50/291 217/268/291 218/269/291
f 49/50/292 218/269/292 50/51/292
f 50/51/293 218/269/293 219/270/293
f 219/270/294 220/271/295 50/51/296
f 50/51/296 220/271/295 215/272/297
f 220/271/298 217/273/299 215/272/300
f 215/266/285 217/268/301 216/267/286
f 217/273/299 220/271/298 221/274/302
f 221/274/303 220/271/303 222/275/303
f 217/268/304 221/276/304 218/269/304
f 218/269/305 221/276/305 223/277/305
f 223/277/306 224/278/307 218/269/308
f 218/269/308 224/278/307 219/270/309
f 224/278/310 222/275/310 219/270/310
f 219/270/311 222/275/311 220/271/311
f 223/277/312 221/276/312 225/279/312
f 225/279/313 221/276/313 226/280/313
f 225/279/314 227/281/314 223/277/314
f 223/277/315 227/281/315 224/278/315
f 224/278/316 227/281/316 222/275/316
f 222/275/317 227/281/317 228/282/317
f 222/275/318 228/282/318 221/274/318
f 221/274/319 228/282/319 226/283/319
f 55/284/56 50/51/55 215/272/320
f 229/285/321 85/286/94 213/260/279
f 213/260/279 85/286/94 56/262/57
f 212/258/278 230/287/322 213/260/279
f 213/260/279 230/287/322 229/285/321
f 28/28/24 27/27/23 230/287/322
f 230/287/322 27/27/23 229/285/321
f 230/287/322 212/258/278 231/288/323
f 231/288/323 212/258/278 211/256/277
f 231/288/323 232/289/324 230/287/322
f 230/287/322 232/289/324 28/28/325
f 232/289/324 105/116/118 28/28/325
f 28/28/325 105/116/118 19/19/17
f 232/289/324 231/288/323 233/290/326
f 233/290/326 231/288/323 234/291/327
f 232/289/324 233/290/326 105/116/118
f 105/116/118 233/290/326 107/118/120
f 233/290/326 234/291/327 186/215/221
f 186/215/221 234/291/327 185/214/220
f 233/290/326 186/215/221 107/118/120
f 107/118/120 186/215/221 235/292/328
f 167/194/200 106/117/119 235/292/328
f 235/292/328 106/117/119 107/118/120
f 186/215/221 182/211/216 235/292/328
f 235/292/328 182/211/216 183/212/217
f 235/292/328 183/212/217 167/194/200
f 167/194/200 183/212/217 174/201/208
f 183/212/217 181/210/215 174/201/208
f 174/201/208 181/210/215 173/200/207
f 181/210/215 177/205/211 173/200/207
f 173/200/207 177/205/211 175/202/209
f 231/288/323 211/256/277 234/291/327
f 234/291/327 211/256/277 210/254/276
f 234/291/327 210/254/276 185/214/220
f 185/214/220 210/254/276 187/216/222
f 27/27/23 30/30/26 229/285/321
f 229/285/321 30/30/26 85/286/94
f 169/196/202 166/193/199 174/201/208
f 174/201/208 166/193/199 167/194/200
f 165/192/198 141/159/170 140/158/169
f 140/158/169 141/159/170 1/1/1
f 163/190/196 140/158/169 6/6/6
f 148/171/180 33/34/30 149/293/181
f 149/293/181 33/34/30 36/37/33
f 100/109/329 36/294/33 101/110/330
f 101/110/330 36/294/33 31/31/29
f 101/110/331 26/26/110 99/107/112
f 143/161/172 236/295/332 2/2/2
f 2/2/2 236/295/332 4/4/4
f 143/161/172 93/101/174 236/295/332
f 236/295/332 93/101/174 91/99/333
f 43/296/40 237/297/334 236/295/332
f 236/295/332 237/297/334 4/4/4
f 236/295/332 91/99/333 43/296/40
f 43/296/40 91/99/333 42/298/38
f 237/297/334 67/299/70 4/4/4
f 238/300/335 69/75/72 237/301/334
f 237/301/334 69/75/72 67/73/70
f 43/302/40 44/303/41 237/301/334
f 237/301/334 44/303/41 238/300/335
f 238/300/335 71/77/74 69/75/72
f 71/77/74 238/300/335 102/113/336
f 102/113/336 238/300/335 61/66/337
f 44/303/41 62/67/64 238/300/335
f 238/300/335 62/67/64 61/66/62
f 62/67/64 44/303/41 113/125/338
f 113/125/338 44/303/41 109/126/133
f 102/113/336 61/66/337 46/47/108
f 46/47/108 61/66/337 60/65/109
f 46/47/43 45/46/42 102/113/115
f 102/113/115 45/46/42 103/114/116
f 110/121/130 116/129/131 239/304/339
f 239/304/339 116/129/131 240/305/340
f 41/42/341 40/41/342 116/129/343
f 116/129/343 40/41/342 241/306/344
f 241/306/344 240/305/340 116/129/343
f 240/305/340 241/306/344 242/307/345
f 242/307/345 243/308/346 240/305/340
f 242/309/347 241/310/344 99/107/348
f 242/307/345 244/311/349 243/308/346
f 245/312/350 243/308/351 244/311/352
f 244/313/353 242/309/347 246/314/354
f 246/314/354 242/309/347 247/315/355
f 246/314/354 248/316/356 244/313/353
f 244/311/353 248/317/356 245/312/350
f 246/314/354 247/315/355 249/318/357
f 249/318/357 247/315/355 250/319/358
f 251/320/359 75/81/78 74/80/77
f 110/121/360 239/304/360 252/321/360
f 239/304/339 240/305/340 75/81/78
f 75/81/78 240/305/340 76/82/79
f 25/25/361 247/315/355 99/107/348
f 99/107/348 247/315/355 242/309/347
f 241/306/344 40/41/342 100/108/362
f 241/310/344 100/109/362 99/107/348
f 240/305/340 243/308/346 76/82/79
f 34/35/31 35/36/32 14/14/12
f 14/14/12 35/36/32 114/127/127
f 153/176/185 68/74/71 135/151/161
f 135/151/161 68/74/71 70/76/73
f 21/21/363 20/250/363 207/249/363
f 207/249/364 20/250/364 206/248/364
f 26/26/110 101/110/331 32/32/365
f 95/103/366 208/252/367 97/105/368
f 97/105/369 253/322/370 96/104/245
f 97/105/371 254/323/371 253/322/371
f 253/322/372 254/323/373 255/324/374
f 253/322/372 255/324/374 10/10/375
f 10/10/375 255/324/374 256/325/376
f 253/322/370 10/10/377 96/104/245
f 96/104/245 10/10/377 9/9/244
f 10/10/375 256/325/376 11/11/378
f 11/11/379 256/325/380 257/326/381
f 257/326/382 258/327/383 11/11/67
f 11/11/67 258/327/383 65/70/68
f 258/327/384 259/328/385 65/70/386
f 65/70/387 259/328/387 208/329/387
f 259/330/388 254/323/373 208/252/389
f 208/252/367 254/323/390 97/105/368
f 254/323/373 259/330/388 87/94/391
f 87/94/391 86/93/392 254/323/373
f 254/323/373 86/93/392 255/324/374
f 255/324/374 86/93/392 256/325/376
f 86/93/392 88/95/393 256/325/376
f 256/325/380 88/95/394 257/326/381
f 257/326/382 88/95/395 258/327/383
f 258/327/383 88/95/395 89/97/396
f 258/327/384 89/97/397 259/328/385
f 259/328/398 89/97/398 87/96/398
f 65/70/399 208/329/400 66/71/69
f 248/317/356 260/331/401 245/312/350
f 245/312/350 260/331/402 243/308/351
f 69/75/72 68/74/71 67/73/70
f 133/149/159 153/176/185 135/151/161
f 101/110/330 31/31/29 32/32/403
f 130/144/156 38/39/155 37/38/404
f 153/176/185 133/149/159 13/148/11
f 153/176/185 13/148/11 12/174/10
f 19/19/17 105/116/118 5/5/5
f 113/125/126 112/123/125 17/17/405
f 17/17/405 112/123/125 15/15/13
f 113/125/338 17/17/63 62/67/64
f 76/82/79 243/308/346 74/80/77
f 119/133/136 122/136/139 38/39/143
f 228/282/406 227/281/407 226/283/408
f 226/280/408 227/281/407 225/279/409
f 42/298/37 91/99/100 90/98/99
f 74/80/77 243/308/346 251/320/410
f 243/308/346 260/331/411 251/320/410
f 154/180/187 160/186/193 118/132/135
f 118/132/135 160/186/193 138/154/165
f 79/85/84 83/90/88 94/102/103
f 83/90/88 209/253/274 94/102/103
f 94/102/103 209/253/274 95/103/104
f 149/332/181 36/294/412 90/111/99
f 90/111/99 36/294/412 100/109/113
f 92/100/101 149/167/181 90/98/99
f 252/321/413 108/119/121 110/121/123
f 146/164/178 155/181/188 154/180/187
f 154/180/187 155/181/188 160/186/193
f 31/33/29 34/35/31 137/153/164
f 261/333/414 31/33/414 262/334/414
f 31/33/29 137/153/164 262/334/415
f 31/33/27 261/333/416 24/335/20
f 137/153/164 120/134/137 131/145/157
f 137/153/164 131/145/157 262/334/415
f 72/78/75 70/76/73 71/77/74
f 66/71/69 208/329/400 191/224/235
f 208/329/417 192/225/232 190/221/228
f 208/329/417 190/221/228 191/224/231
f 5/5/5 105/116/118 104/115/117
