# Blender MTL File: 'None'
# Material Count: 1

newmtl lambert2
Ns 280.562504
Ka 1.000000 1.000000 1.000000
Kd 1.000000 1.000000 1.000000
Ks 0.000000 0.000000 0.000000
Ke 0.000000 0.000000 0.000000
Ni 1.450000
d 1.000000
illum 1
map_Kd square_2_tex.png
